{
  "_id": "sFoAenfeqwUBbc67",
  "name": "Deep Creature (Quick)",
  "permission": {
    "default": 0
  },
  "type": "feat",
  "data": {
    "description": {
      "value": "<p><strong>Acquired/Inherited Template</strong>&nbsp;Acquired</p>\n<p><strong>Simple Template&nbsp;</strong>Yes<br /><strong>Usable with Summons</strong>&nbsp;No<br /><br />Deep creatures have been twisted by the deep ones, whether through interbreeding or foul rituals.<br /><br /><strong>Quick Rules: </strong>+8 on Swim checks and can always take 10 on Swim checks; swim speed equal to base land speed; +1 to AC; +1 on rolls based on Con or Wis; +1 hp/HD; two claw attacks that each deal 1d4 points of damage (for Medium creatures); amphibious.<br /><br /><strong>Rebuild Rules:</strong>&nbsp;Type&nbsp;gain the aquatic and deep one subtypes;&nbsp;AC&nbsp;natural armor increases by 1;&nbsp;Speed&nbsp;swim speed equal to base land speed;&nbsp;Melee&nbsp;two claw attacks that each deal 1d4 points of damage (for Medium creatures);&nbsp;Special Qualities&nbsp;amphibious;&nbsp;Ability Scores&nbsp;+2 Str, +2 Con, +2 Wis.</p>",
      "chat": "",
      "unidentified": ""
    },
    "tags": [],
    "activation": {
      "cost": 1,
      "type": ""
    },
    "unchainedAction": {
      "activation": {
        "cost": 1,
        "type": ""
      }
    },
    "duration": {
      "value": null,
      "units": ""
    },
    "target": {
      "value": ""
    },
    "range": {
      "value": null,
      "units": "",
      "maxIncrements": 1,
      "minValue": null,
      "minUnits": "",
      "long": null
    },
    "uses": {
      "value": 0,
      "max": 0,
      "per": null,
      "autoDeductCharges": true,
      "autoDeductChargesCost": "1"
    },
    "measureTemplate": {
      "type": "",
      "size": "0",
      "overrideColor": false,
      "customColor": "",
      "overrideTexture": false,
      "customTexture": ""
    },
    "attackName": "",
    "actionType": "",
    "attackBonus": "",
    "critConfirmBonus": "",
    "damage": {
      "parts": [],
      "critParts": [],
      "nonCritParts": []
    },
    "attackParts": [],
    "formula": "",
    "ability": {
      "attack": null,
      "damage": null,
      "damageMult": 1,
      "critRange": 20,
      "critMult": 2
    },
    "save": {
      "dc": 0,
      "type": "",
      "description": ""
    },
    "effectNotes": "",
    "attackNotes": "",
    "soundEffect": "",
    "changes": [
      {
        "_id": "6u0vi6v1",
        "formula": "8",
        "operator": "+",
        "target": "skill",
        "subTarget": "skill.swm",
        "modifier": "untyped",
        "priority": 0,
        "value": 0
      },
      {
        "_id": "v1a13431",
        "formula": "1",
        "operator": "+",
        "target": "ac",
        "subTarget": "ac",
        "modifier": "untyped",
        "priority": 0,
        "value": 0
      },
      {
        "_id": "k2ub2q6d",
        "formula": "@attributes.hd.total",
        "operator": "+",
        "target": "misc",
        "subTarget": "mhp",
        "modifier": "untyped",
        "priority": 0,
        "value": 0
      },
      {
        "_id": "j2tr4cku",
        "formula": "1",
        "operator": "+",
        "target": "savingThrows",
        "subTarget": "fort",
        "modifier": "untyped",
        "priority": 0,
        "value": 0
      },
      {
        "_id": "wfmlcav1",
        "formula": "1",
        "operator": "+",
        "target": "skills",
        "subTarget": "conSkills",
        "modifier": "untyped",
        "priority": 0,
        "value": 0
      },
      {
        "_id": "bt91n5q2",
        "formula": "1",
        "operator": "+",
        "target": "abilityChecks",
        "subTarget": "conChecks",
        "modifier": "untyped",
        "priority": 0,
        "value": 0
      },
      {
        "_id": "v0rcoojz",
        "formula": "1",
        "operator": "+",
        "target": "savingThrows",
        "subTarget": "will",
        "modifier": "untyped",
        "priority": 0,
        "value": 0
      },
      {
        "_id": "61kwdc6e",
        "formula": "1",
        "operator": "+",
        "target": "abilityChecks",
        "subTarget": "wisChecks",
        "modifier": "untyped",
        "priority": 0,
        "value": 0
      },
      {
        "_id": "ffh0o6yt",
        "formula": "1",
        "operator": "+",
        "target": "skills",
        "subTarget": "wisSkills",
        "modifier": "untyped",
        "priority": 0,
        "value": 0
      }
    ],
    "changeFlags": {
      "loseDexToAC": false,
      "noStr": false,
      "noDex": false,
      "oneInt": false,
      "oneWis": false,
      "oneCha": false,
      "noEncumbrance": false,
      "mediumArmorFullSpeed": false,
      "heavyArmorFullSpeed": false
    },
    "contextNotes": [],
    "links": {
      "children": [],
      "charges": []
    },
    "tag": "",
    "useCustomTag": false,
    "armorProf": {
      "value": [],
      "custom": ""
    },
    "weaponProf": {
      "value": [],
      "custom": ""
    },
    "featType": "template",
    "associations": {
      "classes": []
    },
    "showInQuickbar": false,
    "nonlethal": false,
    "abilityType": "none",
    "crOffset": "1",
    "attack": {
      "parts": []
    }
  },
  "flags": {},
  "img": "systems/pf1/icons/skills/violet_07.jpg",
  "effects": []
}