{
  "_id": "F4glao5wCxrNEsw4",
  "name": "Mutant Goblin",
  "permission": {
    "default": 0
  },
  "type": "feat",
  "data": {
    "description": {
      "value": "<p><strong>Acquired/Inherited Template</strong>&nbsp;Acquired<br><strong>Simple Template</strong>&nbsp;No<br><strong>Usable with Summons</strong>&nbsp;No<br><br>No description provided.<br><br>“Mutant goblin” is an acquired template that can be added to a goblin (referred to hereafter as the base creature). A mutant goblin uses the base creature’s statistics and special abilities except as noted here.<br><br><strong>CR:</strong> Same as the base creature + 1.</p>\n<p><strong>Armor Class:</strong> Natural armor bonus increases by 4.</p>\n<p><strong>Mutations: </strong>A mutant goblin gains four of the following mutations, determined randomly when it gains the template. For every 5 Hit Dice it has (5, 10, and so on), it gains another random mutation. (Other possible mutations include tusks, a spiked tail, and gills.)<br><br><em>Breath Weapon (Su): </em>The goblin can spew a line of foul acidic blood from its mouth (20-foot line, Reflex DC = 10 + 1/2 Hit Die + its Constitution modifier for half damage, 1d4 points of acid damage per HD, usable every 1d4 rounds). If it has 5 or more HD, the range increases to 30 feet and the damage increases to 1d6 points of acid damage per HD.</p>\n<p><em>Claws (Ex): </em>The goblin’s hands become claws. It gains a natural claw attack for each hand that deals damage appropriate to its size, and gains the grab ability with its claws.</p>\n<p><em>Extra Arm (Ex): </em>The goblin gains an extra arm with a functional hand, as the vestigial armUM&nbsp;discovery. If it gains this mutation again, it gains another arm.</p>\n<p><em>Fast Healing (Ex): </em>The goblin gains fast healing 1. If it has 5 Hit Dice or more, this increases to fast healing 2. If the creature has 10 HD or more, this increases to fast healing 5.</p>\n<p><em>Venomous Bite (Ex): </em>The mutant goblin grows large fangs, gaining a poisonous bite as a natural attack that deals damage appropriate to its size. The poison functions like wyvern poison, except its DC is 10 + 1/2 HD + its Constitution modifier.</p>\n<p><em>Wings (Ex): </em>The goblin gains dragonfly wings, granting it a fly speed of 30 feet with clumsy maneuverability.<br><br><strong>Abilities: </strong>Str +4, Int –2.</p>",
      "chat": "",
      "unidentified": ""
    },
    "tags": [],
    "activation": {
      "cost": 1,
      "type": ""
    },
    "unchainedAction": {
      "activation": {
        "cost": 1,
        "type": ""
      }
    },
    "duration": {
      "value": null,
      "units": ""
    },
    "target": {
      "value": ""
    },
    "range": {
      "value": null,
      "units": "",
      "maxIncrements": 1,
      "minValue": null,
      "minUnits": "",
      "long": null
    },
    "uses": {
      "value": 0,
      "max": 0,
      "per": null,
      "autoDeductCharges": true,
      "autoDeductChargesCost": "1"
    },
    "measureTemplate": {
      "type": "",
      "size": "0",
      "overrideColor": false,
      "customColor": "",
      "overrideTexture": false,
      "customTexture": ""
    },
    "attackName": "",
    "actionType": "",
    "attackBonus": "",
    "critConfirmBonus": "",
    "damage": {
      "parts": [],
      "critParts": [],
      "nonCritParts": []
    },
    "attackParts": [],
    "formula": "",
    "ability": {
      "attack": null,
      "damage": null,
      "damageMult": 1,
      "critRange": 20,
      "critMult": 2
    },
    "save": {
      "dc": 0,
      "type": "",
      "description": ""
    },
    "effectNotes": "",
    "attackNotes": "",
    "soundEffect": "",
    "changes": [
      {
        "_id": "2734xy3h",
        "formula": "4",
        "operator": "+",
        "target": "ac",
        "subTarget": "nac",
        "modifier": "untyped",
        "priority": 0,
        "value": 0
      },
      {
        "_id": "ghzvlk9v",
        "formula": "4",
        "operator": "+",
        "target": "ability",
        "subTarget": "str",
        "modifier": "untyped",
        "priority": 0,
        "value": 0
      },
      {
        "_id": "34w8b1xp",
        "formula": "-2",
        "operator": "+",
        "target": "ability",
        "subTarget": "int",
        "modifier": "untyped",
        "priority": 0,
        "value": 0
      }
    ],
    "changeFlags": {
      "loseDexToAC": false,
      "noStr": false,
      "noDex": false,
      "oneInt": false,
      "oneWis": false,
      "oneCha": false,
      "noEncumbrance": false,
      "mediumArmorFullSpeed": false,
      "heavyArmorFullSpeed": false
    },
    "contextNotes": [],
    "links": {
      "children": [],
      "charges": []
    },
    "tag": "",
    "useCustomTag": false,
    "armorProf": {
      "value": [],
      "custom": ""
    },
    "weaponProf": {
      "value": [],
      "custom": ""
    },
    "featType": "template",
    "associations": {
      "classes": []
    },
    "showInQuickbar": false,
    "nonlethal": false,
    "abilityType": "none",
    "crOffset": "1",
    "attack": {
      "parts": []
    }
  },
  "flags": {},
  "img": "systems/pf1/icons/skills/violet_07.jpg",
  "effects": []
}