{
  "_id": "DxKzgjuvqHZMjKz0",
  "name": "Paladin (Quick)",
  "permission": {
    "default": 0
  },
  "type": "feat",
  "data": {
    "description": {
      "value": "<p><strong>Acquired/Inherited Template&nbsp;</strong>Acquired<br><strong>Simple Template&nbsp;</strong>Yes<br><strong>Usable with Summons&nbsp;</strong>No<br><br>Paladin creatures can battle evil using smite evil and heal using lay on hands, and they possesses some defensive abilities as well. A paladin creature's CR increases by 3 if the creature has 10 or more HD. A paladin creature must be lawful good.<br><br><strong>Quick Rules: </strong>+2 on all rolls based on Str and Cha; can smite evil† once per day (treating its HD as its paladin level for the purposes of damage); can use lay on hands† once per day (healing 1d6 hit points for every 2 HD it possesses instead of using its paladin level); gains detect evil† and divine grace† (if the creature has 10 or more HD, it also gains aura of resolve†).<br><br><strong>Rebuild Rules:</strong>&nbsp;Defensive Abilities&nbsp;divine grace† (if the creature has 10 or more HD, it also gains aura of resolve†);&nbsp;Special Attacks&nbsp;smite evil† ability once per day (treating its HD as its paladin level for the purposes of damage);&nbsp;Special Qualities&nbsp;detect evil† as the paladin class feature, lay on hands† once per day (healing 1d6 hit points for every 2 HD the creature possesses instead of using its paladin level);&nbsp;Ability Scores&nbsp;+4 Strength and Charisma.</p>",
      "chat": "",
      "unidentified": ""
    },
    "tags": [],
    "activation": {
      "cost": 1,
      "type": ""
    },
    "unchainedAction": {
      "activation": {
        "cost": 1,
        "type": ""
      }
    },
    "duration": {
      "value": null,
      "units": ""
    },
    "target": {
      "value": ""
    },
    "range": {
      "value": null,
      "units": "",
      "maxIncrements": 1,
      "minValue": null,
      "minUnits": "",
      "long": null
    },
    "uses": {
      "value": 0,
      "max": 0,
      "per": null,
      "autoDeductCharges": true,
      "autoDeductChargesCost": "1"
    },
    "measureTemplate": {
      "type": "",
      "size": "0",
      "overrideColor": false,
      "customColor": "",
      "overrideTexture": false,
      "customTexture": ""
    },
    "attackName": "",
    "actionType": "",
    "attackBonus": "",
    "critConfirmBonus": "",
    "damage": {
      "parts": [],
      "critParts": [],
      "nonCritParts": []
    },
    "attackParts": [],
    "formula": "",
    "ability": {
      "attack": null,
      "damage": null,
      "damageMult": 1,
      "critRange": 20,
      "critMult": 2
    },
    "save": {
      "dc": 0,
      "type": "",
      "description": ""
    },
    "effectNotes": "",
    "attackNotes": "",
    "soundEffect": "",
    "changes": [
      {
        "_id": "vz4q6ofq",
        "formula": "2",
        "operator": "+",
        "target": "attack",
        "subTarget": "mattack",
        "modifier": "untyped",
        "priority": 0,
        "value": 0
      },
      {
        "_id": "uaetggyj",
        "formula": "2",
        "operator": "+",
        "target": "damage",
        "subTarget": "wdamage",
        "modifier": "untyped",
        "priority": 0,
        "value": 0
      },
      {
        "_id": "jm5a570v",
        "formula": "2",
        "operator": "+",
        "target": "skills",
        "subTarget": "strSkills",
        "modifier": "untyped",
        "priority": 0,
        "value": 0
      },
      {
        "_id": "vrbsze5w",
        "formula": "2",
        "operator": "+",
        "target": "abilityChecks",
        "subTarget": "strChecks",
        "modifier": "untyped",
        "priority": 0,
        "value": 0
      },
      {
        "_id": "v7w7db7k",
        "formula": "2",
        "operator": "+",
        "target": "skills",
        "subTarget": "chaSkills",
        "modifier": "untyped",
        "priority": 0,
        "value": 0
      },
      {
        "_id": "3tiuunci",
        "formula": "2",
        "operator": "+",
        "target": "abilityChecks",
        "subTarget": "chaChecks",
        "modifier": "untyped",
        "priority": 0,
        "value": 0
      }
    ],
    "changeFlags": {
      "loseDexToAC": false,
      "noStr": false,
      "noDex": false,
      "oneInt": false,
      "oneWis": false,
      "oneCha": false,
      "noEncumbrance": false,
      "mediumArmorFullSpeed": false,
      "heavyArmorFullSpeed": false
    },
    "contextNotes": [],
    "links": {
      "children": [],
      "charges": []
    },
    "tag": "",
    "useCustomTag": false,
    "armorProf": {
      "value": [],
      "custom": ""
    },
    "weaponProf": {
      "value": [],
      "custom": ""
    },
    "featType": "template",
    "associations": {
      "classes": []
    },
    "showInQuickbar": false,
    "nonlethal": false,
    "abilityType": "none",
    "crOffset": "@attributes.hd.total >= 10 ? 3 : 2",
    "attack": {
      "parts": []
    }
  },
  "flags": {},
  "img": "systems/pf1/icons/skills/violet_07.jpg",
  "effects": []
}