{
  "_id": "4BOuZZKzHQ8FdVEG",
  "name": "Skeletal Champion",
  "permission": {
    "default": 0
  },
  "type": "feat",
  "data": {
    "description": {
      "value": "<p><strong>Acquired/Inherited Template</strong>&nbsp;Acquired<br><strong>Simple Template</strong>&nbsp;No<br><strong>Usable with Summons</strong>&nbsp;No<br><br>Some skeletons retain their intelligence and cunning, making them formidable warriors. These undead are far more powerful than their mindless kin, and many gain class levels.<br><br>“Skeletal Champion” is an acquired template that can be added to any corporeal creature (other than an undead) that has a skeletal system (referred to hereafter as the base creature) and a minimum Intelligence of 3.<br><br><strong>CR:</strong> A skeletal champion’s CR is +1 higher than a normal skeleton with the same HD.<br><br><strong>Type:</strong> The creature’s type becomes undead. It keeps subtypes save for alignment subtypes and subtypes that indicate kind.<br><br><strong>Alignment: </strong>Any evil.<br><br><strong>Armor Class:</strong> Natural armor as per skeleton.<br><br><strong>Hit Dice:</strong> Change all of the creature’s racial HD to d8s, then add 2 racial Hit Dice to this total (creatures without racial HD gain 2). HD from class levels are unchanged.<br><br><strong>Defensive Abilities:</strong> A skeletal champion gains DR 5/bludgeoning, channel resistance +4, and immunity to cold. It also gains all of the standard undead traits.<br><br><strong>Speed: </strong>As standard skeleton.<br><br><strong>Attacks: </strong>As standard skeleton.<br><br><strong>Abilities: </strong>Str +2, Dex +2. As undead, it has no Constitution score.<br><br><strong>BAB:</strong> Its BAB for racial HD equals 3/4 of its HD.<br><br><strong>Skills:</strong> Gains skill ranks per racial Hit Die equal to 4 + its Int modifier. Class skills for racial HD are Climb, Disguise, Fly, Intimidate, Knowledge (arcana), Knowledge (religion), Perception, Sense Motive, Spellcraft, and Stealth. Skills gained from class levels remain unchanged.<br><br><strong>Feats: </strong>A skeletal champion gains Improved Initiative as a bonus feat.<br><br><strong>Saves:</strong> Base save bonuses for racial Hit Dice are Fort +1/3 HD, Ref +1/3 HD, and Will +1/2 HD + 2.</p>",
      "chat": "",
      "unidentified": ""
    },
    "tags": [],
    "activation": {
      "cost": 1,
      "type": ""
    },
    "unchainedAction": {
      "activation": {
        "cost": 1,
        "type": ""
      }
    },
    "duration": {
      "value": null,
      "units": ""
    },
    "target": {
      "value": ""
    },
    "range": {
      "value": null,
      "units": "",
      "maxIncrements": 1,
      "minValue": null,
      "minUnits": "",
      "long": null
    },
    "uses": {
      "value": 0,
      "max": 0,
      "per": null,
      "autoDeductCharges": true,
      "autoDeductChargesCost": "1"
    },
    "measureTemplate": {
      "type": "",
      "size": "0",
      "overrideColor": false,
      "customColor": "",
      "overrideTexture": false,
      "customTexture": ""
    },
    "attackName": "",
    "actionType": "",
    "attackBonus": "",
    "critConfirmBonus": "",
    "damage": {
      "parts": [],
      "critParts": [],
      "nonCritParts": []
    },
    "attackParts": [],
    "formula": "",
    "ability": {
      "attack": null,
      "damage": null,
      "damageMult": 1,
      "critRange": 20,
      "critMult": 2
    },
    "save": {
      "dc": 0,
      "type": "",
      "description": ""
    },
    "effectNotes": "",
    "attackNotes": "",
    "soundEffect": "",
    "changes": [
      {
        "_id": "vnyyukym",
        "formula": "2",
        "operator": "+",
        "target": "ability",
        "subTarget": "str",
        "modifier": "untyped",
        "priority": 0,
        "value": 0
      },
      {
        "_id": "osi23s1e",
        "formula": "2",
        "operator": "+",
        "target": "ability",
        "subTarget": "dex",
        "modifier": "untyped",
        "priority": 0,
        "value": 0
      }
    ],
    "changeFlags": {
      "loseDexToAC": false,
      "noStr": false,
      "noDex": false,
      "oneInt": false,
      "oneWis": false,
      "oneCha": false,
      "noEncumbrance": false,
      "mediumArmorFullSpeed": false,
      "heavyArmorFullSpeed": false
    },
    "contextNotes": [],
    "links": {
      "children": [],
      "charges": []
    },
    "tag": "",
    "useCustomTag": false,
    "armorProf": {
      "value": [],
      "custom": ""
    },
    "weaponProf": {
      "value": [],
      "custom": ""
    },
    "featType": "template",
    "associations": {
      "classes": []
    },
    "showInQuickbar": false,
    "nonlethal": false,
    "abilityType": "none",
    "crOffset": "1",
    "attack": {
      "parts": []
    }
  },
  "flags": {},
  "img": "systems/pf1/icons/skills/violet_07.jpg",
  "effects": []
}