{
  "_id": "LAtTC2NPuqjTLEkn",
  "name": "Adaro",
  "permission": {
    "default": 0
  },
  "type": "race",
  "data": {
    "description": {
      "value": "<h2>Standard Racial Traits</h2>\n<ul>\n<li><strong>Ability Scores:</strong> +2&nbsp;<a href=\"https://www.d20pfsrd.com/basics-ability-scores/ability-scores#TOC-Strength-Str-\">Strength</a>, +2&nbsp;<a href=\"https://www.d20pfsrd.com/basics-ability-scores/ability-scores#TOC-Dexterity-Dex-\">Dexterity</a>, +2&nbsp;<a href=\"https://www.d20pfsrd.com/basics-ability-scores/ability-scores#TOC-Constitution-Con-\">Constitution</a>, –2&nbsp;<a href=\"https://www.d20pfsrd.com/basics-ability-scores/ability-scores#TOC-Intelligence-Int-\">Intelligence</a>: Adaros are terrifying physically, but their rampant bloodlust hampers their intellect.</li>\n<li><strong>Type:</strong> Adaros are&nbsp;<a href=\"https://www.d20pfsrd.com/bestiary/rules-for-monsters/creature-types#TOC-Monstrous-Humanoid\">monstrous humanoids</a>&nbsp;with the&nbsp;<a href=\"https://www.d20pfsrd.com/bestiary/rules-for-monsters/creature-types#TOC-Aquatic\">aquatic</a>&nbsp;subtype.</li>\n<li><strong>Amphibious:</strong> Adaros have the&nbsp;<a href=\"https://www.d20pfsrd.com/bestiary/rules-for-monsters/creature-types#TOC-Aquatic\">aquatic</a>&nbsp;subtype, but they can breathe both water and air.</li>\n<li><strong>Size:</strong> Adaros are Medium creatures and have no bonuses or penalties due to their size.</li>\n<li><strong>Languages:</strong> Adaros begin play speaking Aquan and Common. Adaros with high&nbsp;<a href=\"https://www.d20pfsrd.com/basics-ability-scores/ability-scores#TOC-Intelligence-Int-\">Intelligence</a>&nbsp;scores can choose from the following: Abyssal, Aklo, Draconic,&nbsp;<a href=\"https://www.d20pfsrd.com/bestiary/rules-for-monsters/creature-types#TOC-Giant\">Giant</a>, Infernal, and Undercommon.</li>\n</ul>\n<h4>Senses</h4>\n<ul>\n<li><strong>Blindsense:</strong> Adaros have&nbsp;<a href=\"https://www.d20pfsrd.com/gamemastering/special-abilities#TOC-Blindsight-and-Blindsense\">blindsense</a>&nbsp;with a range of 30 feet.</li>\n<li><strong>Low-Light Vision:</strong> Adaros benefit from&nbsp;<a href=\"https://www.d20pfsrd.com/gamemastering/special-abilities#TOC-Low-Light-Vision\">low-light vision</a>.</li>\n<li><strong>Darkvision:</strong> Adaros have&nbsp;<a href=\"https://www.d20pfsrd.com/gamemastering/special-abilities#TOC-Darkvision\">darkvision</a>&nbsp;with a range of 60 feet.</li>\n<li><strong>Keen Scent (2 RP):</strong> Adaros can detect creatures by&nbsp;<a href=\"https://www.d20pfsrd.com/gamemastering/special-abilities#TOC-Scent\">scent</a>&nbsp;in a 180-foot radius underwater and can detect blood in the water at ranges of up to a mile.</li>\n</ul>\n<h4>Movement</h4>\n<ul>\n<li style=\"box-sizing: border-box;\"><span style=\"box-sizing: border-box; font-weight: bold;\">Slow Speed</span>: Adaros have a base speed of 10 feet.</li>\n<li style=\"box-sizing: border-box;\"><span style=\"box-sizing: border-box; font-weight: bold;\">Swim Speed</span>: Adaros have a swim speed of 50 feet.</li>\n</ul>\n<h4>Defensive Abilities</h4>\n<ul>\n<li><strong>Natural Armor:</strong> Adaros have a +2&nbsp;<a href=\"https://www.d20pfsrd.com/basics-ability-scores/glossary#TOC-Natural-Armor-Bonus\">natural armor bonus</a>.</li>\n</ul>\n<h4>Offensive Abilities</h4>\n<ul>\n<li><strong>Powerful Bite (3 RP):</strong> Adaros have a natural bite attack that deals 1d6 points of damage. This bite is a primary attack, or a secondary attack if the creature is wielding manufactured weapons.</li>\n<li><strong>Rain Frenzy (4 RP):</strong> Adaros revere storms, and their lust for blood is amplified exponentially while it is raining. While fighting in the rain or during other stormy weather, adaros act as though affected by the&nbsp;<a href=\"https://www.d20pfsrd.com/magic/all-spells/r/rage\">rage</a>&nbsp;spell. An adaro gains this benefit even if it is underwater, but only as long as it remains within its swim speed of the water’s surface.</li>\n<li><strong>Poison Use:</strong> Adaros are skilled with&nbsp;<a href=\"https://www.d20pfsrd.com/gamemastering/afflictions/poison\">poison</a>&nbsp;and never risk accidentally poisoning themselves when applying&nbsp;<a href=\"https://www.d20pfsrd.com/gamemastering/afflictions/poison\">poison</a>&nbsp;to weapons.</li>\n<li><strong>Speak with Sharks (1 RP):</strong> Adaros can communicate telepathically with&nbsp;<a href=\"https://www.d20pfsrd.com/bestiary/monster-listings/animals/shark/shark\">sharks</a>&nbsp;to a distance of 100 feet. This communication is limited to simple concepts, such as “attack,” “come,” and “defend.”</li>\n</ul>",
      "chat": "",
      "unidentified": ""
    },
    "tags": [],
    "changes": [
      {
        "_id": "gzu8wdu8",
        "formula": "2",
        "operator": "+",
        "target": "ability",
        "subTarget": "str",
        "modifier": "racial",
        "priority": 0,
        "value": 0
      },
      {
        "_id": "n970vdju",
        "formula": "2",
        "operator": "+",
        "target": "ability",
        "subTarget": "dex",
        "modifier": "racial",
        "priority": 0,
        "value": 0
      },
      {
        "_id": "v3tlvkch",
        "formula": "-2",
        "operator": "+",
        "target": "ability",
        "subTarget": "int",
        "modifier": "racial",
        "priority": 0,
        "value": 0
      },
      {
        "_id": "e3yzjehj",
        "formula": "2",
        "operator": "+",
        "target": "ability",
        "subTarget": "con",
        "modifier": "racial",
        "priority": 0,
        "value": 0
      },
      {
        "_id": "7x6lymn6",
        "formula": "2",
        "operator": "+",
        "target": "ac",
        "subTarget": "nac",
        "modifier": "base",
        "priority": 0,
        "value": 0
      }
    ],
    "changeFlags": {
      "loseDexToAC": false,
      "noStr": false,
      "noDex": false,
      "oneInt": false,
      "oneWis": false,
      "oneCha": false,
      "noEncumbrance": false,
      "mediumArmorFullSpeed": false,
      "heavyArmorFullSpeed": false
    },
    "contextNotes": [],
    "links": {
      "children": []
    },
    "armorProf": {
      "value": [],
      "custom": ""
    },
    "weaponProf": {
      "value": [],
      "custom": ""
    },
    "creatureType": "monstrousHumanoid",
    "subTypes": [
      [
        "Aquatic"
      ]
    ],
    "damage": {
      "parts": []
    }
  },
  "flags": {},
  "img": "systems/pf1/icons/races/creature-types/abberation.png",
  "effects": []
}