{
  "_id": "WxPc1Nw2V3ohdl2x",
  "name": "Locathah",
  "permission": {
    "default": 0
  },
  "type": "race",
  "data": {
    "description": {
      "value": "<h2>Standard Racial Traits</h2>\n<ul>\n<li><strong>Ability Scores:</strong> +2&nbsp;<a href=\"https://www.d20pfsrd.com/basics-ability-scores/ability-scores#TOC-Dexterity-Dex-\">Dexterity</a>, +2&nbsp;<a href=\"https://www.d20pfsrd.com/basics-ability-scores/ability-scores#TOC-Wisdom-Wis-\">Wisdom</a>, –2&nbsp;<a href=\"https://www.d20pfsrd.com/basics-ability-scores/ability-scores#TOC-Intelligence-Int-\">Intelligence</a>: Locathahs are agile and intuitive, but they are more interested in travel and experiences than in academia.</li>\n<li><strong>Size: </strong>Medium: Locathahs are Medium creatures and have no bonuses or penalties due to their size.</li>\n<li><strong>Type:</strong> Aquatic: Locathahs are&nbsp;<a href=\"https://www.d20pfsrd.com/bestiary/rules-for-monsters/creature-types#TOC-Humanoid\">humanoids</a>&nbsp;with the&nbsp;<a href=\"https://www.d20pfsrd.com/bestiary/rules-for-monsters/creature-types#TOC-Aquatic\">aquatic</a>&nbsp;subtype.</li>\n<li><strong>Amphibious:</strong> Locathahs have the&nbsp;<a href=\"https://www.d20pfsrd.com/bestiary/rules-for-monsters/creature-types#TOC-Aquatic\">aquatic</a>&nbsp;subtype but can breathe both water and air.</li>\n<li><strong>Languages:</strong> Locathahs begin play speaking Aquan and Common. Locathahs with a high&nbsp;<a href=\"https://www.d20pfsrd.com/basics-ability-scores/ability-scores#TOC-Intelligence-Int-\">Intelligence</a>&nbsp;score can choose from the following: Aklo, Draconic, Elven, Giant, Gnome,&nbsp;<a href=\"https://www.d20pfsrd.com/races/other-races/featured-races/arg-goblin\">Go</a>b<a href=\"https://www.d20pfsrd.com/races/other-races/featured-races/arg-goblin\">lin</a>, and Halfling.</li>\n</ul>\n<h3><span id=\"Movement_Movement_Abilities\">Movement &amp; Movement Abilities</span></h3>\n<ul>\n<li style=\"box-sizing: border-box;\"><span style=\"box-sizing: border-box; font-weight: bold;\">Slow Speed</span>: Locathahs have a base speed of 10 feet.</li>\n<li style=\"box-sizing: border-box;\"><span style=\"box-sizing: border-box; font-weight: bold;\">Fast Swimmer (5 RP)</span>: Locathahs have a swim speed of 60 feet.</li>\n</ul>\n<h3><span id=\"Senses\">Senses</span></h3>\n<ul>\n<li><strong>Low-Light Vision:</strong> Locathahs live in areas where sunlight illuminates the water, and they have&nbsp;<a href=\"https://www.d20pfsrd.com/gamemastering/special-abilities#TOC-Low-Light-Vision\">low-light vision</a>.</li>\n</ul>\n<h3>Defensive Abilities</h3>\n<ul>\n<li><strong>Natural Armor:</strong> Locathahs have thick scales that provide a +2&nbsp;<a href=\"https://www.d20pfsrd.com/basics-ability-scores/glossary#TOC-Natural-Armor-Bonus\">natural armor bonus</a>.</li>\n</ul>",
      "chat": "",
      "unidentified": ""
    },
    "tags": [],
    "changes": [
      {
        "_id": "3b0w0yzd",
        "formula": "2",
        "operator": "+",
        "target": "ability",
        "subTarget": "dex",
        "modifier": "racial",
        "priority": 0,
        "value": 0
      },
      {
        "_id": "255n7bob",
        "formula": "2",
        "operator": "+",
        "target": "ability",
        "subTarget": "wis",
        "modifier": "racial",
        "priority": 0,
        "value": 0
      },
      {
        "_id": "37r2eq31",
        "formula": "-2",
        "operator": "+",
        "target": "ability",
        "subTarget": "int",
        "modifier": "racial",
        "priority": 0,
        "value": 0
      },
      {
        "_id": "cw1zdh1t",
        "formula": "2",
        "operator": "+",
        "target": "ac",
        "subTarget": "nac",
        "modifier": "base",
        "priority": 0,
        "value": 0
      }
    ],
    "changeFlags": {
      "loseDexToAC": false,
      "noStr": false,
      "noDex": false,
      "oneInt": false,
      "oneWis": false,
      "oneCha": false,
      "noEncumbrance": false,
      "mediumArmorFullSpeed": false,
      "heavyArmorFullSpeed": false
    },
    "contextNotes": [],
    "links": {
      "children": []
    },
    "armorProf": {
      "value": [],
      "custom": ""
    },
    "weaponProf": {
      "value": [],
      "custom": ""
    },
    "creatureType": "humanoid",
    "subTypes": [
      [
        "Aquatic"
      ]
    ],
    "damage": {
      "parts": []
    }
  },
  "flags": {},
  "img": "systems/pf1/icons/skills/blue_06.jpg",
  "effects": []
}