{
  "_id": "TpfcHDjKatQL3XBl",
  "name": "Naiad",
  "permission": {
    "default": 0
  },
  "type": "race",
  "data": {
    "description": {
      "value": "<h2>Standard Racial Traits</h2>\n<ul>\n<li>\n<p><strong>Ability Scores:</strong> +2&nbsp;<a href=\"https://www.d20pfsrd.com/basics-ability-scores/ability-scores#TOC-Dexterity-Dex-\">Dexterity</a>, +2&nbsp;<a href=\"https://www.d20pfsrd.com/basics-ability-scores/ability-scores#TOC-Charisma-Cha-\">Charisma</a>, –2&nbsp;<a href=\"https://www.d20pfsrd.com/basics-ability-scores/ability-scores#TOC-Strength-Str-\">Strength</a>: Naiads have elegant&nbsp;<a href=\"https://www.d20pfsrd.com/bestiary/rules-for-monsters/creature-types#TOC-Fey\">fey</a>&nbsp;grace and beauty but have delicate builds.</p>\n</li>\n<li>\n<p><strong>Type:</strong> Naiad are&nbsp;<a href=\"https://www.d20pfsrd.com/bestiary/rules-for-monsters/creature-types#TOC-Fey\">Fey</a>&nbsp;with the&nbsp;<a href=\"https://www.d20pfsrd.com/bestiary/rules-for-monsters/creature-types/#TOC-Water-Subtype\">Water</a>&nbsp;subtype.</p>\n</li>\n<li>\n<p><strong>Size:</strong> Medium. Naiads are Medium creatures.</p>\n</li>\n<li>\n<p><strong>Speed</strong>: Naiads have a base speed of 30 feet and a swim speed of 30 feet.</p>\n</li>\n<li><strong>Languages:</strong> Naiads begin play speaking Common and Sylvan. Naiads that have high&nbsp;<a href=\"https://www.d20pfsrd.com/basics-ability-scores/ability-scores#TOC-Intelligence-Int-\">Intelligence</a>&nbsp;scores are able to choose from any of the following bonus languages: Aklo, Aquan, Dwarven, Elven, Giant, Gnome, Goblin, Halfling, Sylvan, and any regional human tongue.</li>\n</ul>\n<h3>Skill Racial Traits</h3>\n<ul>\n<li>\n<h4><strong><span id=\"Fey_Nature\">Fey Nature:&nbsp;</span></strong>Naiads have a +2&nbsp;<a href=\"https://www.d20pfsrd.com/basics-ability-scores/glossary#TOC-Racial-Bonus\">racial bonus</a>&nbsp;on&nbsp;<a href=\"https://www.d20pfsrd.com/skills/handle-animal\">Handle Animal</a>&nbsp;and&nbsp;<a href=\"https://www.d20pfsrd.com/skills/knowledge\">Knowledge</a>&nbsp;(nature) checks.</h4>\n</li>\n</ul>\n<h3>Other Racial Traits</h3>\n<ul>\n<li>\n<h4><strong><span id=\"Inspiration_Su\">Inspiration (Su):&nbsp;</span></strong>A naiad can choose another intelligent creature to inspire by giving that creature a token (typically a lock of her hair). As long as the creature carries the naiad’s token and retains her favor, that creature gains a +1&nbsp;<a href=\"https://www.d20pfsrd.com/basics-ability-scores/glossary#TOC-Insight-Bonus\">insight bonus</a>&nbsp;on&nbsp;<a href=\"https://www.d20pfsrd.com/gamemastering/combat#TOC-Will\">Will</a>&nbsp;saving throws and&nbsp;<a href=\"https://www.d20pfsrd.com/skills/craft\">Craft</a>&nbsp;and&nbsp;<a href=\"https://www.d20pfsrd.com/skills/perform\">Perform</a>&nbsp;checks. The naiad retains a link to her token and its carrier as if she had cast a&nbsp;<a href=\"https://www.d20pfsrd.com/magic/all-spells/s/status\">status</a>&nbsp;spell on the carrier. The naiad can end this effect at any time as a&nbsp;<a href=\"https://www.d20pfsrd.com/gamemastering/combat#TOC-Free-Actions\">free action</a>. A single naiad can only inspire one other creature at a time in this manner.</h4>\n<h4><strong><span id=\"Water_Bond_Su\">Water Bond (Su):&nbsp;</span></strong>A naiad gains strength from a pond, lake, river, or other body of fresh water by bonding with it. While within 300 yards of her bonded body of water, she gains a +1&nbsp;<a href=\"https://www.d20pfsrd.com/basics-ability-scores/glossary#TOC-Insight-Bonus\">insight bonus</a>&nbsp;to&nbsp;<a href=\"https://www.d20pfsrd.com/gamemastering/combat#TOC-Armor-Class\">Armor Class</a>&nbsp;and a +1&nbsp;<a href=\"https://www.d20pfsrd.com/basics-ability-scores/glossary#TOC-Racial-Bonus\">racial bonus</a>&nbsp;on saving throws (these bonuses are not included in the stats above). Once per day as a&nbsp;<a href=\"https://www.d20pfsrd.com/gamemastering/combat#TOC-Full-Round-Actions\">full-round action</a>&nbsp;that provokes&nbsp;<a href=\"https://www.d20pfsrd.com/gamemastering/combat#TOC-Attacks-of-Opportunity\">attacks of opportunity</a>, a naiad can forge a bond with a body of fresh water.</h4>\n</li>\n</ul>\n<h3>Senses Racial Traits</h3>\n<ul>\n<li><strong>Low-Light Vision:</strong> All Naiads can see twice as far as&nbsp;<a href=\"https://www.d20pfsrd.com/races/core-races/human\">humans</a>&nbsp;can in dim light.</li>\n</ul>",
      "chat": "",
      "unidentified": ""
    },
    "tags": [],
    "changes": [
      {
        "_id": "i9kvjysr",
        "formula": "2",
        "operator": "add",
        "target": "ability",
        "subTarget": "dex",
        "modifier": "racial",
        "priority": 0,
        "value": 0
      },
      {
        "_id": "f05ljesa",
        "formula": "2",
        "operator": "add",
        "target": "ability",
        "subTarget": "cha",
        "modifier": "racial",
        "priority": 0,
        "value": 0
      },
      {
        "_id": "1budb73j",
        "formula": "-2",
        "operator": "add",
        "target": "ability",
        "subTarget": "str",
        "modifier": "racial",
        "priority": 0,
        "value": 0
      },
      {
        "_id": "kzstkfv6",
        "formula": "2",
        "operator": "add",
        "target": "skill",
        "subTarget": "skill.han",
        "modifier": "racial",
        "priority": 0,
        "value": 0
      },
      {
        "_id": "gqwxa482",
        "formula": "2",
        "operator": "add",
        "target": "skill",
        "subTarget": "skill.kna",
        "modifier": "racial",
        "priority": 0,
        "value": 0
      }
    ],
    "changeFlags": {
      "loseDexToAC": false,
      "noStr": false,
      "noDex": false,
      "oneInt": false,
      "oneWis": false,
      "oneCha": false,
      "noEncumbrance": false,
      "mediumArmorFullSpeed": false,
      "heavyArmorFullSpeed": false
    },
    "contextNotes": [],
    "links": {
      "children": []
    },
    "armorProf": {
      "value": [],
      "custom": ""
    },
    "weaponProf": {
      "value": [],
      "custom": ""
    },
    "creatureType": "fey",
    "subTypes": [
      [
        "Water"
      ]
    ],
    "damage": {
      "parts": []
    },
    "identifiedName": "Naiad",
    "uses": {
      "value": 0,
      "max": 0
    }
  },
  "flags": {},
  "img": "systems/pf1/icons/races/undine.png",
  "effects": []
}