{
  "_id": "6qhmrODr0eVmWDFj",
  "name": "Durable Arrow",
  "permission": {
    "default": 0
  },
  "type": "loot",
  "data": {
    "description": {
      "value": "<p><strong>Benefit</strong>: Durable arrows don&rsquo;t break due to normal use, whether or not they hit their target; unless the arrow goes missing, an archer can retrieve and reuse a durable arrow again and again. Durable arrows can be broken in other ways (such as deliberate snapping, hitting a fire elemental, and so on).</p>\n<p><strong>Drawback</strong>: If crafted with magic (such as bane), the magic only lasts for one use of the arrow, but the nonmagical arrow can still be reused or imbued with magic again.</p>",
      "chat": "",
      "unidentified": ""
    },
    "tags": [],
    "quantity": 1,
    "weight": 0,
    "price": 1,
    "identified": true,
    "hp": {
      "max": 1,
      "value": 1
    },
    "hardness": 5,
    "carried": true,
    "unidentified": {
      "price": 0,
      "name": ""
    },
    "identifiedName": "",
    "cl": 0,
    "aura": {
      "custom": false,
      "school": ""
    },
    "changes": [],
    "changeFlags": {
      "loseDexToAC": false,
      "noStr": false,
      "noDex": false,
      "oneInt": false,
      "oneWis": false,
      "oneCha": false,
      "noEncumbrance": false,
      "mediumArmorFullSpeed": false,
      "heavyArmorFullSpeed": false
    },
    "contextNotes": [],
    "links": {
      "children": []
    },
    "subType": "ammo",
    "equipped": false,
    "damage": {
      "parts": []
    }
  },
  "flags": {},
  "img": "systems/pf1/icons/items/weapons/arrow-special.PNG",
  "effects": []
}