{
  "_id": "TY2OYrSQi0lcKT3x",
  "name": "Flight Arrow",
  "permission": {
    "default": 0
  },
  "type": "loot",
  "data": {
    "description": {
      "value": "<p><strong>Benefit</strong>: A flight arrows range increment is 20 feet greater with longbows, 10 feet greater with shortbows.</p>\n<p><strong>Drawback</strong>: Flight arrows deal damage as if one size category smaller.</p>",
      "chat": "",
      "unidentified": ""
    },
    "tags": [],
    "quantity": 1,
    "weight": 0.15,
    "price": 0.1,
    "identified": true,
    "hp": {
      "max": 1,
      "value": 1
    },
    "hardness": 5,
    "carried": true,
    "unidentified": {
      "price": 0.1,
      "name": ""
    },
    "identifiedName": "Flight Arrow",
    "cl": 0,
    "aura": {
      "custom": false,
      "school": ""
    },
    "changes": [],
    "changeFlags": {
      "loseDexToAC": false,
      "noStr": false,
      "noDex": false,
      "oneInt": false,
      "oneWis": false,
      "oneCha": false,
      "noEncumbrance": false,
      "mediumArmorFullSpeed": false,
      "heavyArmorFullSpeed": false
    },
    "contextNotes": [],
    "links": {
      "children": []
    },
    "subType": "ammo",
    "equipped": false,
    "damage": {
      "parts": [],
      "critParts": []
    }
  },
  "flags": {},
  "img": "systems/pf1/icons/items/weapons/arrow.PNG",
  "effects": []
}