{
  "_id": "cF6y7ikfa8mSiIcE",
  "name": "Orc Skull Ram",
  "permission": {
    "default": 0
  },
  "type": "weapon",
  "data": {
    "description": {
      "value": "<p><em>This weapon consists of a wooden log with a shoulder strap to carry some of the weight. The name comes from the&nbsp;<a href=\"https://www.d20pfsrd.com/races/other-races/featured-races/arg-orc\">orc</a>&nbsp;tradition of making the ram’s head out of a large skull.</em></p>\n<p>On a successful&nbsp;<a href=\"https://www.d20pfsrd.com/gamemastering/combat#TOC-Critical-Hits\">critical hit</a>&nbsp;with a skull ram, you can attempt a&nbsp;<a href=\"https://www.d20pfsrd.com/gamemastering/combat#TOC-Combat-Maneuvers\">combat maneuver</a>&nbsp;check to&nbsp;<a href=\"https://www.d20pfsrd.com/gamemastering/combat#TOC-Bull-Rush\">bull rush</a>&nbsp;your opponent as a&nbsp;<a href=\"https://www.d20pfsrd.com/gamemastering/combat#TOC-Free-Actions\">free action</a>.</p>",
      "chat": "",
      "unidentified": ""
    },
    "tags": [],
    "quantity": 1,
    "weight": 20,
    "price": 15,
    "identified": true,
    "hp": {
      "max": 10,
      "value": 10
    },
    "hardness": 5,
    "carried": true,
    "unidentified": {
      "price": 0,
      "name": ""
    },
    "identifiedName": "",
    "cl": 0,
    "aura": {
      "custom": false,
      "school": ""
    },
    "changes": [],
    "changeFlags": {
      "loseDexToAC": false,
      "noStr": false,
      "noDex": false,
      "oneInt": false,
      "oneWis": false,
      "oneCha": false,
      "noEncumbrance": false,
      "mediumArmorFullSpeed": false,
      "heavyArmorFullSpeed": false
    },
    "contextNotes": [],
    "links": {
      "children": []
    },
    "equipped": true,
    "masterwork": false,
    "weaponType": "exotic",
    "weaponSubtype": "2h",
    "properties": {
      "blc": false,
      "brc": false,
      "dbl": false,
      "dis": false,
      "fin": false,
      "frg": false,
      "imp": false,
      "mnk": false,
      "nnl": false,
      "prf": false,
      "rch": true,
      "thr": false,
      "trp": false
    },
    "enh": null,
    "weaponData": {
      "damageRoll": "1d10",
      "damageType": "B",
      "critRange": "20",
      "critMult": "3",
      "range": null,
      "attackFormula": "",
      "damageFormula": "",
      "size": "med",
      "maxRangeIncrements": 1
    },
    "broken": false,
    "bonus": {
      "value": 0,
      "_deprecated": true
    },
    "damageType": {
      "value": "",
      "_deprecated": true
    },
    "damage2": {
      "value": "",
      "_deprecated": true
    },
    "damage2Type": {
      "value": "",
      "_deprecated": true
    },
    "damage": {
      "parts": []
    }
  },
  "flags": {},
  "img": "systems/pf1/icons/items/weapons/orc-skull-ram.png",
  "effects": []
}