{
  "_id": "0WEDRHec9z871p4t",
  "name": "Smoke Sling Bullet",
  "permission": {
    "default": 0
  },
  "type": "loot",
  "data": {
    "description": {
      "value": "<p>Smoke bullets require only a successful touch attack to release the smoke. When they strike a target, they burst, releasing a cloud of noxious gas that requires the creature struck to attempt a DC 13&nbsp;<a href=\"https://www.d20pfsrd.com/gamemastering/combat/#TOC-Fortitude\">Fortitude</a>&nbsp;save. If the save fails, the target is nauseated for 2 rounds.</p>",
      "chat": "",
      "unidentified": ""
    },
    "tags": [],
    "quantity": 1,
    "weight": 0.5,
    "price": 10,
    "identified": true,
    "hp": {
      "max": 1,
      "value": 1
    },
    "hardness": 1,
    "carried": true,
    "unidentified": {
      "price": 10,
      "name": ""
    },
    "identifiedName": "Smoke Sling Bullet",
    "cl": 0,
    "aura": {
      "custom": false,
      "school": ""
    },
    "changes": [],
    "changeFlags": {
      "loseDexToAC": false,
      "noStr": false,
      "noDex": false,
      "oneInt": false,
      "oneWis": false,
      "oneCha": false,
      "noEncumbrance": false,
      "mediumArmorFullSpeed": false,
      "heavyArmorFullSpeed": false
    },
    "contextNotes": [],
    "links": {
      "children": []
    },
    "subType": "ammo",
    "equipped": false,
    "damage": {
      "parts": [],
      "critParts": []
    }
  },
  "flags": {},
  "img": "systems/pf1/icons/items/weapons/bullet.png",
  "effects": []
}