{
  "_id": "ltqyzaiqjpdpjhdh",
  "name": "Antitoxin",
  "permission": {
    "default": 0
  },
  "type": "loot",
  "data": {
    "description": {
      "value": "\r\n<p class=\"source\"><b>Source</b> <a title=\"PZO1110\" href=\"http://www.amazon.com/gp/product/1601251505/ref=as_li_qf_sp_asin_il_tl?ie=UTF8&amp;camp=1789&amp;creative=9325&amp;creativeASIN=1601251505&amp;linkCode=as2&amp;tag=httpwwwd20pfs-20\" target=\"_blank\" rel=\"noopener\">PZO1110</a></p>\r\n<p>If you drink a vial of antitoxin, you get a +5 <a href=\"https://www.d20pfsrd.com/basics-ability-scores/glossary#TOC-Bonus-Alchemical-\">alchemical bonus</a> on <a href=\"https://www.d20pfsrd.com/gamemastering/combat#TOC-Fortitude\">Fortitude</a> <a href=\"https://www.d20pfsrd.com/gamemastering/combat#TOC-Saving-Throws\">saving throws</a> against <a href=\"https://www.d20pfsrd.com/gamemastering/afflictions#TOC-Poison\">poison</a> for 1 hour.</p>\r\n<p class=\"header\">Alchemical Power Component</p>\r\n<p class=\"source\"><b>Source</b> <a title=\"PZO9410\" href=\"http://www.amazon.com/gp/product/1601252226/ref=as_li_qf_sp_asin_il_tl?ie=UTF8&amp;camp=1789&amp;creative=9325&amp;creativeASIN=1601252226&amp;linkCode=as2&amp;tag=httpwwwd20pfs-20\" target=\"_blank\" rel=\"noopener\">PZO9410</a></p>\r\n<p>Like antiplague, antitoxin can augment certain <a href=\"https://www.d20pfsrd.com/magic#TOC-Conjuration-Healing\">healing</a> spells.</p>\r\n<ul>\r\n<li><a class=\"spell\" href=\"https://www.d20pfsrd.com/magic/all-spells/n/neutralize-poison\">Neutralize Poison</a> (M): Add +2 on your <a href=\"https://www.d20pfsrd.com/magic#TOC-Caster-Level\">caster level</a> check to neutralize poison on a target creature. Antitoxin has no effect when you cast the spell on an object.</li>\r\n</ul>\r\n",
      "chat": "",
      "unidentified": ""
    },
    "tags": [],
    "quantity": 1,
    "weight": 0,
    "price": 50,
    "identified": true,
    "hp": {
      "max": 10,
      "value": 10
    },
    "hardness": 0,
    "carried": true,
    "unidentified": {
      "price": 0,
      "name": ""
    },
    "identifiedName": "",
    "cl": 0,
    "aura": {
      "custom": false,
      "school": ""
    },
    "changes": [],
    "changeFlags": {
      "loseDexToAC": false,
      "noStr": false,
      "noDex": false,
      "oneInt": false,
      "oneWis": false,
      "oneCha": false,
      "noEncumbrance": false,
      "mediumArmorFullSpeed": false,
      "heavyArmorFullSpeed": false
    },
    "contextNotes": [],
    "links": {
      "children": []
    },
    "tag": "",
    "useCustomTag": false,
    "subType": "gear",
    "equipped": false,
    "damage": {
      "parts": []
    }
  },
  "flags": {},
  "img": "systems/pf1/icons/items/inventory/dice.jpg",
  "effects": []
}