{
  "_id": "O1IuoaVvgX5nAl18",
  "name": "Backpack, Masterwork",
  "permission": {
    "default": 0
  },
  "type": "container",
  "data": {
    "description": {
      "value": "<p>This backpack has numerous pockets for storing items that might be needed while adventuring. Hooks are included for attaching items such as canteens, pouches, or even a rolled-up blanket. It has padded bands that strap across the chest and the waist to distribute its weight more evenly. Like a common backpack, it can hold about 2 cubic feet of material in its main container. When wearing a masterwork backpack, treat your Strength score as +1 higher than normal when calculating your carrying capacity.</p>",
      "chat": "",
      "unidentified": ""
    },
    "tags": [],
    "quantity": 1,
    "weight": 4,
    "price": 50,
    "identified": true,
    "hp": {
      "max": 10,
      "value": 10
    },
    "hardness": 0,
    "carried": true,
    "unidentified": {
      "price": 0,
      "name": "",
      "basePrice": 0
    },
    "identifiedName": "Backpack, Masterwork",
    "cl": 0,
    "aura": {
      "custom": false,
      "school": ""
    },
    "inventoryItems": [],
    "maxWeight": null,
    "weightReduction": 0,
    "baseWeight": 4,
    "sellMultiplier": 0.5,
    "currency": {
      "pp": 0,
      "gp": 0,
      "sp": 0,
      "cp": 0
    },
    "basePrice": 50,
    "damage": {
      "parts": [],
      "critParts": [],
      "nonCritParts": []
    }
  },
  "flags": {},
  "img": "systems/pf1/icons/items/inventory/backpack.jpg",
  "effects": []
}