{
  "_id": "ehjdmecxbgqptfed",
  "name": "Black Amaranth",
  "permission": {
    "default": 0
  },
  "type": "loot",
  "data": {
    "description": {
      "value": "\r\n<p class=\"source\"><b>Source</b> <a href=\"http://amzn.to/2z71S07\" target=\"_blank\" rel=\"noopener\">PZO1140</a></p>\r\n<p><b>Price</b> 100 gp</p>\r\n<p>Black amaranth grows in small clusters from the remains of the <a href=\"https://www.d20pfsrd.com/gamemastering/conditions#TOC-Dead\">dead</a>.</p>\r\n<p><b>Gather</b> DC 18; <b>Yield</b> 1 dose</p>\r\n<p><b>Terrain</b> temperate or warm forests or plains</p>\r\n<p><b>Preparation</b> The amaranth's flowers and stalks must be carefully ground into paste. This requires a successful DC 12 <a href=\"https://www.d20pfsrd.com/skills/craft\">Craft</a> (alchemy) check and 1 hour of work.</p>\r\n<p><b>Use</b> A dose of black amaranth paste can be applied to a <a href=\"https://www.d20pfsrd.com/gamemastering/conditions#TOC-Dead\">dead</a> body to slow decay. One dose used on a Tiny or smaller creature delays the onset of decay for 3 days (as per <a class=\"spell\" href=\"https://www.d20pfsrd.com/magic/all-spells/g/gentle-repose\">gentle repose</a>). Two doses are needed for Small creatures, 3 for Medium creatures, 6 for Large creatures, 12 for Huge creatures, 24 for Gargantuan creatures, and 48 for Colossal creatures. Each dose applied requires a <a href=\"https://www.d20pfsrd.com/gamemastering/combat#TOC-Full-Round-Actions\">full-round action</a> that provokes <a href=\"https://www.d20pfsrd.com/gamemastering/combat#TOC-Attacks-of-Opportunity\">attacks of opportunity</a>.</p>\r\n",
      "chat": "",
      "unidentified": ""
    },
    "tags": [],
    "quantity": 1,
    "weight": 0,
    "price": 100,
    "identified": true,
    "hp": {
      "max": 10,
      "value": 10
    },
    "hardness": 0,
    "carried": true,
    "unidentified": {
      "price": 0,
      "name": ""
    },
    "identifiedName": "",
    "cl": 0,
    "aura": {
      "custom": false,
      "school": ""
    },
    "changes": [],
    "changeFlags": {
      "loseDexToAC": false,
      "noStr": false,
      "noDex": false,
      "oneInt": false,
      "oneWis": false,
      "oneCha": false,
      "noEncumbrance": false,
      "mediumArmorFullSpeed": false,
      "heavyArmorFullSpeed": false
    },
    "contextNotes": [],
    "links": {
      "children": []
    },
    "tag": "",
    "useCustomTag": false,
    "subType": "gear",
    "equipped": false,
    "damage": {
      "parts": []
    }
  },
  "flags": {},
  "img": "systems/pf1/icons/items/inventory/dice.jpg",
  "effects": []
}