{
  "_id": "gqgnsucfxbewrmed",
  "name": "Clay, Blackfire",
  "permission": {
    "default": 0
  },
  "type": "loot",
  "data": {
    "description": {
      "value": "\r\n<p><b>Price</b> 20 gp; <b>Weight</b> 10 lbs.</p>\r\n<p>This pliant black clay is always pleasantly warm to the touch. Working blackfire clay in your hands for a full round causes the clay to grow much warmer, granting you a +4 alchemical bonus on saving throws made to resist cold weather. You can combine five blocks of clay over the course of a minute to produce a source of warmth equivalent to a small campfire, allowing you to heat a campsite and cook food.</p>\r\n<p>Blackfire clay only produces heat, never light, smoke, or odor. The clay emits warmth for 1 hour before hardening into an unusable lump. A newly created brick of blackfire clay is composed of 10 blocks.</p>\r\n",
      "chat": "",
      "unidentified": ""
    },
    "tags": [],
    "quantity": 1,
    "weight": 10,
    "price": 20,
    "identified": true,
    "hp": {
      "max": 10,
      "value": 10
    },
    "hardness": 0,
    "carried": true,
    "unidentified": {
      "price": 0,
      "name": ""
    },
    "identifiedName": "",
    "cl": 0,
    "aura": {
      "custom": false,
      "school": ""
    },
    "changes": [],
    "changeFlags": {
      "loseDexToAC": false,
      "noStr": false,
      "noDex": false,
      "oneInt": false,
      "oneWis": false,
      "oneCha": false,
      "noEncumbrance": false,
      "mediumArmorFullSpeed": false,
      "heavyArmorFullSpeed": false
    },
    "contextNotes": [],
    "links": {
      "children": []
    },
    "tag": "",
    "useCustomTag": false,
    "subType": "gear",
    "equipped": false,
    "damage": {
      "parts": []
    }
  },
  "flags": {},
  "img": "systems/pf1/icons/items/inventory/dice.jpg",
  "effects": []
}