{
  "_id": "mwnptfrbjpbafgiq",
  "name": "Dancer's Garb, Silver",
  "permission": {
    "default": 0
  },
  "type": "loot",
  "data": {
    "description": {
      "value": " \n<p class=\"source\"><b>Source</b> <a href=\"http://amzn.to/2eT3m9D\" target=\"_blank\" rel=\"noopener\">PPZO94102</a></p> \n<p><b>Price</b> 200 gp; <b>Weight</b> 5 lbs.</p> \n<p>In addition to granting the same bonus on <a href=\"https://www.d20pfsrd.com/skills/perform\">Perform</a> (dance) checks as regular dancer's garb, silver dancer's garb is considered a silver instrument for silver balladeer <a href=\"https://www.d20pfsrd.com/classes/core-classes/bard\">bards</a>.</p> \n<p>Silver dancer's garb can be made of sunsilver (see below); sunsilver dancer's garb costs an additional 3,000 gp and grants the same benefits as armor made of sunsilver. As with the bonus on <a href=\"https://www.d20pfsrd.com/skills/perform\">Perform</a> (dance) checks, this benefit functions only when no other armor or concealing clothing is worn.</p> \n",
      "chat": "",
      "unidentified": ""
    },
    "tags": [],
    "quantity": 1,
    "weight": 5,
    "price": 200,
    "identified": true,
    "hp": {
      "max": 10,
      "value": 10
    },
    "hardness": 0,
    "carried": true,
    "unidentified": {
      "price": 0,
      "name": ""
    },
    "identifiedName": "",
    "cl": 0,
    "aura": {
      "custom": false,
      "school": ""
    },
    "changes": [],
    "changeFlags": {
      "loseDexToAC": false,
      "noStr": false,
      "noDex": false,
      "oneInt": false,
      "oneWis": false,
      "oneCha": false,
      "noEncumbrance": false,
      "mediumArmorFullSpeed": false,
      "heavyArmorFullSpeed": false
    },
    "contextNotes": [],
    "links": {
      "children": []
    },
    "tag": "",
    "useCustomTag": false,
    "subType": "gear",
    "equipped": false,
    "damage": {
      "parts": []
    }
  },
  "flags": {},
  "img": "systems/pf1/icons/items/inventory/dice.jpg",
  "effects": []
}