{
  "_id": "fmryzxhtejdnzllx",
  "name": "Dissipating Fan",
  "permission": {
    "default": 0
  },
  "type": "loot",
  "data": {
    "description": {
      "value": "\r\n<p class=\"source\"><b>Source</b>: <a href=\"http://amzn.to/2eT3m9D\" target=\"_blank\" rel=\"noopener\">PZO9481</a></p>\r\n<p><b>Price</b> 150 gp; <b>Weight</b> 6 lbs.</p>\r\n<p>This large wood-and-<a href=\"https://www.d20pfsrd.com/equipment/goods-and-services/books-paper-writing-supplies#TOC-Canvas\">canvas</a> fan is 2 feet wide and ideal for quickly dispersing smoke or other harmful gases.</p>\r\n<p>While waving a dissipating fan, you gain a +2 <a href=\"https://www.d20pfsrd.com/basics-ability-scores/glossary#TOC-Circumstance-Bonus\">circumstance bonus</a> on <a href=\"https://www.d20pfsrd.com/gamemastering/combat#TOC-Fortitude\">Fortitude</a> saving throws to avoid taking <a href=\"https://www.d20pfsrd.com/gamemastering/combat#TOC-Nonlethal-Damage\">nonlethal damage</a> from <a href=\"https://www.d20pfsrd.com/bestiary/rules-for-monsters/universal-monster-rules#TOC-Heat-Ex-\">heat</a> exposure and to avoid the effects of smoke inhalation. You can use a dissipating fan to clear non-magical smoke, fog, or similar vapors from your square or an adjacent square as a <a href=\"https://www.d20pfsrd.com/gamemastering/combat#TOC-Full-Round-Actions\">full-round action</a>-although dense smoke or fog in the surrounding area eventually refills the space (how long this takes depends on the source and the size of the area, at the GM's discretion). When folded and closed, a dissipating fan is the size of a thick walking stick.</p>\r\n<p>Some dissipating fans are decorated with paint or elaborate embroidery, and have a higher price to reflect their adornment.</p>\r\n\r\n",
      "chat": "",
      "unidentified": ""
    },
    "tags": [],
    "quantity": 1,
    "weight": 6,
    "price": 150,
    "identified": true,
    "hp": {
      "max": 10,
      "value": 10
    },
    "hardness": 0,
    "carried": true,
    "unidentified": {
      "price": 0,
      "name": ""
    },
    "identifiedName": "",
    "cl": 0,
    "aura": {
      "custom": false,
      "school": ""
    },
    "changes": [],
    "changeFlags": {
      "loseDexToAC": false,
      "noStr": false,
      "noDex": false,
      "oneInt": false,
      "oneWis": false,
      "oneCha": false,
      "noEncumbrance": false,
      "mediumArmorFullSpeed": false,
      "heavyArmorFullSpeed": false
    },
    "contextNotes": [],
    "links": {
      "children": []
    },
    "tag": "",
    "useCustomTag": false,
    "subType": "gear",
    "equipped": false,
    "damage": {
      "parts": []
    }
  },
  "flags": {},
  "img": "systems/pf1/icons/items/inventory/dice.jpg",
  "effects": []
}