{
  "_id": "hwrgbauvnnirgqdy",
  "name": "Feed, Animal",
  "permission": {
    "default": 0
  },
  "type": "loot",
  "data": {
    "description": {
      "value": "\r\n<p><b>Price</b> 5 cp/day; <b>Weight</b> 10 lbs.</p>\r\n<p><a href=\"https://www.d20pfsrd.com/bestiary/monster-listings/animals/horse\">Horses</a>, donkeys, mules, and <a href=\"https://www.d20pfsrd.com/bestiary/monster-listings/animals/horse/pony\">ponies</a> can graze to sustain themselves, but providing feed for them is better. If you have a <a href=\"https://www.d20pfsrd.com/bestiary/monster-listings/animals/dog/riding-dog\">riding dog</a>, you have to feed it meat.</p>\r\n\r\n",
      "chat": "",
      "unidentified": ""
    },
    "tags": [],
    "quantity": 1,
    "weight": 10,
    "price": 0.05,
    "identified": true,
    "hp": {
      "max": 10,
      "value": 10
    },
    "hardness": 0,
    "carried": true,
    "unidentified": {
      "price": 0,
      "name": ""
    },
    "identifiedName": "",
    "cl": 0,
    "aura": {
      "custom": false,
      "school": ""
    },
    "changes": [],
    "changeFlags": {
      "loseDexToAC": false,
      "noStr": false,
      "noDex": false,
      "oneInt": false,
      "oneWis": false,
      "oneCha": false,
      "noEncumbrance": false,
      "mediumArmorFullSpeed": false,
      "heavyArmorFullSpeed": false
    },
    "contextNotes": [],
    "links": {
      "children": []
    },
    "tag": "",
    "useCustomTag": false,
    "subType": "gear",
    "equipped": false,
    "damage": {
      "parts": []
    }
  },
  "flags": {},
  "img": "systems/pf1/icons/items/inventory/dice.jpg",
  "effects": []
}