{
  "_id": "ajsytnyezkieqlhz",
  "name": "Horn, signal",
  "permission": {
    "default": 0
  },
  "type": "loot",
  "data": {
    "description": {
      "value": "<h4><span id=\"Horn_signal\"><a name=\"TOC-Horn-signal\"></a>Horn, signal</span></h4>\r\n<p class=\"source\"><b>Source</b> <a title=\"PZO1115\" href=\"http://www.amazon.com/gp/product/1601252463/ref=as_li_qf_sp_asin_il_tl?ie=UTF8&amp;camp=1789&amp;creative=9325&amp;creativeASIN=1601252463&amp;linkCode=as2&amp;tag=httpwwwd20pfs-20\" target=\"_blank\" rel=\"noopener\">PZO1115</a></p>\r\n<p>Sounding a horn requires a DC 10 <a href=\"https://www.d20pfsrd.com/skills/perform\">Perform</a> (wind instruments) check and can convey concepts such as \"Attack!\", \"Help!\", \"Advance!\", \"Retreat!\", \"Fire!\", and, \"Alarm!\" The report of a signal horn can be clearly heard (<a href=\"https://www.d20pfsrd.com/skills/perception\">Perception</a> DC 0) up to a half-mile distant. For each quarter-mile beyond, <a href=\"https://www.d20pfsrd.com/skills/perception\">Perception</a> checks to hear the horn suffer a -1 penalty.</p>\r\n",
      "chat": "",
      "unidentified": ""
    },
    "tags": [],
    "quantity": 1,
    "weight": 0,
    "price": 0,
    "identified": true,
    "hp": {
      "max": 10,
      "value": 10
    },
    "hardness": 0,
    "carried": true,
    "unidentified": {
      "price": 0,
      "name": ""
    },
    "identifiedName": "",
    "cl": 0,
    "aura": {
      "custom": false,
      "school": ""
    },
    "changes": [],
    "changeFlags": {
      "loseDexToAC": false,
      "noStr": false,
      "noDex": false,
      "oneInt": false,
      "oneWis": false,
      "oneCha": false,
      "noEncumbrance": false,
      "mediumArmorFullSpeed": false,
      "heavyArmorFullSpeed": false
    },
    "contextNotes": [],
    "links": {
      "children": []
    },
    "tag": "",
    "useCustomTag": false,
    "subType": "gear",
    "equipped": false,
    "damage": {
      "parts": []
    }
  },
  "flags": {},
  "img": "systems/pf1/icons/items/inventory/dice.jpg",
  "effects": []
}