{
  "_id": "oixfsekzjhtysfrw",
  "name": "Hound's Blood",
  "permission": {
    "default": 0
  },
  "type": "loot",
  "data": {
    "description": {
      "value": "\r\n<p class=\"source\"><b>Source</b> <a title=\"PZO1121\" href=\"http://www.amazon.com/gp/product/1601253907/ref=as_li_qf_sp_asin_il_tl?ie=UTF8&amp;camp=1789&amp;creative=9325&amp;creativeASIN=1601253907&amp;linkCode=as2&amp;tag=httpwwwd20pfs-20\" target=\"_blank\" rel=\"noopener\">PZO1121</a></p>\r\n<p>If you apply the thick, red paste known as hound's blood to your nostrils or upper lip, it greatly enhances your sense of smell. For most creatures, this grants a +2 <a href=\"https://www.d20pfsrd.com/basics-ability-scores/glossary#TOC-Alchemical-Bonus\">alchemical bonus</a> on <a href=\"https://www.d20pfsrd.com/skills/perception\">Perception</a> checks for 1 hour. For <a href=\"https://www.d20pfsrd.com/races/core-races/gnome\">gnomes</a>, it briefly grants a super-heightened sense of smell, granting the <a href=\"https://www.d20pfsrd.com/bestiary/rules-for-monsters/universal-monster-rules#TOC-Scent-Ex-\">scent</a> ability for 5 minutes, before the potency is reduced to a +2 <a href=\"https://www.d20pfsrd.com/basics-ability-scores/glossary#TOC-Alchemical-Bonus\">alchemical bonus</a> on <a href=\"https://www.d20pfsrd.com/skills/perception\">Perception</a> checks for an additional 1 hour.</p>\r\n",
      "chat": "",
      "unidentified": ""
    },
    "tags": [],
    "quantity": 1,
    "weight": 0,
    "price": 110,
    "identified": true,
    "hp": {
      "max": 10,
      "value": 10
    },
    "hardness": 0,
    "carried": true,
    "unidentified": {
      "price": 0,
      "name": ""
    },
    "identifiedName": "",
    "cl": 0,
    "aura": {
      "custom": false,
      "school": ""
    },
    "changes": [],
    "changeFlags": {
      "loseDexToAC": false,
      "noStr": false,
      "noDex": false,
      "oneInt": false,
      "oneWis": false,
      "oneCha": false,
      "noEncumbrance": false,
      "mediumArmorFullSpeed": false,
      "heavyArmorFullSpeed": false
    },
    "contextNotes": [],
    "links": {
      "children": []
    },
    "tag": "",
    "useCustomTag": false,
    "subType": "gear",
    "equipped": false,
    "damage": {
      "parts": []
    }
  },
  "flags": {},
  "img": "systems/pf1/icons/items/inventory/dice.jpg",
  "effects": []
}