{
  "_id": "cfoklnwlroixjtpy",
  "name": "Improving Skill Checks",
  "permission": {
    "default": 0
  },
  "type": "loot",
  "data": {
    "description": {
      "value": "\r\n<p>Each dungeon guide can grant bonuses on up to three very specific skill checks both in and out of the dungeon. A PC who has ranks in the guide's associated skill can attempt a check with that skill while using the guide, which takes 1 minute. If she succeeds, she gains a <a href=\"https://www.d20pfsrd.com/basics-ability-scores/glossary#TOC-Circumstance-Bonus\">circumstance bonus</a> on one of the guide's listed skill checks (the amount of the bonus is listed with each skill), which the PC must make within 10 minutes. Failure indicates that the guide doesn't include helpful details pertaining to that specific check or that the PC was unable to understand the guide well enough to gain a bonus from it at that time. A PC cannot try again to improve a skill check, though she can attempt to gain the skill bonus on a different check. For example, a PC who fails to gain a bonus from her dungeon guide on dismantling a wooden <a href=\"https://www.d20pfsrd.com/gamemastering/traps-hazards-and-special-terrains/traps/\">trap</a> may try to improve a later check with a different wooden <a href=\"https://www.d20pfsrd.com/gamemastering/traps-hazards-and-special-terrains/traps/\">trap</a>. A PC cannot gain more than one bonus from a dungeon guide at a time.</p>\r\n",
      "chat": "",
      "unidentified": ""
    },
    "tags": [],
    "quantity": 1,
    "weight": 2,
    "price": 50,
    "identified": true,
    "hp": {
      "max": 10,
      "value": 10
    },
    "hardness": 0,
    "carried": true,
    "unidentified": {
      "price": 0,
      "name": ""
    },
    "identifiedName": "",
    "cl": 0,
    "aura": {
      "custom": false,
      "school": ""
    },
    "changes": [],
    "changeFlags": {
      "loseDexToAC": false,
      "noStr": false,
      "noDex": false,
      "oneInt": false,
      "oneWis": false,
      "oneCha": false,
      "noEncumbrance": false,
      "mediumArmorFullSpeed": false,
      "heavyArmorFullSpeed": false
    },
    "contextNotes": [],
    "links": {
      "children": []
    },
    "tag": "",
    "useCustomTag": false,
    "subType": "gear",
    "equipped": false,
    "damage": {
      "parts": []
    }
  },
  "flags": {},
  "img": "systems/pf1/icons/items/inventory/dice.jpg",
  "effects": []
}