{
  "_id": "fzxvhwflnbajgglr",
  "name": "Ink, Fire",
  "permission": {
    "default": 0
  },
  "type": "loot",
  "data": {
    "description": {
      "value": "\r\n<p class=\"source\"><b>Source</b> <a title=\"PZO1121\" href=\"http://www.amazon.com/gp/product/1601253907/ref=as_li_qf_sp_asin_il_tl?ie=UTF8&amp;camp=1789&amp;creative=9325&amp;creativeASIN=1601253907&amp;linkCode=as2&amp;tag=httpwwwd20pfs-20\" target=\"_blank\" rel=\"noopener\">PZO1121</a></p>\r\n<p>This rich yellow ink reacts with a creature's body heat to create a flickering, flame-like glow. It takes 10 minutes to apply fire ink, and 1 dose covers an approximately hand-sized area. Once applied, the ink glows as a candle for 24 hours. Four or more doses applied to the same part of the body glow as a torch for 24 hours. The alchemical reaction of the ink to the target's skin and body heat is painful and irritating, giving the target the <a href=\"https://www.d20pfsrd.com/gamemastering/conditions#TOC-Sickened\">sickened</a> condition while the glow lasts. A DC 15 <a href=\"https://www.d20pfsrd.com/skills/heal\">Heal</a> check can temporarily soothe these sensations, negating the <a href=\"https://www.d20pfsrd.com/gamemastering/conditions#TOC-Sickened\">sickened</a> condition for 1 hour. Creatures immune or resistant to fire are immune to this sickening effect. Ifrits are especially known for their fondness for fire ink, and ifrit fire-dancers often decorate their skin with flaming designs before performing. A concentrated version of the ink costs 10 times as much and can be used to make permanently glowing tattoos.</p>\r\n",
      "chat": "",
      "unidentified": ""
    },
    "tags": [],
    "quantity": 1,
    "weight": 0,
    "price": 8,
    "identified": true,
    "hp": {
      "max": 10,
      "value": 10
    },
    "hardness": 0,
    "carried": true,
    "unidentified": {
      "price": 0,
      "name": ""
    },
    "identifiedName": "",
    "cl": 0,
    "aura": {
      "custom": false,
      "school": ""
    },
    "changes": [],
    "changeFlags": {
      "loseDexToAC": false,
      "noStr": false,
      "noDex": false,
      "oneInt": false,
      "oneWis": false,
      "oneCha": false,
      "noEncumbrance": false,
      "mediumArmorFullSpeed": false,
      "heavyArmorFullSpeed": false
    },
    "contextNotes": [],
    "links": {
      "children": []
    },
    "tag": "",
    "useCustomTag": false,
    "subType": "gear",
    "equipped": false,
    "damage": {
      "parts": []
    }
  },
  "flags": {},
  "img": "systems/pf1/icons/items/inventory/dice.jpg",
  "effects": []
}