{
  "_id": "PI7uxv6NWE1RX7B8",
  "name": "Kit, Vampire Slayer's",
  "permission": {
    "default": 0
  },
  "type": "container",
  "data": {
    "description": {
      "value": "<p>This small, latched wooden case contains numerous tools and devices used in hunting and slaying&nbsp;<a href=\"https://www.d20pfsrd.com/bestiary/monster-listings/templates/vampire/vampire\">vampires</a>. It contains 10 cloves of garlic, four masterwork wooden stakes, a hammer, a silvered mirror, 4 vials of holy water, 1 application of silversheen, and a masterwork holy symbol. It also contains numerous regents and powders used for treating wounds and making wards, salves, and other concoctions. In addition to its general usefulness, when displayed, a vampire slayer&rsquo;s kit grants its owner a +2 bonus on all&nbsp;<a href=\"https://www.d20pfsrd.com/basics-ability-scores/ability-scores#TOC-Charisma-Cha-\">Charisma</a>-based skill checks made to investigate or seek out vampires.</p>",
      "chat": "",
      "unidentified": ""
    },
    "tags": [],
    "quantity": 1,
    "weight": 20.5,
    "price": 0,
    "identified": true,
    "hp": {
      "max": 10,
      "value": 10
    },
    "hardness": 0,
    "carried": true,
    "unidentified": {
      "price": 0,
      "name": "",
      "basePrice": 0
    },
    "identifiedName": "Kit, Vampire Slayer's",
    "cl": 0,
    "aura": {
      "custom": false,
      "school": ""
    },
    "inventoryItems": [
      {
        "_id": "vqwyugaticvrbzhn",
        "name": "Garlic",
        "permission": {
          "default": 0,
          "T9i9xVjdkHeFZC72": 3
        },
        "type": "loot",
        "data": {
          "subType": "gear",
          "description": {
            "value": "\r\n<p class=\"source\"><b>Source</b> <a title=\"PZO9410\" href=\"http://www.amazon.com/gp/product/1601252226/ref=as_li_qf_sp_asin_il_tl?ie=UTF8&amp;camp=1789&amp;creative=9325&amp;creativeASIN=1601252226&amp;linkCode=as2&amp;tag=httpwwwd20pfs-20\" target=\"_blank\" rel=\"noopener\">PZO9410</a></p>\r\n<p>These pungent white cloves serve as food and medicine and play a role in many traditional cleansing rituals. It is well established that <a href=\"https://www.d20pfsrd.com/bestiary/monster-listings/undead/vampire\">vampires</a> cannot abide the presence of garlic (<a href=\"https://www.d20pfsrd.com/bestiary/monster-listings/undead/vampire\">vampires</a> cannot tolerate the strong odor of garlic and will not enter an area laced with it.)</p>\r\n",
            "chat": "",
            "unidentified": ""
          },
          "tags": [],
          "quantity": 10,
          "weight": 1,
          "price": 0.1,
          "identified": true,
          "hp": {
            "max": 10,
            "value": 10
          },
          "hardness": 0,
          "carried": true,
          "unidentified": {
            "price": 0,
            "name": ""
          },
          "identifiedName": "Garlic",
          "cl": 0,
          "aura": {
            "custom": false,
            "school": ""
          },
          "links": {
            "children": []
          },
          "damage": {
            "parts": [],
            "critParts": [],
            "nonCritParts": []
          },
          "weightConverted": 1,
          "weightUnits": "lbs",
          "priceUnits": "gp",
          "attackParts": [],
          "conditionals": [],
          "contextNotes": []
        },
        "flags": {
          "core": {
            "sourceId": "Compendium.pf1.items.vqwyugaticvrbzhn"
          }
        },
        "img": "systems/pf1/icons/items/inventory/dice.jpg",
        "effects": [],
        "labels": {
          "equipped": "<i class=\"fas fa-times\"></i>",
          "carried": "<i class=\"fas fa-check\"></i>",
          "identified": "<i class=\"fas fa-check\"></i>"
        },
        "hasAttack": false,
        "hasMultiAttack": false,
        "hasDamage": false,
        "hasAction": false,
        "showUnidentifiedData": false,
        "isStack": true,
        "isCharged": false,
        "price": 0.1,
        "empty": false,
        "totalWeight": 10,
        "units": "lbs"
      },
      {
        "_id": "7zvBqNNlc5i5EtFd",
        "name": "Mwk Wooden Stake",
        "permission": {
          "default": 0,
          "3kN9BoRjo6UlMT5m": 3
        },
        "type": "weapon",
        "data": {
          "equipped": true,
          "masterwork": true,
          "weaponType": "simple",
          "weaponSubtype": "light",
          "properties": {
            "blc": false,
            "brc": false,
            "dbl": false,
            "dis": false,
            "fin": false,
            "frg": false,
            "imp": false,
            "mnk": false,
            "nnl": false,
            "prf": false,
            "rch": false,
            "thr": true,
            "trp": false,
            "dea": false,
            "dst": false,
            "grp": false,
            "snd": false
          },
          "enh": null,
          "weaponData": {
            "damageRoll": "1d4",
            "damageType": "P",
            "critRange": "20",
            "critMult": "2",
            "range": 10,
            "attackFormula": "",
            "damageFormula": "",
            "size": "med"
          },
          "broken": false,
          "bonus": {
            "value": 0,
            "_deprecated": true
          },
          "damageType": {
            "value": "",
            "_deprecated": true
          },
          "damage2": {
            "value": "",
            "_deprecated": true
          },
          "damage2Type": {
            "value": "",
            "_deprecated": true
          },
          "description": {
            "value": "<p>This close combat weapon is just a sharpened piece of wood.</p>\n<p><strong>Note</strong>: Iron spikes used as weapons deal damage as wooden stakes.</p>",
            "chat": "",
            "unidentified": ""
          },
          "tags": [],
          "quantity": 4,
          "weight": 1,
          "price": 300,
          "identified": true,
          "hp": {
            "max": 2,
            "value": 2
          },
          "hardness": 5,
          "carried": true,
          "unidentified": {
            "price": 0,
            "name": ""
          },
          "identifiedName": "Mwk Wooden Stake",
          "cl": 0,
          "aura": {
            "custom": false,
            "school": ""
          },
          "changes": [],
          "changeFlags": {
            "loseDexToAC": false,
            "noStr": false,
            "noDex": false,
            "oneInt": false,
            "oneWis": false,
            "oneCha": false,
            "noEncumbrance": false,
            "mediumArmorFullSpeed": false,
            "heavyArmorFullSpeed": false
          },
          "contextNotes": [],
          "links": {
            "children": []
          },
          "damage": {
            "parts": [],
            "critParts": [],
            "nonCritParts": []
          },
          "weightConverted": 1,
          "weightUnits": "lbs",
          "priceUnits": "gp",
          "attackParts": [],
          "conditionals": []
        },
        "flags": {
          "core": {
            "sourceId": "Compendium.pf1.weapons-and-ammo.7zvBqNNlc5i5EtFd"
          }
        },
        "img": "systems/pf1/icons/items/weapons/wooden-stake.png",
        "effects": [],
        "labels": {
          "equipped": "<i class=\"fas fa-check\"></i>",
          "carried": "<i class=\"fas fa-check\"></i>",
          "identified": "<i class=\"fas fa-check\"></i>",
          "weaponType": "Simple",
          "weaponSubtype": "Light"
        },
        "hasAttack": false,
        "hasMultiAttack": false,
        "hasDamage": false,
        "hasAction": false,
        "showUnidentifiedData": false,
        "isStack": true,
        "isCharged": false,
        "price": 300,
        "empty": false,
        "totalWeight": 4,
        "units": "lbs"
      },
      {
        "_id": "ieedspgjoepqnfqj",
        "name": "Hammer",
        "permission": {
          "default": 0,
          "T9i9xVjdkHeFZC72": 3
        },
        "type": "loot",
        "data": {
          "subType": "gear",
          "description": {
            "value": "\r\n<p><b>Price</b> 5 sp; <b>Weight</b> 2 lbs.</p>\r\n<p>If a <a href=\"https://www.d20pfsrd.com/equipment/goods-and-services/hunting-camping-survival-geaR/#TOC-Hammer\">hammer</a> is used in combat, treat it as a one-handed improvised weapon that deals bludgeoning damage equal to that of a spiked gauntlet of its size.</p>\r\n\r\n",
            "chat": "",
            "unidentified": ""
          },
          "tags": [],
          "quantity": 1,
          "weight": 2,
          "price": 0.5,
          "identified": true,
          "hp": {
            "max": 10,
            "value": 10
          },
          "hardness": 0,
          "carried": true,
          "unidentified": {
            "price": 0,
            "name": ""
          },
          "identifiedName": "",
          "cl": 0,
          "aura": {
            "custom": false,
            "school": ""
          },
          "links": {
            "children": []
          },
          "damage": {
            "parts": []
          },
          "weightConverted": 2,
          "weightUnits": "lbs",
          "priceUnits": "gp"
        },
        "flags": {
          "core": {
            "sourceId": "Compendium.pf1.items.ieedspgjoepqnfqj"
          }
        },
        "img": "systems/pf1/icons/items/inventory/dice.jpg",
        "effects": [],
        "labels": {
          "equipped": "<i class=\"fas fa-times\"></i>",
          "carried": "<i class=\"fas fa-check\"></i>",
          "identified": "<i class=\"fas fa-check\"></i>"
        },
        "hasAttack": false,
        "hasMultiAttack": false,
        "hasDamage": false,
        "hasAction": false,
        "showUnidentifiedData": false,
        "isStack": false,
        "isCharged": false,
        "price": 0.5,
        "empty": false,
        "totalWeight": 2,
        "units": "lbs"
      },
      {
        "_id": "gjtuklwkrbqykmdk",
        "name": "Silvered Mirror",
        "permission": {
          "default": 0,
          "T9i9xVjdkHeFZC72": 3
        },
        "type": "loot",
        "data": {
          "subType": "gear",
          "description": {
            "value": "<p class=\"source\"><strong>Source</strong> <a title=\"PZO1110\" href=\"http://www.amazon.com/gp/product/1601251505/ref=as_li_qf_sp_asin_il_tl?ie=UTF8&amp;camp=1789&amp;creative=9325&amp;creativeASIN=1601251505&amp;linkCode=as2&amp;tag=httpwwwd20pfs-20\" target=\"_blank\" rel=\"noopener\">PZO1110</a></p>\n<p>A small silvered steel mirror.</p>",
            "chat": "",
            "unidentified": ""
          },
          "tags": [],
          "quantity": 1,
          "weight": 0.5,
          "price": 10,
          "identified": true,
          "hp": {
            "max": 10,
            "value": 10
          },
          "hardness": 0,
          "carried": true,
          "unidentified": {
            "price": 0,
            "name": ""
          },
          "identifiedName": "Silvered Mirror",
          "cl": 0,
          "aura": {
            "custom": false,
            "school": ""
          },
          "links": {
            "children": []
          },
          "damage": {
            "parts": [],
            "critParts": [],
            "nonCritParts": []
          },
          "attackParts": [],
          "conditionals": [],
          "contextNotes": [],
          "weightConverted": 0.5,
          "weightUnits": "lbs",
          "priceUnits": "gp"
        },
        "flags": {
          "core": {
            "sourceId": "Compendium.pf1.items.gjtuklwkrbqykmdk"
          }
        },
        "img": "icons/tools/scribal/lens-grey-brown.webp",
        "effects": [],
        "labels": {
          "equipped": "<i class=\"fas fa-times\"></i>",
          "carried": "<i class=\"fas fa-check\"></i>",
          "identified": "<i class=\"fas fa-check\"></i>"
        },
        "hasAttack": false,
        "hasMultiAttack": false,
        "hasDamage": false,
        "hasAction": false,
        "showUnidentifiedData": false,
        "isStack": false,
        "isCharged": false,
        "price": 10,
        "empty": false,
        "totalWeight": 0.5,
        "units": "lbs"
      },
      {
        "_id": "CmjSKOVJuQnV8o3S",
        "name": "Holy water",
        "permission": {
          "default": 0,
          "tbXbnTpRAtmE0QDr": 3
        },
        "type": "loot",
        "data": {
          "subType": "gear",
          "description": {
            "value": "<p>Source&nbsp;<a href=\"http://paizo.com/products/btpy8tmc?Pathfinder-Roleplaying-Game-Ultimate-Equipment\" target=\"_blank\" rel=\"noopener\">Ultimate Equipment pg. 107</a>,&nbsp;<a href=\"http://paizo.com/pathfinderRPG/v5748btpy88yj\" target=\"_blank\" rel=\"noopener\">PRPG Core Rulebook pg. 158</a><br>Price&nbsp;25 gp;&nbsp;Weight&nbsp;1 lb.<br>Category&nbsp;Alchemical Weapons</p>\n<h3>Description</h3>\n<p>Holy water damages undead creatures and evil outsiders almost as if it were acid. A flask of holy water can be thrown as a splash weapon.<br><br>Treat this attack as a ranged touch attack with a range increment of 10 feet. A flask breaks if thrown against the body of a corporeal creature, but to use it against an incorporeal creature, you must open the flask and pour the holy water out onto the target. Thus, you can douse an incorporeal creature with holy water only if you are adjacent to it. Doing so is a ranged touch attack that does not provoke attacks of opportunity.<br><br>A direct hit by a flask of holy water deals 2d4 points of damage to an undead creature or an evil outsider. Each such creature within 5 feet of the point where the flask hits takes 1 point of damage from the splash.<br><br>Temples to good deities sell holy water at cost (making no profit). Holy water is made using the&nbsp;bless water&nbsp;spell.</p>",
            "chat": "",
            "unidentified": ""
          },
          "tags": [],
          "quantity": 4,
          "weight": 1,
          "price": 25,
          "identified": true,
          "hp": {
            "max": 10,
            "value": 10
          },
          "hardness": 0,
          "carried": true,
          "unidentified": {
            "price": 0,
            "name": ""
          },
          "identifiedName": "Holy water",
          "cl": 0,
          "aura": {
            "custom": false,
            "school": ""
          },
          "links": {
            "children": []
          },
          "damage": {
            "parts": []
          },
          "weightConverted": 1,
          "weightUnits": "lbs",
          "priceUnits": "gp"
        },
        "flags": {
          "core": {
            "sourceId": "Compendium.pf1.items.CmjSKOVJuQnV8o3S"
          }
        },
        "img": "systems/pf1/icons/items/inventory/dice.jpg",
        "effects": [],
        "labels": {
          "equipped": "<i class=\"fas fa-times\"></i>",
          "carried": "<i class=\"fas fa-check\"></i>",
          "identified": "<i class=\"fas fa-check\"></i>"
        },
        "hasAttack": false,
        "hasMultiAttack": false,
        "hasDamage": false,
        "hasAction": false,
        "showUnidentifiedData": false,
        "isStack": true,
        "isCharged": false,
        "price": 25,
        "empty": false,
        "totalWeight": 4,
        "units": "lbs"
      },
      {
        "_id": "pzoofblizyixlcoc",
        "name": "Silversheen",
        "permission": {
          "default": 0,
          "T9i9xVjdkHeFZC72": 3
        },
        "type": "loot",
        "data": {
          "subType": "gear",
          "description": {
            "value": "<p>This shimmering paste-like substance can be applied to a weapon as a&nbsp;<a href=\"https://www.d20pfsrd.com/gamemastering/combat#TOC-Standard-Actions\">standard action</a>. It gives the weapon the properties of&nbsp;<a href=\"https://www.d20pfsrd.com/equipment/special-materials#TOC-Silver-Alchemical\">alchemical silver</a>&nbsp;for 1 hour, replacing the properties of any other special material it might have. One vial coats a single melee weapon or 20 units of ammunition.</p>",
            "chat": "",
            "unidentified": ""
          },
          "tags": [],
          "quantity": 1,
          "weight": 0,
          "price": 250,
          "identified": true,
          "hp": {
            "max": 10,
            "value": 10
          },
          "hardness": 0,
          "carried": true,
          "unidentified": {
            "price": 0,
            "name": ""
          },
          "identifiedName": "Silversheen",
          "cl": 5,
          "aura": {
            "custom": false,
            "school": "trs"
          },
          "links": {
            "children": []
          },
          "damage": {
            "parts": [],
            "critParts": [],
            "nonCritParts": []
          },
          "attackParts": [],
          "conditionals": [],
          "contextNotes": [],
          "weightConverted": 0,
          "weightUnits": "lbs",
          "priceUnits": "gp"
        },
        "flags": {
          "core": {
            "sourceId": "Compendium.pf1.items.pzoofblizyixlcoc"
          }
        },
        "img": "systems/pf1/icons/items/inventory/dice.jpg",
        "effects": [],
        "labels": {
          "equipped": "<i class=\"fas fa-times\"></i>",
          "carried": "<i class=\"fas fa-check\"></i>",
          "identified": "<i class=\"fas fa-check\"></i>"
        },
        "hasAttack": false,
        "hasMultiAttack": false,
        "hasDamage": false,
        "hasAction": false,
        "showUnidentifiedData": false,
        "isStack": false,
        "isCharged": false,
        "price": 250,
        "empty": false,
        "totalWeight": 0,
        "units": "lbs"
      },
      {
        "_id": "s5KkeKPLnneb0WR4",
        "name": "Holy symbol (Wood)",
        "permission": {
          "default": 0,
          "tbXbnTpRAtmE0QDr": 3
        },
        "type": "loot",
        "data": {
          "subType": "gear",
          "description": {
            "value": "<p style=\"box-sizing: border-box; user-select: text; color: #191813; font-size: 13px;\">Source&nbsp;<a style=\"box-sizing: border-box; user-select: text;\" href=\"http://paizo.com/products/btpy8tmc?Pathfinder-Roleplaying-Game-Ultimate-Equipment\" target=\"_blank\" rel=\"noopener\">Ultimate Equipment pg. 57</a><br style=\"box-sizing: border-box; user-select: text;\">Price&nbsp;100 gp (gold), 5 gp (iron), 500 gp (platinum), 25 gp (silver), 1 gp (wooden);&nbsp;Weight&nbsp;1 lb. (gold), 1 lb. (iron), 1 lb. (platinum), 1 lb. (silver), — (wooden)</p>\n<h3 style=\"box-sizing: border-box; user-select: text; color: #191813;\">Description</h3>\n<p style=\"box-sizing: border-box; user-select: text; color: #191813; font-size: 13px;\">A holy symbol focuses positive energy and is used by good clerics and paladins (or by neutral clerics who want to cast good spells or channel positive energy). Each religion has its own holy symbol. The material used to make the holy symbol has no effect on its powers, though a religion may place special significance on a particular material.<br style=\"box-sizing: border-box; user-select: text;\"><br style=\"box-sizing: border-box; user-select: text;\">Unholy Symbols: An unholy symbol is like a holy symbol except that it focuses negative energy and is used by evil clerics (or by neutral clerics who want to cast evil spells or channel negative energy).</p>",
            "chat": "",
            "unidentified": ""
          },
          "tags": [],
          "quantity": 1,
          "weight": 0,
          "price": 1,
          "identified": true,
          "hp": {
            "max": 10,
            "value": 10
          },
          "hardness": 0,
          "carried": true,
          "unidentified": {
            "price": 0,
            "name": ""
          },
          "identifiedName": "Holy symbol (Wood)",
          "cl": 0,
          "aura": {
            "custom": false,
            "school": ""
          },
          "links": {
            "children": []
          },
          "damage": {
            "parts": []
          },
          "weightConverted": 0,
          "weightUnits": "lbs",
          "priceUnits": "gp"
        },
        "flags": {
          "core": {
            "sourceId": "Compendium.pf1.items.s5KkeKPLnneb0WR4"
          }
        },
        "img": "systems/pf1/icons/items/inventory/dice.jpg",
        "effects": [],
        "labels": {
          "equipped": "<i class=\"fas fa-times\"></i>",
          "carried": "<i class=\"fas fa-check\"></i>",
          "identified": "<i class=\"fas fa-check\"></i>"
        },
        "hasAttack": false,
        "hasMultiAttack": false,
        "hasDamage": false,
        "hasAction": false,
        "showUnidentifiedData": false,
        "isStack": false,
        "isCharged": false,
        "price": 1,
        "empty": false,
        "totalWeight": 0,
        "units": "lbs"
      }
    ],
    "maxWeight": null,
    "weightReduction": 0,
    "baseWeight": 0,
    "sellMultiplier": 0.5,
    "currency": {
      "pp": 0,
      "gp": 0,
      "sp": 0,
      "cp": 0
    },
    "basePrice": 0,
    "damage": {
      "parts": [],
      "critParts": [],
      "nonCritParts": []
    }
  },
  "flags": {},
  "img": "icons/containers/chest/chest-simple-box-gold-brown.webp",
  "effects": []
}