{
  "_id": "zdpsbbtgrlavxngj",
  "name": "Plaster, Casting",
  "permission": {
    "default": 0
  },
  "type": "loot",
  "data": {
    "description": {
      "value": "\r\n<p><b>Price</b> 5 sp; <b>Weight</b> 5 lbs.</p>\r\n<p>This white, dry powder mixes with water to form a paste, which hardens over the course of an hour to create a solid material. It can be used to make casts of footprints or carvings, fill in gaps or cracks in walls, or (if applied over a cloth wrapping) create a cast for a broken bone. Hardened plaster has hardness 1 and 5 hit points per inch of thickness. A 5-pound clay pot of plaster can cover about 5 square feet of flat space to a depth of 1 inch, five Medium forearm or lower-leg casts, two Medium full-arm or full-leg casts, or twice as many casts for a Small creature.</p>\r\n",
      "chat": "",
      "unidentified": ""
    },
    "tags": [],
    "quantity": 1,
    "weight": 5,
    "price": 0.5,
    "identified": true,
    "hp": {
      "max": 10,
      "value": 10
    },
    "hardness": 0,
    "carried": true,
    "unidentified": {
      "price": 0,
      "name": ""
    },
    "identifiedName": "",
    "cl": 0,
    "aura": {
      "custom": false,
      "school": ""
    },
    "changes": [],
    "changeFlags": {
      "loseDexToAC": false,
      "noStr": false,
      "noDex": false,
      "oneInt": false,
      "oneWis": false,
      "oneCha": false,
      "noEncumbrance": false,
      "mediumArmorFullSpeed": false,
      "heavyArmorFullSpeed": false
    },
    "contextNotes": [],
    "links": {
      "children": []
    },
    "tag": "",
    "useCustomTag": false,
    "subType": "gear",
    "equipped": false,
    "damage": {
      "parts": []
    }
  },
  "flags": {},
  "img": "systems/pf1/icons/items/inventory/dice.jpg",
  "effects": []
}