{
  "_id": "wsscyfbrjmgsvxlr",
  "name": "Sunrod",
  "permission": {
    "default": 0
  },
  "type": "loot",
  "data": {
    "description": {
      "value": "<h4><span id=\"Sunrod\"><a name=\"TOC-Sunrod\"></a>Sunrod</span></h4>\r\n<div>\r\n<p>Editor's Note</p>\r\n</div>\r\n<div>\r\n<p>Can adding additional sunrods to an area of darkness increase the light level?</p>\r\n<p>No, sunrods can never increase the light level of an area of darkness because they are not magical sources of light. In such an area, it automatically defaults to the ambient natural light level, and then reduces it one step.</p>\r\n<p class=\"source\">[<a href=\"http://paizo.com/pathfinderRPG/v5748btpy88yj/faq#35v5748eaic9ne9\" target=\"_blank\" rel=\"noopener\">Source</a>]</p>\r\n</div>\r\n<p class=\"source\"><b>Source</b> <a title=\"PZO1110\" href=\"http://www.amazon.com/gp/product/1601251505/ref=as_li_qf_sp_asin_il_tl?ie=UTF8&amp;camp=1789&amp;creative=9325&amp;creativeASIN=1601251505&amp;linkCode=as2&amp;tag=httpwwwd20pfs-20\" target=\"_blank\" rel=\"noopener\">PZO1110</a></p>\r\n<p>This 1-foot-long, gold-tipped, iron rod glows brightly when struck as a <a href=\"https://www.d20pfsrd.com/gamemastering/combat#TOC-Standard-Actions\">standard action</a>. It sheds normal light in a 30-foot radius and increases the light level by one step for an additional 30 feet beyond that area (darkness becomes dim light and dim light becomes normal light). A sunrod does not increase the light level in normal light or bright light. It glows for 6 hours, after which the gold tip is burned out and worthless.</p>\r\n<p>The <a href=\"https://www.d20pfsrd.com/feats/combat-feats/equipment-trick-combat\">Equipment Trick</a> feat provides a number of options for using this item in combat.</p>\r\n",
      "chat": "",
      "unidentified": ""
    },
    "tags": [],
    "quantity": 1,
    "weight": 0,
    "price": 0,
    "identified": true,
    "hp": {
      "max": 10,
      "value": 10
    },
    "hardness": 0,
    "carried": true,
    "unidentified": {
      "price": 0,
      "name": ""
    },
    "identifiedName": "Sunrod",
    "cl": 0,
    "aura": {
      "custom": false,
      "school": ""
    },
    "changes": [],
    "changeFlags": {
      "loseDexToAC": false,
      "noStr": false,
      "noDex": false,
      "oneInt": false,
      "oneWis": false,
      "oneCha": false,
      "noEncumbrance": false,
      "mediumArmorFullSpeed": false,
      "heavyArmorFullSpeed": false
    },
    "contextNotes": [],
    "links": {
      "children": []
    },
    "tag": "",
    "useCustomTag": false,
    "subType": "gear",
    "equipped": false,
    "damage": {
      "parts": [],
      "critParts": [],
      "nonCritParts": []
    },
    "attackParts": [],
    "conditionals": [],
    "uses": {
      "value": 0,
      "max": 0
    }
  },
  "flags": {},
  "img": "systems/pf1/icons/items/inventory/dice.jpg",
  "effects": []
}