{
  "_id": "pvyrghmqefkulkik",
  "name": "Tools, Artisan's",
  "permission": {
    "default": 0
  },
  "type": "loot",
  "data": {
    "description": {
      "value": "\r\n<table border=\"1\" cellpadding=\"5\">\r\n<thead>\r\n<tr>\r\n<th class=\"text\">Type</th>\r\n<th class=\"text\">Price</th>\r\n<th class=\"text\">Weight</th>\r\n</tr>\r\n</thead>\r\n<tbody>\r\n<tr>\r\n<td class=\"text\">Common</td>\r\n<td class=\"money number\">5 gp</td>\r\n<td class=\"text\">5 lbs.</td>\r\n</tr>\r\n<tr>\r\n<td class=\"text\">Masterwork</td>\r\n<td class=\"money number\">55 gp</td>\r\n<td class=\"text\">5 lbs.</td>\r\n</tr>\r\n</tbody>\r\n</table>\r\n<p>These special tools include the items needed to pursue any single craft. Without them, you have to use improvised tools (-2 penalty on <a href=\"https://www.d20pfsrd.com/skills/craft\">Craft</a> checks), if you can do the job at all.</p>\r\n<ul>\r\n<li><i>Masterwork Artisan's Tools</i>: These tools serve the same purpose as artisan's tools, but masterwork artisan's tools are the perfect tools for the job, so you get a +2 <a href=\"https://www.d20pfsrd.com/basics-ability-scores/glossary#TOC-Circumstance-Bonus\">circumstance bonus</a> on <a href=\"https://www.d20pfsrd.com/skills/craft\">Craft</a> checks made with them.</li>\r\n</ul>\r\n\r\n",
      "chat": "",
      "unidentified": ""
    },
    "tags": [],
    "quantity": 1,
    "weight": 0,
    "price": 0,
    "identified": true,
    "hp": {
      "max": 10,
      "value": 10
    },
    "hardness": 0,
    "carried": true,
    "unidentified": {
      "price": 0,
      "name": ""
    },
    "identifiedName": "",
    "cl": 0,
    "aura": {
      "custom": false,
      "school": ""
    },
    "changes": [],
    "changeFlags": {
      "loseDexToAC": false,
      "noStr": false,
      "noDex": false,
      "oneInt": false,
      "oneWis": false,
      "oneCha": false,
      "noEncumbrance": false,
      "mediumArmorFullSpeed": false,
      "heavyArmorFullSpeed": false
    },
    "contextNotes": [],
    "links": {
      "children": []
    },
    "tag": "",
    "useCustomTag": false,
    "subType": "gear",
    "equipped": false,
    "damage": {
      "parts": []
    }
  },
  "flags": {},
  "img": "systems/pf1/icons/items/inventory/dice.jpg",
  "effects": []
}