{
  "_id": "ufgxrhfkgrmgfqgf",
  "name": "Wine, Sealord",
  "permission": {
    "default": 0
  },
  "type": "loot",
  "data": {
    "description": {
      "value": "<h4><span id=\"Wine_Sealord\"><a name=\"TOC-Wine-Sealord\"></a>Wine, Sealord</span></h4>\r\n<p><b>Price</b> 15 gp; <b>Weight</b> 1/2 lb.</p>\r\n<p>These red and white wines grown in certain coastal vineyards have a sweet-tart flavor valued by nobles in many lands.</p>\r\n<h3><span id=\"Beverages_Nonalcoholic\"><a name=\"TOC-Beverages-Nonalcoholic-\"></a>Beverages (Nonalcoholic)</span></h3>\r\n",
      "chat": "",
      "unidentified": ""
    },
    "tags": [],
    "quantity": 1,
    "weight": 0.5,
    "price": 15,
    "identified": true,
    "hp": {
      "max": 10,
      "value": 10
    },
    "hardness": 0,
    "carried": true,
    "unidentified": {
      "price": 0,
      "name": ""
    },
    "identifiedName": "",
    "cl": 0,
    "aura": {
      "custom": false,
      "school": ""
    },
    "changes": [],
    "changeFlags": {
      "loseDexToAC": false,
      "noStr": false,
      "noDex": false,
      "oneInt": false,
      "oneWis": false,
      "oneCha": false,
      "noEncumbrance": false,
      "mediumArmorFullSpeed": false,
      "heavyArmorFullSpeed": false
    },
    "contextNotes": [],
    "links": {
      "children": []
    },
    "tag": "",
    "useCustomTag": false,
    "subType": "gear",
    "equipped": false,
    "damage": {
      "parts": []
    }
  },
  "flags": {},
  "img": "systems/pf1/icons/items/inventory/dice.jpg",
  "effects": []
}