{
  "_id": "1reA0SjOiORY0Qfh",
  "name": "Elemental Channeling",
  "permission": {
    "default": 0
  },
  "type": "feat",
  "data": {
    "description": {
      "value": "<p>You can heal and harm elemental beings. You gain @Compendium[pf1.feats.f5rgOsdDlseGr4o5]{Elemental Channel} (your choice of air, earth, fire, or water) as a bonus feat. You gain the cleric’s channel energy ability, as a cleric of your oracle level, but only to use @Compendium[pf1.feats.f5rgOsdDlseGr4o5]{Elemental Channel}. The DC for this effect is 10 + half your oracle level + your Charisma modifier.</p>\n<p>At 5th, 10th, and 15th level, you gain @Compendium[pf1.feats.f5rgOsdDlseGr4o5]{Elemental Channel} with one of the remaining elemental subtypes as a bonus feat.</p>\n<p>You can take other feats to add to this ability, such as @Compendium[pf1.feats.1HfwfBOSWtdxFQ2s]{Improved Channel}, but not feats that alter this ability, such as @Compendium[pf1.feats.ieww7CP6JK5pwtpg]{Alignment Channel}. This revelation’s effects do not stack with levels in other classes that grant the channel energy ability.</p>",
      "chat": "",
      "unidentified": ""
    },
    "tags": [],
    "activation": {
      "cost": 1,
      "type": "standard"
    },
    "unchainedAction": {
      "activation": {
        "cost": 2,
        "type": "action"
      }
    },
    "duration": {
      "value": null,
      "units": ""
    },
    "target": {
      "value": ""
    },
    "range": {
      "value": null,
      "units": "",
      "maxIncrements": 1,
      "minValue": null,
      "minUnits": "",
      "long": null
    },
    "uses": {
      "value": 0,
      "max": 3,
      "per": "day",
      "autoDeductCharges": true,
      "autoDeductChargesCost": "1",
      "maxFormula": "3 + @abilities.cha.mod"
    },
    "measureTemplate": {
      "type": "",
      "size": "",
      "overrideColor": false,
      "customColor": "",
      "overrideTexture": false,
      "customTexture": ""
    },
    "attackName": "",
    "actionType": "",
    "attackBonus": "",
    "critConfirmBonus": "",
    "damage": {
      "parts": [],
      "critParts": [],
      "nonCritParts": []
    },
    "attackParts": [],
    "formula": "",
    "ability": {
      "attack": null,
      "damage": null,
      "damageMult": 1,
      "critRange": 20,
      "critMult": 2
    },
    "save": {
      "dc": 0,
      "type": "",
      "description": ""
    },
    "effectNotes": "",
    "attackNotes": "",
    "soundEffect": "",
    "changes": [],
    "changeFlags": {
      "loseDexToAC": false,
      "noStr": false,
      "noDex": false,
      "oneInt": false,
      "oneWis": false,
      "oneCha": false,
      "noEncumbrance": false,
      "mediumArmorFullSpeed": false,
      "heavyArmorFullSpeed": false
    },
    "contextNotes": [],
    "links": {
      "children": [],
      "charges": []
    },
    "tag": "",
    "useCustomTag": false,
    "armorProf": {
      "value": [],
      "custom": ""
    },
    "weaponProf": {
      "value": [],
      "custom": ""
    },
    "featType": "classFeat",
    "associations": {
      "classes": [
        [
          "Oracle"
        ]
      ]
    },
    "showInQuickbar": false,
    "nonlethal": false,
    "abilityType": "su",
    "crOffset": "",
    "attack": {
      "parts": []
    }
  },
  "flags": {},
  "img": "systems/pf1/icons/spells/light-royal-1.jpg",
  "effects": []
}