{
  "_id": "U38CG2AbE3KOry9p",
  "name": "It Is My Nature",
  "permission": {
    "default": 0
  },
  "type": "feat",
  "data": {
    "description": {
      "value": "<p>At 20th level, your poisoned blood protects you, reflexively conjuring an ethereal stinger to lash out at foes who come too close. Three times per day when an enemy moves into a square adjacent to you, you can make a melee&nbsp;<a href=\"https://www.d20pfsrd.com/gamemastering/combat#TOC-Touch-Attacks\">touch attack</a>&nbsp;against the creature as an&nbsp;<a href=\"https://www.d20pfsrd.com/gamemastering/combat#TOC-Immediate-Actions\">immediate action</a>. On a hit, the creature must succeed at a&nbsp;<a href=\"https://www.d20pfsrd.com/gamemastering/combat#TOC-Fortitude\">Fortitude</a>&nbsp;save (DC = 10 + half your&nbsp;<a href=\"https://www.d20pfsrd.com/classes/core-classes/sorcerer\">sorcerer</a>&nbsp;level + your&nbsp;<a href=\"https://www.d20pfsrd.com/basics-ability-scores/ability-scores#TOC-Charisma-Cha-\">Charisma</a>&nbsp;modifier) or die. A creature that succeeds at this&nbsp;<a href=\"https://www.d20pfsrd.com/gamemastering/combat#TOC-Fortitude\">Fortitude</a>&nbsp;save is immune to this effect for 24 hours. This is a poison and death effect. You can use this ability even when you are surprised or&nbsp;<a href=\"https://www.d20pfsrd.com/gamemastering/conditions#TOC-Flat-Footed\">flat-footed</a>.</p>",
      "chat": "",
      "unidentified": ""
    },
    "tags": [],
    "activation": {
      "cost": 1,
      "type": "immediate"
    },
    "unchainedAction": {
      "activation": {
        "cost": 1,
        "type": "reaction"
      }
    },
    "duration": {
      "value": null,
      "units": "inst"
    },
    "target": {
      "value": "creature touched"
    },
    "range": {
      "value": null,
      "units": "touch",
      "maxIncrements": 1,
      "minValue": null,
      "minUnits": "",
      "long": null
    },
    "uses": {
      "value": 0,
      "max": 3,
      "per": "day",
      "autoDeductCharges": true,
      "autoDeductChargesCost": "1",
      "maxFormula": "3"
    },
    "measureTemplate": {
      "type": "",
      "size": "0",
      "overrideColor": false,
      "customColor": "",
      "overrideTexture": false,
      "customTexture": ""
    },
    "attackName": "",
    "actionType": "",
    "attackBonus": "",
    "critConfirmBonus": "",
    "damage": {
      "parts": [],
      "critParts": [],
      "nonCritParts": []
    },
    "attackParts": [],
    "formula": "",
    "ability": {
      "attack": null,
      "damage": null,
      "damageMult": 1,
      "critRange": 20,
      "critMult": 2
    },
    "save": {
      "dc": 0,
      "type": "",
      "description": ""
    },
    "effectNotes": "",
    "attackNotes": "",
    "soundEffect": "",
    "changes": [],
    "changeFlags": {
      "loseDexToAC": false,
      "noStr": false,
      "noDex": false,
      "oneInt": false,
      "oneWis": false,
      "oneCha": false,
      "noEncumbrance": false,
      "mediumArmorFullSpeed": false,
      "heavyArmorFullSpeed": false
    },
    "contextNotes": [],
    "links": {
      "children": [],
      "charges": []
    },
    "tag": "",
    "useCustomTag": false,
    "armorProf": {
      "value": [],
      "custom": ""
    },
    "weaponProf": {
      "value": [],
      "custom": ""
    },
    "featType": "classFeat",
    "associations": {
      "classes": [
        [
          "Sorcerer"
        ]
      ]
    },
    "showInQuickbar": false,
    "nonlethal": false,
    "abilityType": "su",
    "crOffset": "",
    "attack": {
      "parts": []
    }
  },
  "flags": {},
  "img": "systems/pf1/icons/skills/green_11.jpg",
  "effects": []
}