{
  "_id": "7BfYNNkYjjBevun8",
  "name": "Ki Pool (UC)",
  "permission": {
    "default": 0
  },
  "type": "feat",
  "data": {
    "description": {
      "value": "<p>At 3rd level, a monk gains a pool of ki points, supernatural energy he can use to accomplish amazing feats. The number of points in a monk’s ki pool is equal to 1/2 his monk level + his Wisdom modifier. As long as he has at least 1 point in his ki pool, he can make a ki strike.</p>\n<p>At 3rd level, ki strike allows his unarmed attacks to be treated as magic weapons for the purpose of overcoming damage reduction.</p>\n<p>At 7th level, his unarmed attacks are also treated as cold iron and silver for the purpose of overcoming damage reduction.</p>\n<p>At 10th level, his unarmed attacks are also treated as lawful weapons for the purpose of overcoming damage reduction.</p>\n<p>At 16th level, his unarmed attacks are treated as adamantine weapons for the purpose of overcoming damage reduction and bypassing hardness.<br><br>By spending 1 point from his ki pool as a swift action, a monk can make one additional unarmed strike at his highest attack bonus when making a flurry of blows attack. This bonus attack stacks with all bonus attacks gained from flurry of blows, as well as those from haste and similar effects.</p>\n<p>A monk gains additional powers that consume points from his ki pool as he gains levels.<br><br>The ki pool is replenished each morning after 8 hours of rest or meditation; these hours do not need to be consecutive.</p>",
      "chat": "",
      "unidentified": ""
    },
    "tags": [],
    "activation": {
      "cost": 1,
      "type": "special"
    },
    "unchainedAction": {
      "activation": {
        "cost": 1,
        "type": "special"
      }
    },
    "duration": {
      "value": null,
      "units": ""
    },
    "target": {
      "value": ""
    },
    "range": {
      "value": null,
      "units": "",
      "maxIncrements": 1,
      "minValue": null,
      "minUnits": "",
      "long": null
    },
    "uses": {
      "value": 0,
      "max": 0,
      "per": "day",
      "autoDeductCharges": true,
      "autoDeductChargesCost": "1",
      "maxFormula": "floor(@classes.monkUnchained.level / 2) + @abilities.wis.mod"
    },
    "measureTemplate": {
      "type": "",
      "size": "",
      "overrideColor": false,
      "customColor": "",
      "overrideTexture": false,
      "customTexture": ""
    },
    "attackName": "",
    "actionType": "",
    "attackBonus": "",
    "critConfirmBonus": "",
    "damage": {
      "parts": [],
      "critParts": [],
      "nonCritParts": []
    },
    "attackParts": [],
    "formula": "",
    "ability": {
      "attack": null,
      "damage": null,
      "damageMult": 1,
      "critRange": 20,
      "critMult": 2
    },
    "save": {
      "dc": 0,
      "type": "",
      "description": ""
    },
    "effectNotes": "",
    "attackNotes": "",
    "soundEffect": "",
    "changes": [],
    "changeFlags": {
      "loseDexToAC": false,
      "noStr": false,
      "noDex": false,
      "oneInt": false,
      "oneWis": false,
      "oneCha": false,
      "noEncumbrance": false,
      "mediumArmorFullSpeed": false,
      "heavyArmorFullSpeed": false
    },
    "contextNotes": [],
    "links": {
      "children": [],
      "charges": []
    },
    "tag": "",
    "useCustomTag": false,
    "armorProf": {
      "value": [],
      "custom": ""
    },
    "weaponProf": {
      "value": [],
      "custom": ""
    },
    "featType": "classFeat",
    "associations": {
      "classes": [
        [
          "Monk (Unchained)"
        ]
      ]
    },
    "showInQuickbar": false,
    "nonlethal": false,
    "abilityType": "su",
    "crOffset": "",
    "attack": {
      "parts": []
    }
  },
  "flags": {},
  "img": "systems/pf1/icons/skills/red_09.jpg",
  "effects": []
}