{
  "_id": "sOwXPOtI5IlEBKwr",
  "name": "Martial Flexibility",
  "permission": {
    "default": 0
  },
  "type": "feat",
  "data": {
    "description": {
      "value": "<p>A brawler can take a move action to gain the benefit of a combat feat she doesn’t possess. This effect lasts for 1 minute. The brawler must meet all the feat’s prerequisites. She may use this ability a number of times per day equal to 3 + 1/2 her brawler level (minimum 1).<br><br>The brawler can use this ability again before the duration expires in order to replace the previous combat feat with another choice.<br><br>If a combat feat has a daily use limitation (such as @Compendium[pf1.feats.GsjouI6B8X7BA5wN]{Stunning Fist}), any uses of that combat feat while using this ability count toward that feat’s daily limit. At 6th level, a brawler can use this ability to gain the benefit of two combat feats at the same time. She may select one feat as a swift action or two feats as a move action. She may use one of these feats to meet a prerequisite of the second feat; doing so means that she cannot replace a feat currently fulfilling another’s prerequisite without also replacing those feats that require it. Each individual feat selected counts toward her daily uses of this ability.<br><br>At 10th level, a brawler can use this ability to gain the benefit of three combat feats at the same time. She may select one feat as a free action, two feats as a swift action, or three feats as a move action. She may use one of the feats to meet a prerequisite of the second and third feats, and use the second feat to meet a prerequisite of the third feat. Each individual feat selected counts toward her daily uses of this ability.<br><br>At 12th level, a brawler can use this ability to gain the benefit of one combat feat as an immediate action or three combat feats as a swift action. Each individual feat selected counts toward her daily uses of this ability.<br><br>At 20th level, a brawler can use this ability to gain the benefit of any number of combat feats as a swift action. Each feat selected counts toward her daily uses of this ability.</p>",
      "chat": "",
      "unidentified": ""
    },
    "tags": [],
    "activation": {
      "cost": 1,
      "type": "special"
    },
    "unchainedAction": {
      "activation": {
        "cost": 1,
        "type": "special"
      }
    },
    "duration": {
      "value": null,
      "units": ""
    },
    "target": {
      "value": ""
    },
    "range": {
      "value": null,
      "units": "",
      "maxIncrements": 1,
      "minValue": null,
      "minUnits": "",
      "long": null
    },
    "uses": {
      "value": 0,
      "max": 3,
      "per": "day",
      "autoDeductCharges": true,
      "autoDeductChargesCost": "1",
      "maxFormula": "3 + floor(@classes.brawler.level / 2)"
    },
    "measureTemplate": {
      "type": "",
      "size": "",
      "overrideColor": false,
      "customColor": "",
      "overrideTexture": false,
      "customTexture": ""
    },
    "attackName": "",
    "actionType": "",
    "attackBonus": "",
    "critConfirmBonus": "",
    "damage": {
      "parts": [],
      "critParts": [],
      "nonCritParts": []
    },
    "attackParts": [],
    "formula": "",
    "ability": {
      "attack": null,
      "damage": null,
      "damageMult": 1,
      "critRange": 20,
      "critMult": 2
    },
    "save": {
      "dc": 0,
      "type": "",
      "description": ""
    },
    "effectNotes": "",
    "attackNotes": "",
    "soundEffect": "",
    "changes": [],
    "changeFlags": {
      "loseDexToAC": false,
      "noStr": false,
      "noDex": false,
      "oneInt": false,
      "oneWis": false,
      "oneCha": false,
      "noEncumbrance": false,
      "mediumArmorFullSpeed": false,
      "heavyArmorFullSpeed": false
    },
    "contextNotes": [],
    "links": {
      "children": [],
      "charges": []
    },
    "tag": "",
    "useCustomTag": false,
    "armorProf": {
      "value": [],
      "custom": ""
    },
    "weaponProf": {
      "value": [],
      "custom": ""
    },
    "featType": "classFeat",
    "associations": {
      "classes": [
        [
          "Brawler"
        ]
      ]
    },
    "showInQuickbar": false,
    "nonlethal": false,
    "abilityType": "ex",
    "crOffset": "",
    "attack": {
      "parts": []
    }
  },
  "flags": {},
  "img": "systems/pf1/icons/skills/yellow_27.jpg",
  "effects": []
}