{
  "_id": "Vu6ldRqtekMcpgX5",
  "name": "Mouse Aspect",
  "permission": {
    "default": 0
  },
  "type": "feat",
  "data": {
    "description": {
      "value": "<p><em>The aspect of the mouse offers the ability to gain access to hard-to-reach places while avoiding many attacks and effects.</em><br><br><strong>Minor Form: </strong>You gain evasion, as per the rogue class feature.</p>\n<p>At 12th level, this benefit becomes improved evasion, as per the rogue advanced talent.<br><br><strong>Major Form:</strong> Your shape changes to that of a Tiny mouse (as per the dire rat, but with a space of 2-1/2 feet and a reach of 0 feet;&nbsp;Bestiary&nbsp;232). While in this form, you gain a base speed of 30 feet, a climb speed of 20 feet, a swim speed of 20 feet, lowlight vision, scent (30 feet), and a bite attack (1d4 damage), and you use your Dexterity modifier instead of your Strength modifier on Climb and Swim checks.</p>\n<p>At 8th level, your climb and swim speeds both increase to 40 feet.</p>\n<p>At 15th level, you do not provoke attacks of opportunity while moving through or out of a creature’s threatened area or moving into its space, but you do when you leave its space.<br><br><strong>Alternate Natural Attacks:</strong> Bite (B, P, S)</p>",
      "chat": "",
      "unidentified": ""
    },
    "tags": [],
    "activation": {
      "cost": 1,
      "type": ""
    },
    "unchainedAction": {
      "activation": {
        "cost": 1,
        "type": ""
      }
    },
    "duration": {
      "value": null,
      "units": ""
    },
    "target": {
      "value": ""
    },
    "range": {
      "value": null,
      "units": "",
      "maxIncrements": 1,
      "minValue": null,
      "minUnits": "",
      "long": null
    },
    "uses": {
      "value": 0,
      "max": 0,
      "per": null,
      "autoDeductCharges": true,
      "autoDeductChargesCost": "1"
    },
    "measureTemplate": {
      "type": "",
      "size": "",
      "overrideColor": false,
      "customColor": "",
      "overrideTexture": false,
      "customTexture": ""
    },
    "attackName": "",
    "actionType": "",
    "attackBonus": "",
    "critConfirmBonus": "",
    "damage": {
      "parts": [],
      "critParts": [],
      "nonCritParts": []
    },
    "attackParts": [],
    "formula": "",
    "ability": {
      "attack": null,
      "damage": null,
      "damageMult": 1,
      "critRange": 20,
      "critMult": 2
    },
    "save": {
      "dc": 0,
      "type": "",
      "description": ""
    },
    "effectNotes": "",
    "attackNotes": "",
    "soundEffect": "",
    "changes": [],
    "changeFlags": {
      "loseDexToAC": false,
      "noStr": false,
      "noDex": false,
      "oneInt": false,
      "oneWis": false,
      "oneCha": false,
      "noEncumbrance": false,
      "mediumArmorFullSpeed": false,
      "heavyArmorFullSpeed": false
    },
    "contextNotes": [],
    "links": {
      "children": [],
      "charges": []
    },
    "tag": "",
    "useCustomTag": false,
    "armorProf": {
      "value": [],
      "custom": ""
    },
    "weaponProf": {
      "value": [],
      "custom": ""
    },
    "featType": "classFeat",
    "associations": {
      "classes": [
        [
          "Shifter"
        ]
      ]
    },
    "showInQuickbar": false,
    "nonlethal": false,
    "abilityType": "none",
    "crOffset": "",
    "attack": {
      "parts": []
    }
  },
  "flags": {},
  "img": "systems/pf1/icons/skills/blue_29.jpg",
  "effects": []
}