{
  "_id": "qqLwadA6FhQERsTC",
  "name": "Order of the Cockatrice",
  "permission": {
    "default": 0
  },
  "type": "feat",
  "data": {
    "description": {
      "value": "<p>A cavalier who belongs to this order serves only himself, working to further his own aims and increase his own prestige. Cavaliers of this order tend to be selfish and concerned only with personal goals and objectives.<br><br><strong>Edicts:</strong> The cavalier must keep his own interests and aims above those of all others. He must always accept payment when it is due, rewards when earned, and an even (or greater) share of loot. The cavalier must take every opportunity to increase his own stature, prestige, and power.<br><br><strong>Challenge:</strong> Whenever an order of the cockatrice cavalier issues a challenge, he receives a +1 morale bonus on all melee damage rolls made against the target of his challenge as long as he is the only creature threatening the target (not counting his mount). This bonus increases by +1 for every four levels the cavalier possesses.<br><br><strong>Skills:</strong> An order of the cockatrice cavalier adds Appraise (Int) and Perform (Cha) to his list of class skills. In addition, an order of the cockatrice cavalier adds his Charisma modifier to the DC on another creature's attempt to demoralize him through Intimidate (in addition to his Wisdom modifier, as normal).</p>",
      "chat": "",
      "unidentified": ""
    },
    "tags": [],
    "activation": {
      "cost": 1,
      "type": ""
    },
    "unchainedAction": {
      "activation": {
        "cost": 1,
        "type": ""
      }
    },
    "duration": {
      "value": null,
      "units": ""
    },
    "target": {
      "value": ""
    },
    "range": {
      "value": null,
      "units": "",
      "maxIncrements": 1,
      "minValue": null,
      "minUnits": "",
      "long": null
    },
    "uses": {
      "value": 0,
      "max": 0,
      "per": null,
      "autoDeductCharges": true,
      "autoDeductChargesCost": "1"
    },
    "measureTemplate": {
      "type": "",
      "size": "0",
      "overrideColor": false,
      "customColor": "",
      "overrideTexture": false,
      "customTexture": ""
    },
    "attackName": "",
    "actionType": "",
    "attackBonus": "",
    "critConfirmBonus": "",
    "damage": {
      "parts": [],
      "critParts": [],
      "nonCritParts": []
    },
    "attackParts": [],
    "formula": "",
    "ability": {
      "attack": null,
      "damage": null,
      "damageMult": 1,
      "critRange": 20,
      "critMult": 2
    },
    "save": {
      "dc": 0,
      "type": "",
      "description": ""
    },
    "effectNotes": "",
    "attackNotes": "",
    "soundEffect": "",
    "changes": [],
    "changeFlags": {
      "loseDexToAC": false,
      "noStr": false,
      "noDex": false,
      "oneInt": false,
      "oneWis": false,
      "oneCha": false,
      "noEncumbrance": false,
      "mediumArmorFullSpeed": false,
      "heavyArmorFullSpeed": false
    },
    "contextNotes": [],
    "links": {
      "children": [],
      "charges": []
    },
    "tag": "",
    "useCustomTag": false,
    "armorProf": {
      "value": [],
      "custom": ""
    },
    "weaponProf": {
      "value": [],
      "custom": ""
    },
    "featType": "classFeat",
    "associations": {
      "classes": [
        [
          "Cavalier"
        ]
      ]
    },
    "showInQuickbar": false,
    "nonlethal": false,
    "abilityType": "none",
    "crOffset": "",
    "attack": {
      "parts": []
    }
  },
  "flags": {},
  "img": "systems/pf1/icons/items/inventory/banner-green.jpg",
  "effects": []
}