{
  "_id": "toRd47a7tO6FOzKn",
  "name": "Starsoul Bloodline",
  "permission": {
    "default": 0
  },
  "type": "feat",
  "data": {
    "description": {
      "value": "<p><em>You come from a line of stargazers and explorers who delved deeply into the darkness beyond the stars. In touching the void, the void touched them, and your mind, spirit, and body yearn to span the gulf between worlds.</em></p>\n<p><strong>Class Skill:</strong>&nbsp;<a href=\"https://www.d20pfsrd.com/skills/knowledge\">Knowledge</a>&nbsp;(nature).</p>\n<p><strong>Bonus Spells:</strong></p>\n<ul>\n<li>@Compendium[pf1.spells.jhyb2ana8jrk2lut]{Unseen Servant}&nbsp;(3rd),</li>\n<li>@Compendium[pf1.spells.ec2zmvdzi4m3puh4]{Glitterdust}&nbsp;(5th),</li>\n<li>@Compendium[pf1.spells.qmorw7eojkfqr00m]{Blink}&nbsp;(7th),</li>\n<li>@Compendium[pf1.spells.dwb03nzhbwb1b5nr]{Call Lightning Storm}&nbsp;(9th; dealing fire damage, damage increased outdoors at night),</li>\n<li>@Compendium[pf1.spells.wqvy12w1xgk6l9b0]{Overland Flight}&nbsp;(11th),</li>\n<li>@Compendium[pf1.spells.5w1zrztwbvd6xkgj]{Repulsion}&nbsp;(13th),</li>\n<li>@Compendium[pf1.spells.3bdfw5f15hwcxlth]{Reverse Gravity}&nbsp;(15th),</li>\n<li>@Compendium[pf1.spells.21ksduh3fm41vmjk]{Prying Eyes, Greater}&nbsp;(17th),</li>\n<li>@Compendium[pf1.spells.xhzme0v6tjq95fg6]{Meteor Swarm}&nbsp;(19th).</li>\n</ul>\n<p><strong>Bonus Feats:</strong></p>\n<ul>\n<li>@Compendium[pf1.feats.pmAO1Sni8xx71pLF]{Blind-Fight},</li>\n<li>@Compendium[pf1.feats.rt2cBQvEU0ANE3z4]{Craft Rod},</li>\n<li>@Compendium[pf1.feats.JreaiTHdyWFNj3Tb]{Dodge},</li>\n<li>@Compendium[pf1.feats.ehqx8txNRGMaNOPt]{Endurance},</li>\n<li>@Compendium[pf1.feats.V8GIvVaAofyw9xIl]{Improved Counterspell},</li>\n<li>@Compendium[pf1.feats.cKxfEL5XOWuzLhfO]{Improved Iron Will},</li>\n<li>@Compendium[pf1.feats.iAbIGhm7T2OK9Brt]{Iron Will},</li>\n<li>@Compendium[pf1.feats.wFoLrh5FeeqBXsQ8]{Quicken Spell},</li>\n<li>@Compendium[pf1.feats.7zJTztNW7hdaqjKc]{Skill Focus}&nbsp;(<a href=\"https://www.d20pfsrd.com/skills/perception\">Perception</a>),</li>\n<li>@Compendium[pf1.feats.8snLqsJN4LLL00Nq]{Toughness}.</li>\n</ul>\n<p><a name=\"TOC-Bloodline-Arcana\"></a><strong>Bloodline Arcana:</strong> Whenever you cast an&nbsp;<a href=\"https://www.d20pfsrd.com/magic#TOC-Evocation\">evocation</a>&nbsp;spell, targets that fail their saves are&nbsp;<a href=\"https://www.d20pfsrd.com/gamemastering/conditions#TOC-Dazzled\">dazzled</a>&nbsp;by tiny sparkling starlights for 1 round per level of the spell.</p>",
      "chat": "",
      "unidentified": ""
    },
    "tags": [],
    "activation": {
      "cost": 1,
      "type": ""
    },
    "unchainedAction": {
      "activation": {
        "cost": 1,
        "type": ""
      }
    },
    "duration": {
      "value": null,
      "units": ""
    },
    "target": {
      "value": ""
    },
    "range": {
      "value": null,
      "units": "",
      "maxIncrements": 1,
      "minValue": null,
      "minUnits": "",
      "long": null
    },
    "uses": {
      "value": 0,
      "max": 0,
      "per": null,
      "autoDeductCharges": true,
      "autoDeductChargesCost": "1"
    },
    "measureTemplate": {
      "type": "",
      "size": "0",
      "overrideColor": false,
      "customColor": "",
      "overrideTexture": false,
      "customTexture": ""
    },
    "attackName": "",
    "actionType": "",
    "attackBonus": "",
    "critConfirmBonus": "",
    "damage": {
      "parts": [],
      "critParts": [],
      "nonCritParts": []
    },
    "attackParts": [],
    "formula": "",
    "ability": {
      "attack": null,
      "damage": null,
      "damageMult": 1,
      "critRange": 20,
      "critMult": 2
    },
    "save": {
      "dc": 0,
      "type": "",
      "description": ""
    },
    "effectNotes": "",
    "attackNotes": "",
    "soundEffect": "",
    "changes": [],
    "changeFlags": {
      "loseDexToAC": false,
      "noStr": false,
      "noDex": false,
      "oneInt": false,
      "oneWis": false,
      "oneCha": false,
      "noEncumbrance": false,
      "mediumArmorFullSpeed": false,
      "heavyArmorFullSpeed": false
    },
    "contextNotes": [],
    "links": {
      "children": [],
      "charges": []
    },
    "tag": "",
    "useCustomTag": false,
    "armorProf": {
      "value": [],
      "custom": ""
    },
    "weaponProf": {
      "value": [],
      "custom": ""
    },
    "featType": "classFeat",
    "associations": {
      "classes": [
        [
          "Sorcerer"
        ]
      ]
    },
    "showInQuickbar": false,
    "nonlethal": false,
    "abilityType": "none",
    "crOffset": "",
    "attack": {
      "parts": []
    }
  },
  "flags": {},
  "img": "systems/pf1/icons/spells/needles-blue-1.jpg",
  "effects": []
}