{
  "_id": "OQQYaNxXsb974T8j",
  "name": "Slow",
  "permission": {
    "default": 0
  },
  "type": "buff",
  "data": {
    "description": {
      "value": "<p>You are&nbsp;<a href=\"https://www.d20pfsrd.com/gamemastering/conditions#TOC-Staggered\">staggered</a>, and you have a -1 penalty to attack rolls, AC and Reflex saves.</p>\n<p>In addition, you move at half speed (round down to the next 5-foot increment).</p>",
      "chat": "",
      "unidentified": ""
    },
    "tags": [],
    "changes": [
      {
        "_id": "sfd9hlci",
        "formula": "-1",
        "operator": "add",
        "target": "ac",
        "subTarget": "ac",
        "modifier": "untyped",
        "priority": "0",
        "value": -1
      },
      {
        "_id": "oes4icne",
        "formula": "-1",
        "operator": "add",
        "target": "attack",
        "subTarget": "attack",
        "modifier": "untyped",
        "priority": "0",
        "value": -1
      },
      {
        "_id": "fkdqxldq",
        "formula": "-1",
        "operator": "add",
        "target": "savingThrows",
        "subTarget": "ref",
        "modifier": "untyped",
        "priority": "0",
        "value": -1
      },
      {
        "_id": "43vumsb9",
        "formula": "@attributes.speed.land.total > 0 ? max(1, floor(@attributes.speed.land.total / 5 / 2)) * 5 : 0",
        "operator": "set",
        "target": "speed",
        "subTarget": "landSpeed",
        "modifier": "untyped",
        "priority": "-5",
        "value": 0
      },
      {
        "_id": "8n7okgkh",
        "formula": "@attributes.speed.climb.total > 0 ? max(1, floor(@attributes.speed.climb.total / 5 / 2)) * 5 : 0",
        "operator": "set",
        "target": "speed",
        "subTarget": "climbSpeed",
        "modifier": "untyped",
        "priority": "-5",
        "value": 0
      },
      {
        "_id": "0n4xfnao",
        "formula": "@attributes.speed.swim.total > 0 ? max(1, floor(@attributes.speed.swim.total / 5 / 2)) * 5 : 0",
        "operator": "set",
        "target": "speed",
        "subTarget": "swimSpeed",
        "modifier": "untyped",
        "priority": "-5",
        "value": 0
      },
      {
        "_id": "5qvs6y2o",
        "formula": "@attributes.speed.burrow.total > 0 ? max(1, floor(@attributes.speed.burrow.total / 5 / 2)) * 5 : 0",
        "operator": "set",
        "target": "speed",
        "subTarget": "burrowSpeed",
        "modifier": "untyped",
        "priority": "-5",
        "value": 0
      },
      {
        "_id": "s12qta0n",
        "formula": "@attributes.speed.fly.total > 0 ? max(1, floor(@attributes.speed.fly.total / 5 / 2)) * 5 : 0",
        "operator": "set",
        "target": "speed",
        "subTarget": "flySpeed",
        "modifier": "untyped",
        "priority": "-5",
        "value": 0
      }
    ],
    "changeFlags": {
      "loseDexToAC": false,
      "noStr": false,
      "noDex": false,
      "oneInt": false,
      "oneWis": false,
      "oneCha": false,
      "noEncumbrance": false,
      "mediumArmorFullSpeed": false,
      "heavyArmorFullSpeed": false
    },
    "contextNotes": [],
    "links": {
      "children": []
    },
    "buffType": "temp",
    "active": false,
    "level": "",
    "hideFromToken": false,
    "damage": {
      "parts": [],
      "critParts": [],
      "nonCritParts": []
    },
    "attackParts": [],
    "conditionals": [],
    "identifiedName": "Slow",
    "uses": {
      "value": 0,
      "max": 0
    }
  },
  "sort": 6700000,
  "flags": {},
  "img": "systems/pf1/icons/skills/yellow_18.jpg",
  "effects": []
}