{
  "_id": "a4z9yazsd7ez1p0h",
  "name": "Aqueous Orb",
  "permission": {
    "default": 0
  },
  "type": "spell",
  "data": {
    "description": {
      "value": "<div class=\"spell-description\">\n  <p>\n    <strong>School</strong>&nbsp;conjuration&nbsp;(creation)&nbsp;[water];\n    <strong>Level</strong>&nbsp;bloodrager 3, druid 3, hunter 3, magus 3, sorcerer/wizard 3, summoner 3, unchained Summoner 3;\n    \n    \n    \n    <strong>Bloodline</strong>&nbsp;Aquatic 3;\n  </p>\n  <p>\n    <strong>Casting Time</strong>&nbsp;1 standard action<br>\n    <strong>Components</strong>&nbsp;V, S, M (a drop of water and a glass bead)<br>\n  </p>\n  <p>\n    <strong>Range</strong>&nbsp;medium (100 ft. + 10 ft./level)<br>\n    \n    \n    <strong>Effect</strong>&nbsp;10-ft.-diameter sphere<br>\n    <strong>Duration</strong>&nbsp;1 round/level<br>\n    <strong>Saving Throw</strong>&nbsp;Reflex negates;&nbsp;<strong>Spell Resistance</strong>&nbsp;no<br>\n  </p>\n  <h2>Description</h2>\n  <p>You create a rolling sphere of churning water that can engulf those it strikes. The <i><i>aqueous</i> orb</i> can move up to 30 feet per round, rolling over barriers less than 10 feet tall. It automatically quenches any nonmagical fires and functions as <i>dispel magic</i> against magical fires as long as those fires are size Large or less.</p><p>Any creature in the path of the <i><i>aqueous</i> orb</i> takes 2d6 points of nonlethal damage. A successful Reflex save negates this damage, but a Large or smaller creature that fails its save must make a second save or be engulfed by the <i><i>aqueous</i> orb</i> and carried along with it. Engulfed creatures are immersed in water and must hold their breath unless capable of breathing water. They gain cover against attacks from outside the <i><i>aqueous</i> orb</i> but are considered entangled by its churning currents, takes 2d6 points of nonlethal damage at the beginning of their turn each round they remain trapped. Creatures within the orb may attempt a new Reflex save each round to escape into a random square adjacent to the <i><i>aqueous</i> orb</i>. The orb may hold one Large creature, 4 Medium, or 16 Small or smaller creatures within it.</p><p>The sphere moves as long as you actively direct it (a move action for you); otherwise, it merely stays at rest and churns in place. An <i><i>aqueous</i> orb</i> stops if it moves outside the spell's range.</p>\n</div>\n",
      "chat": "",
      "unidentified": ""
    },
    "tags": [],
    "activation": {
      "cost": 1,
      "type": "standard"
    },
    "unchainedAction": {
      "activation": {
        "cost": 2,
        "type": "action"
      }
    },
    "duration": {
      "value": null,
      "units": ""
    },
    "target": {
      "value": ""
    },
    "range": {
      "value": null,
      "units": "medium",
      "maxIncrements": 1,
      "minValue": null,
      "minUnits": ""
    },
    "uses": {
      "value": 0,
      "max": 0,
      "per": "",
      "autoDeductCharges": true,
      "autoDeductChargesCost": "1"
    },
    "measureTemplate": {
      "type": "",
      "size": "0",
      "overrideColor": false,
      "customColor": "",
      "overrideTexture": false,
      "customTexture": ""
    },
    "attackName": "",
    "actionType": "spellsave",
    "attackBonus": "",
    "critConfirmBonus": "",
    "damage": {
      "parts": [],
      "critParts": [],
      "nonCritParts": []
    },
    "attackParts": [],
    "formula": "",
    "ability": {
      "attack": "",
      "damage": "",
      "damageMult": 1,
      "critRange": 20,
      "critMult": 2
    },
    "save": {
      "dc": "0",
      "type": "ref",
      "description": "Reflex negates"
    },
    "effectNotes": "",
    "attackNotes": "",
    "soundEffect": "",
    "links": {
      "children": []
    },
    "learnedAt": {
      "class": [
        [
          "sorcerer/wizard",
          3
        ],
        [
          "druid",
          3
        ],
        [
          "summoner",
          3
        ],
        [
          "magus",
          3
        ],
        [
          "bloodrager",
          3
        ],
        [
          "hunter",
          3
        ],
        [
          "unchained Summoner",
          3
        ]
      ],
      "domain": [],
      "subDomain": [],
      "elementalSchool": [],
      "bloodline": [
        [
          "Aquatic",
          3
        ]
      ]
    },
    "level": 3,
    "clOffset": 0,
    "slOffset": 0,
    "school": "con",
    "subschool": "creation",
    "types": "water",
    "nonlethal": false,
    "conditionals": [],
    "components": {
      "value": "",
      "verbal": true,
      "somatic": true,
      "material": true,
      "focus": false,
      "divineFocus": 0
    },
    "castTime": "",
    "materials": {
      "value": "a drop of water and a glass bead",
      "focus": "",
      "gpValue": 0
    },
    "spellbook": "primary",
    "preparation": {
      "preparedAmount": 0,
      "maxAmount": 0,
      "autoDeductCharges": true,
      "spontaneousPrepared": true,
      "mode": "prepared"
    },
    "atWill": false,
    "sr": false,
    "shortDescription": "<p>You create a rolling sphere of churning water that can engulf those it strikes. The <i><i>aqueous</i> orb</i> can move up to 30 feet per round, rolling over barriers less than 10 feet tall. It automatically quenches any nonmagical fires and functions as <i>dispel magic</i> against magical fires as long as those fires are size Large or less.</p><p>Any creature in the path of the <i><i>aqueous</i> orb</i> takes 2d6 points of nonlethal damage. A successful Reflex save negates this damage, but a Large or smaller creature that fails its save must make a second save or be engulfed by the <i><i>aqueous</i> orb</i> and carried along with it. Engulfed creatures are immersed in water and must hold their breath unless capable of breathing water. They gain cover against attacks from outside the <i><i>aqueous</i> orb</i> but are considered entangled by its churning currents, takes 2d6 points of nonlethal damage at the beginning of their turn each round they remain trapped. Creatures within the orb may attempt a new Reflex save each round to escape into a random square adjacent to the <i><i>aqueous</i> orb</i>. The orb may hold one Large creature, 4 Medium, or 16 Small or smaller creatures within it.</p><p>The sphere moves as long as you actively direct it (a move action for you); otherwise, it merely stays at rest and churns in place. An <i><i>aqueous</i> orb</i> stops if it moves outside the spell's range.</p>",
    "spellDuration": "1 round/level",
    "spellEffect": "10-ft.-diameter sphere",
    "spellArea": "",
    "showInQuickbar": false,
    "spellPoints": {
      "cost": "1 + @sl"
    },
    "domain": false,
    "slotCost": 1
  },
  "flags": {},
  "img": "systems/pf1/icons/misc/magic-swirl.png",
  "effects": []
}