{
  "_id": "v5j70knlwkibtb0s",
  "name": "Arcane Pocket",
  "permission": {
    "default": 0
  },
  "type": "spell",
  "data": {
    "description": {
      "value": "<div class=\"spell-description\">\n  <p>\n    <strong>School</strong>&nbsp;conjuration&nbsp;(creation);\n    <strong>Level</strong>&nbsp;sorcerer/wizard 1;\n    \n    \n    \n    \n  </p>\n  <p>\n    <strong>Casting Time</strong>&nbsp;1 standard action<br>\n    <strong>Components</strong>&nbsp;V, F (a pocket and a silver button)<br>\n  </p>\n  <p>\n    <strong>Range</strong>&nbsp;touch<br>\n    \n    \n    <strong>Effect</strong>&nbsp;extradimensional space up to 1 cu. ft./level<br>\n    <strong>Duration</strong>&nbsp;1 hour/level<br>\n    <strong>Saving Throw</strong>&nbsp;none;&nbsp;<strong>Spell Resistance</strong>&nbsp;no<br>\n  </p>\n  <h2>Description</h2>\n  <p>With a touch, you conjure an extradimensional space inside a pouch or pocket. The pocket acts as a <i>bag of holding</i>, except it can hold only 10 pounds per caster level. Regardless of what is placed into the pocket, it weighs 3 pounds. Unlike a <i>bag of holding</i>, the pocket created by this ability cannot be overloaded or ruptured-any additional material simply spills out of the top-nor does it have any special interaction with other kinds of extradimensional spaces.  An <i>arcane pocket</i> grants you a +1 bonus on Sleight of Hand checks to conceal its contents. The pocket becomes nonmagical, spilling all of its contents onto the ground unharmed, if it leaves your possession or you create a new <i>arcane pocket</i>.</p>\n</div>\n",
      "chat": "",
      "unidentified": ""
    },
    "tags": [],
    "activation": {
      "cost": 1,
      "type": "standard"
    },
    "unchainedAction": {
      "activation": {
        "cost": 2,
        "type": "action"
      }
    },
    "duration": {
      "value": null,
      "units": ""
    },
    "target": {
      "value": ""
    },
    "range": {
      "value": null,
      "units": "touch",
      "maxIncrements": 1,
      "minValue": null,
      "minUnits": ""
    },
    "uses": {
      "value": 0,
      "max": 0,
      "per": "",
      "autoDeductCharges": true,
      "autoDeductChargesCost": "1"
    },
    "measureTemplate": {
      "type": "",
      "size": "0",
      "overrideColor": false,
      "customColor": "",
      "overrideTexture": false,
      "customTexture": ""
    },
    "attackName": "",
    "actionType": "other",
    "attackBonus": "",
    "critConfirmBonus": "",
    "damage": {
      "parts": [],
      "critParts": [],
      "nonCritParts": []
    },
    "attackParts": [],
    "formula": "",
    "ability": {
      "attack": "",
      "damage": "",
      "damageMult": 1,
      "critRange": 20,
      "critMult": 2
    },
    "save": {
      "dc": "0",
      "type": "",
      "description": ""
    },
    "effectNotes": "",
    "attackNotes": "",
    "soundEffect": "",
    "links": {
      "children": []
    },
    "learnedAt": {
      "class": [
        [
          "sorcerer/wizard",
          1
        ]
      ],
      "domain": [],
      "subDomain": [],
      "elementalSchool": [],
      "bloodline": []
    },
    "level": 1,
    "clOffset": 0,
    "slOffset": 0,
    "school": "con",
    "subschool": "creation",
    "types": "",
    "nonlethal": false,
    "conditionals": [],
    "components": {
      "value": "",
      "verbal": true,
      "somatic": false,
      "material": false,
      "focus": true,
      "divineFocus": 0
    },
    "castTime": "",
    "materials": {
      "value": "",
      "focus": "a pocket and a silver button",
      "gpValue": 0
    },
    "spellbook": "primary",
    "preparation": {
      "preparedAmount": 0,
      "maxAmount": 0,
      "autoDeductCharges": true,
      "spontaneousPrepared": true,
      "mode": "prepared"
    },
    "atWill": false,
    "sr": false,
    "shortDescription": "<p>With a touch, you conjure an extradimensional space inside a pouch or pocket. The pocket acts as a <i>bag of holding</i>, except it can hold only 10 pounds per caster level. Regardless of what is placed into the pocket, it weighs 3 pounds. Unlike a <i>bag of holding</i>, the pocket created by this ability cannot be overloaded or ruptured-any additional material simply spills out of the top-nor does it have any special interaction with other kinds of extradimensional spaces.  An <i>arcane pocket</i> grants you a +1 bonus on Sleight of Hand checks to conceal its contents. The pocket becomes nonmagical, spilling all of its contents onto the ground unharmed, if it leaves your possession or you create a new <i>arcane pocket</i>.</p>",
    "spellDuration": "1 hour/level",
    "spellEffect": "extradimensional space up to 1 cu. ft./level",
    "spellArea": "",
    "showInQuickbar": false,
    "spellPoints": {
      "cost": "1 + @sl"
    },
    "domain": false,
    "slotCost": 1
  },
  "flags": {},
  "img": "systems/pf1/icons/misc/magic-swirl.png",
  "effects": []
}