{
  "_id": "37c8wxarifuq59bx",
  "name": "Collaborative Thaumaturgy",
  "permission": {
    "default": 0
  },
  "type": "spell",
  "data": {
    "description": {
      "value": "<div class=\"spell-description\">\n  <p>\n    <strong>School</strong>&nbsp;universal;\n    <strong>Level</strong>&nbsp;bard 3, cleric/oracle 3, druid 3, hunter 3, magus 3, sorcerer/wizard 3, summoner 3, unchained Summoner 3, witch 3;\n    \n    \n    \n    \n  </p>\n  <p>\n    <strong>Casting Time</strong>&nbsp;1 immediate<br>\n    <strong>Components</strong>&nbsp;V, S, F (a bronze tuning fork)<br>\n  </p>\n  <p>\n    <strong>Range</strong>&nbsp;close (25 ft. + 5 ft./2 levels)<br>\n    \n    <strong>Targets</strong>&nbsp;one creature<br>\n    \n    <strong>Duration</strong>&nbsp;instantaneous<br>\n    <strong>Saving Throw</strong>&nbsp;none;&nbsp;<strong>Spell Resistance</strong>&nbsp;no<br>\n  </p>\n  <h2>Description</h2>\n  <p>You tap into the magical resonance between you and your allies to enhance one another's magic. Cast this spell when an ally casts a spell at least 1 level lower than the highest-level spell she can cast.</p><p>The ally casts her spell as if one of the following metamagic feats were applied to it without increasing the spell level or casting time: Enlarge Spell, Extend Spell, Silent Spell, or Still Spell. If the ally is the target of two <i>collaborative thaumaturgy</i> spells when casting a spell, the ally can instead apply the Empower Spell metamagic feat to a spell at least 2 levels lower than the highest-level spell she can cast. Finally, if the ally is the target of three <i>collaborative thaumaturgy</i> spells when casting a spell, she can instead apply the Maximize Spell or Widen Spell metamagic feat to a spell at least 3 levels lower than the highest-level spell she can cast. You can't target yourself with <i>collaborative thaumaturgy</i>.</p>\n</div>\n",
      "chat": "",
      "unidentified": ""
    },
    "tags": [],
    "activation": {
      "cost": 1,
      "type": "immediate"
    },
    "unchainedAction": {
      "activation": {
        "cost": 1,
        "type": "reaction"
      }
    },
    "duration": {
      "value": null,
      "units": ""
    },
    "target": {
      "value": "one creature"
    },
    "range": {
      "value": null,
      "units": "close",
      "maxIncrements": 1,
      "minValue": null,
      "minUnits": ""
    },
    "uses": {
      "value": 0,
      "max": 0,
      "per": "",
      "autoDeductCharges": true,
      "autoDeductChargesCost": "1"
    },
    "measureTemplate": {
      "type": "",
      "size": "0",
      "overrideColor": false,
      "customColor": "",
      "overrideTexture": false,
      "customTexture": ""
    },
    "attackName": "",
    "actionType": "",
    "attackBonus": "",
    "critConfirmBonus": "",
    "damage": {
      "parts": [],
      "critParts": [],
      "nonCritParts": []
    },
    "attackParts": [],
    "formula": "",
    "ability": {
      "attack": "",
      "damage": "",
      "damageMult": 1,
      "critRange": 20,
      "critMult": 2
    },
    "save": {
      "dc": "0",
      "type": "",
      "description": ""
    },
    "effectNotes": "",
    "attackNotes": "",
    "soundEffect": "",
    "links": {
      "children": []
    },
    "learnedAt": {
      "class": [
        [
          "sorcerer/wizard",
          3
        ],
        [
          "cleric/oracle",
          3
        ],
        [
          "druid",
          3
        ],
        [
          "bard",
          3
        ],
        [
          "summoner",
          3
        ],
        [
          "witch",
          3
        ],
        [
          "magus",
          3
        ],
        [
          "hunter",
          3
        ],
        [
          "unchained Summoner",
          3
        ]
      ],
      "domain": [],
      "subDomain": [],
      "elementalSchool": [],
      "bloodline": []
    },
    "level": 3,
    "clOffset": 0,
    "slOffset": 0,
    "school": "uni",
    "subschool": "",
    "types": "",
    "nonlethal": false,
    "conditionals": [],
    "components": {
      "value": "",
      "verbal": true,
      "somatic": true,
      "material": false,
      "focus": true,
      "divineFocus": 0
    },
    "castTime": "",
    "materials": {
      "value": "",
      "focus": "a bronze tuning fork",
      "gpValue": 0
    },
    "spellbook": "primary",
    "preparation": {
      "preparedAmount": 0,
      "maxAmount": 0,
      "autoDeductCharges": true,
      "spontaneousPrepared": true,
      "mode": "prepared"
    },
    "atWill": false,
    "sr": false,
    "shortDescription": "<p>You tap into the magical resonance between you and your allies to enhance one another's magic. Cast this spell when an ally casts a spell at least 1 level lower than the highest-level spell she can cast.</p><p>The ally casts her spell as if one of the following metamagic feats were applied to it without increasing the spell level or casting time: Enlarge Spell, Extend Spell, Silent Spell, or Still Spell. If the ally is the target of two <i>collaborative thaumaturgy</i> spells when casting a spell, the ally can instead apply the Empower Spell metamagic feat to a spell at least 2 levels lower than the highest-level spell she can cast. Finally, if the ally is the target of three <i>collaborative thaumaturgy</i> spells when casting a spell, she can instead apply the Maximize Spell or Widen Spell metamagic feat to a spell at least 3 levels lower than the highest-level spell she can cast. You can't target yourself with <i>collaborative thaumaturgy</i>.</p>",
    "spellDuration": "instantaneous",
    "spellEffect": "",
    "spellArea": "",
    "showInQuickbar": false,
    "spellPoints": {
      "cost": "1 + @sl"
    },
    "domain": false,
    "slotCost": 1
  },
  "flags": {},
  "img": "systems/pf1/icons/misc/magic-swirl.png",
  "effects": []
}