{
  "_id": "v42t5kpxc8mvd615",
  "name": "Elemental Body IV",
  "permission": {
    "default": 0
  },
  "type": "spell",
  "data": {
    "description": {
      "value": "<div class=\"spell-description\">\n  <p>\n    <strong>School</strong>&nbsp;transmutation&nbsp;(polymorph);\n    <strong>Level</strong>&nbsp;sorcerer/wizard 7;\n    <strong>Domain</strong>&nbsp;Air 7, Earth 7, Fire 7, Water 7;\n    \n    \n    <strong>Bloodline</strong>&nbsp;Elemental 7;\n  </p>\n  <p>\n    <strong>Casting Time</strong>&nbsp;1 standard action<br>\n    <strong>Components</strong>&nbsp;V, S, M (the element you plan to assume)<br>\n  </p>\n  <p>\n    <strong>Range</strong>&nbsp;personal<br>\n    \n    <strong>Targets</strong>&nbsp;you<br>\n    \n    <strong>Duration</strong>&nbsp;1 min./level<br>\n    \n  </p>\n  <h2>Description</h2>\n  <p>This spell functions as <i>elemental body III</i>, except that it also allows you to assume the form of a Huge air, earth, fire, or water elemental. The abilities you gain depend upon the type of elemental into which you change. You are also immune to critical hits and sneak attacks while in elemental form and gain DR 5/-.</p><p><i>Air elemental</i>: As <i>elemental body I</i> except that you gain a +4 size bonus to your Strength, +6 size bonus to your Dexterity, and a +4 natural armor bonus. You also gain fly 120 feet (perfect).</p><p><i>Earth elemental</i>: As <i>elemental body I</i> except that you gain a +8 size bonus to your Strength, a -2 penalty on your Dexterity, a +4 size bonus to your Constitution, and a +6 natural armor bonus.</p><p><i>Fire elemental</i>: As <i>elemental body I</i> except that you gain a +6 size bonus to your Dexterity, a +4 size bonus to your Constitution, and a +4 natural armor bonus.</p><p><i>Water elemental</i>: As <i>elemental body I</i> except that you gain a +4 size bonus to your Strength, a -2 penalty on your Dexterity, a +8 size bonus to your Constitution, and a +6 natural armor bonus. You also gain swim 120 feet.</p>\n</div>\n",
      "chat": "",
      "unidentified": ""
    },
    "tags": [],
    "activation": {
      "cost": 1,
      "type": "standard"
    },
    "unchainedAction": {
      "activation": {
        "cost": 2,
        "type": "action"
      }
    },
    "duration": {
      "value": null,
      "units": ""
    },
    "target": {
      "value": "you"
    },
    "range": {
      "value": null,
      "units": "personal",
      "maxIncrements": 1,
      "minValue": null,
      "minUnits": ""
    },
    "uses": {
      "value": 0,
      "max": 0,
      "per": "",
      "autoDeductCharges": true,
      "autoDeductChargesCost": "1"
    },
    "measureTemplate": {
      "type": "",
      "size": "0",
      "overrideColor": false,
      "customColor": "",
      "overrideTexture": false,
      "customTexture": ""
    },
    "attackName": "",
    "actionType": "",
    "attackBonus": "",
    "critConfirmBonus": "",
    "damage": {
      "parts": [],
      "critParts": [],
      "nonCritParts": []
    },
    "attackParts": [],
    "formula": "",
    "ability": {
      "attack": "",
      "damage": "",
      "damageMult": 1,
      "critRange": 20,
      "critMult": 2
    },
    "save": {
      "dc": "0",
      "type": "",
      "description": ""
    },
    "effectNotes": "",
    "attackNotes": "",
    "soundEffect": "",
    "links": {
      "children": []
    },
    "learnedAt": {
      "class": [
        [
          "sorcerer/wizard",
          7
        ]
      ],
      "domain": [
        [
          "Air",
          7
        ],
        [
          "Earth",
          7
        ],
        [
          "Fire",
          7
        ],
        [
          "Water",
          7
        ]
      ],
      "subDomain": [],
      "elementalSchool": [],
      "bloodline": [
        [
          "Elemental",
          7
        ]
      ]
    },
    "level": 7,
    "clOffset": 0,
    "slOffset": 0,
    "school": "trs",
    "subschool": "polymorph",
    "types": "",
    "nonlethal": false,
    "conditionals": [],
    "components": {
      "value": "",
      "verbal": true,
      "somatic": true,
      "material": true,
      "focus": false,
      "divineFocus": 0
    },
    "castTime": "",
    "materials": {
      "value": "the element you plan to assume",
      "focus": "",
      "gpValue": 0
    },
    "spellbook": "primary",
    "preparation": {
      "preparedAmount": 0,
      "maxAmount": 0,
      "autoDeductCharges": true,
      "spontaneousPrepared": true,
      "mode": "prepared"
    },
    "atWill": false,
    "sr": false,
    "shortDescription": "<p>This spell functions as <i>elemental body III</i>, except that it also allows you to assume the form of a Huge air, earth, fire, or water elemental. The abilities you gain depend upon the type of elemental into which you change. You are also immune to critical hits and sneak attacks while in elemental form and gain DR 5/-.</p><p><i>Air elemental</i>: As <i>elemental body I</i> except that you gain a +4 size bonus to your Strength, +6 size bonus to your Dexterity, and a +4 natural armor bonus. You also gain fly 120 feet (perfect).</p><p><i>Earth elemental</i>: As <i>elemental body I</i> except that you gain a +8 size bonus to your Strength, a -2 penalty on your Dexterity, a +4 size bonus to your Constitution, and a +6 natural armor bonus.</p><p><i>Fire elemental</i>: As <i>elemental body I</i> except that you gain a +6 size bonus to your Dexterity, a +4 size bonus to your Constitution, and a +4 natural armor bonus.</p><p><i>Water elemental</i>: As <i>elemental body I</i> except that you gain a +4 size bonus to your Strength, a -2 penalty on your Dexterity, a +8 size bonus to your Constitution, and a +6 natural armor bonus. You also gain swim 120 feet.</p>",
    "spellDuration": "1 min./level",
    "spellEffect": "",
    "spellArea": "",
    "showInQuickbar": false,
    "spellPoints": {
      "cost": "1 + @sl"
    },
    "domain": false,
    "slotCost": 1
  },
  "flags": {},
  "img": "systems/pf1/icons/misc/magic-swirl.png",
  "effects": []
}