{
  "_id": "v3d3lnjj7ks0ztii",
  "name": "Enthrall",
  "permission": {
    "default": 0
  },
  "type": "spell",
  "data": {
    "description": {
      "value": "<div class=\"spell-description\">\n  <p>\n    <strong>School</strong>&nbsp;enchantment&nbsp;(charm)&nbsp;[language-dependent, mind-affecting, sonic];\n    <strong>Level</strong>&nbsp;bard 2, cleric/oracle 2, inquisitor 2, mesmerist 2, psychic 2, shaman 2, witch 2;\n    <strong>Domain</strong>&nbsp;Nobility 2;\n    <strong>Subdomain</strong>&nbsp;Love 2, Revolution 2;\n    \n    \n  </p>\n  <p>\n    <strong>Casting Time</strong>&nbsp;1 round<br>\n    <strong>Components</strong>&nbsp;V, S<br>\n  </p>\n  <p>\n    <strong>Range</strong>&nbsp;medium (100 ft. + 10 ft./level)<br>\n    \n    <strong>Targets</strong>&nbsp;any number of creatures<br>\n    \n    <strong>Duration</strong>&nbsp;1 hour or less<br>\n    <strong>Saving Throw</strong>&nbsp;Will negates; see text;&nbsp;<strong>Spell Resistance</strong>&nbsp;yes<br>\n  </p>\n  <h2>Description</h2>\n  <p>If you have the attention of a group of creatures, you can use this spell to hold them enthralled. To cast the spell, you must speak or sing without interruption for 1 full round. Thereafter, those affected give you their undivided attention, ignoring their surroundings. They are considered to have an attitude of friendly while under the effect of the spell. Any potentially affected creature of a race or religion unfriendly to yours gets a +4 bonus on the saving throw. A target with 4 or more HD or with a Wisdom score of 16 or higher remains aware of its surroundings and has an attitude of indifferent. It gains a new saving throw if it witnesses actions that it opposes. The effect lasts as long as you speak or sing, to a maximum of 1 hour. Those enthralled by your words take no action while you speak or sing and for 1d3 rounds thereafter while they discuss the topic or performance. Those entering the area during the performance must also successfully save or become enthralled. The speech ends (but the 1d3-round delay still applies) if you lose concentration or do anything other than speak or sing. If those not enthralled have unfriendly or hostile attitudes toward you, they can collectively make a Charisma check to try to end the spell by jeering and heckling. For this check, use the Charisma bonus of the creature with the highest Charisma in the group; others may make Charisma checks to assist. The heckling ends the spell if this check result beats your Charisma check result. Only one such challenge is allowed per use of the spell. If any member of the audience is attacked or subjected to some other overtly hostile act, the spell ends and the previously enthralled members become immediately unfriendly toward you. Each creature with 4 or more HD or with a Wisdom score of 16 or higher becomes hostile.</p>\n</div>\n",
      "chat": "",
      "unidentified": ""
    },
    "tags": [],
    "activation": {
      "cost": 1,
      "type": "round"
    },
    "unchainedAction": {
      "activation": {
        "cost": 3,
        "type": "action"
      }
    },
    "duration": {
      "value": null,
      "units": ""
    },
    "target": {
      "value": "any number of creatures"
    },
    "range": {
      "value": null,
      "units": "medium",
      "maxIncrements": 1,
      "minValue": null,
      "minUnits": ""
    },
    "uses": {
      "value": 0,
      "max": 0,
      "per": "",
      "autoDeductCharges": true,
      "autoDeductChargesCost": "1"
    },
    "measureTemplate": {
      "type": "",
      "size": "0",
      "overrideColor": false,
      "customColor": "",
      "overrideTexture": false,
      "customTexture": ""
    },
    "attackName": "",
    "actionType": "spellsave",
    "attackBonus": "",
    "critConfirmBonus": "",
    "damage": {
      "parts": [],
      "critParts": [],
      "nonCritParts": []
    },
    "attackParts": [],
    "formula": "",
    "ability": {
      "attack": "",
      "damage": "",
      "damageMult": 1,
      "critRange": 20,
      "critMult": 2
    },
    "save": {
      "dc": "0",
      "type": "will",
      "description": "Will negates; see text"
    },
    "effectNotes": "",
    "attackNotes": "",
    "soundEffect": "",
    "links": {
      "children": []
    },
    "learnedAt": {
      "class": [
        [
          "cleric/oracle",
          2
        ],
        [
          "bard",
          2
        ],
        [
          "witch",
          2
        ],
        [
          "inquisitor",
          2
        ],
        [
          "shaman",
          2
        ],
        [
          "psychic",
          2
        ],
        [
          "mesmerist",
          2
        ]
      ],
      "domain": [
        [
          "Nobility",
          2
        ]
      ],
      "subDomain": [
        [
          "Love",
          2
        ],
        [
          "Revolution",
          2
        ]
      ],
      "elementalSchool": [],
      "bloodline": []
    },
    "level": 2,
    "clOffset": 0,
    "slOffset": 0,
    "school": "enc",
    "subschool": "charm",
    "types": "language-dependent, mind-affecting, sonic",
    "nonlethal": false,
    "conditionals": [],
    "components": {
      "value": "",
      "verbal": true,
      "somatic": true,
      "material": false,
      "focus": false,
      "divineFocus": 0
    },
    "castTime": "",
    "materials": {
      "value": "",
      "focus": "",
      "gpValue": 0
    },
    "spellbook": "primary",
    "preparation": {
      "preparedAmount": 0,
      "maxAmount": 0,
      "autoDeductCharges": true,
      "spontaneousPrepared": true,
      "mode": "prepared"
    },
    "atWill": false,
    "sr": true,
    "shortDescription": "<p>If you have the attention of a group of creatures, you can use this spell to hold them enthralled. To cast the spell, you must speak or sing without interruption for 1 full round. Thereafter, those affected give you their undivided attention, ignoring their surroundings. They are considered to have an attitude of friendly while under the effect of the spell. Any potentially affected creature of a race or religion unfriendly to yours gets a +4 bonus on the saving throw. A target with 4 or more HD or with a Wisdom score of 16 or higher remains aware of its surroundings and has an attitude of indifferent. It gains a new saving throw if it witnesses actions that it opposes. The effect lasts as long as you speak or sing, to a maximum of 1 hour. Those enthralled by your words take no action while you speak or sing and for 1d3 rounds thereafter while they discuss the topic or performance. Those entering the area during the performance must also successfully save or become enthralled. The speech ends (but the 1d3-round delay still applies) if you lose concentration or do anything other than speak or sing. If those not enthralled have unfriendly or hostile attitudes toward you, they can collectively make a Charisma check to try to end the spell by jeering and heckling. For this check, use the Charisma bonus of the creature with the highest Charisma in the group; others may make Charisma checks to assist. The heckling ends the spell if this check result beats your Charisma check result. Only one such challenge is allowed per use of the spell. If any member of the audience is attacked or subjected to some other overtly hostile act, the spell ends and the previously enthralled members become immediately unfriendly toward you. Each creature with 4 or more HD or with a Wisdom score of 16 or higher becomes hostile.</p>",
    "spellDuration": "1 hour or less",
    "spellEffect": "",
    "spellArea": "",
    "showInQuickbar": false,
    "spellPoints": {
      "cost": "1 + @sl"
    },
    "domain": false,
    "slotCost": 1
  },
  "flags": {},
  "img": "systems/pf1/icons/misc/magic-swirl.png",
  "effects": []
}