{
  "_id": "btccs4sjo2nog1a0",
  "name": "Ethereal Jaunt",
  "permission": {
    "default": 0
  },
  "type": "spell",
  "data": {
    "description": {
      "value": "<div class=\"spell-description\">\n  <p>\n    <strong>School</strong>&nbsp;transmutation;\n    <strong>Level</strong>&nbsp;cleric/oracle 7, psychic 6, sorcerer/wizard 7, summoner 5, unchained Summoner 6;\n    \n    <strong>Subdomain</strong>&nbsp;Thievery 7;\n    \n    <strong>Bloodline</strong>&nbsp;Ectoplasm 6;\n  </p>\n  <p>\n    <strong>Casting Time</strong>&nbsp;1 standard action<br>\n    <strong>Components</strong>&nbsp;V, S<br>\n  </p>\n  <p>\n    <strong>Range</strong>&nbsp;personal<br>\n    \n    <strong>Targets</strong>&nbsp;you<br>\n    \n    <strong>Duration</strong>&nbsp;1 round/level (D)<br>\n    \n  </p>\n  <h2>Description</h2>\n  <p>You become ethereal, along with your equipment. For the duration of the spell, you are in the Ethereal Plane, which overlaps the Material Plane. When the spell expires, you return to material existence. An ethereal creature is invisible, insubstantial, and capable of moving in any direction, even up or down, albeit at half normal speed. As an insubstantial creature, you can move through solid objects, including living creatures. An ethereal creature can see and hear on the Material Plane, but everything looks gray and ephemeral. Sight and hearing onto the Material Plane are limited to 60 feet. Force effects and abjurations affect an ethereal creature normally. Their effects extend onto the Ethereal Plane from the Material Plane, but not vice versa. An ethereal creature can't attack material creatures, and spells you cast while ethereal affect only other ethereal things. Certain material creatures or objects have attacks or effects that work on the Ethereal Plane. Treat other ethereal creatures and ethereal objects as if they were material. If you end the spell and become material while inside a material object (such as a solid wall), you are shunted off to the nearest open space and take 1d6 points of damage per 5 feet that you so travel.</p>\n</div>\n",
      "chat": "",
      "unidentified": ""
    },
    "tags": [],
    "activation": {
      "cost": 1,
      "type": "standard"
    },
    "unchainedAction": {
      "activation": {
        "cost": 2,
        "type": "action"
      }
    },
    "duration": {
      "value": null,
      "units": ""
    },
    "target": {
      "value": "you"
    },
    "range": {
      "value": null,
      "units": "personal",
      "maxIncrements": 1,
      "minValue": null,
      "minUnits": ""
    },
    "uses": {
      "value": 0,
      "max": 0,
      "per": "",
      "autoDeductCharges": true,
      "autoDeductChargesCost": "1"
    },
    "measureTemplate": {
      "type": "",
      "size": "0",
      "overrideColor": false,
      "customColor": "",
      "overrideTexture": false,
      "customTexture": ""
    },
    "attackName": "",
    "actionType": "",
    "attackBonus": "",
    "critConfirmBonus": "",
    "damage": {
      "parts": [],
      "critParts": [],
      "nonCritParts": []
    },
    "attackParts": [],
    "formula": "",
    "ability": {
      "attack": "",
      "damage": "",
      "damageMult": 1,
      "critRange": 20,
      "critMult": 2
    },
    "save": {
      "dc": "0",
      "type": "",
      "description": ""
    },
    "effectNotes": "",
    "attackNotes": "",
    "soundEffect": "",
    "links": {
      "children": []
    },
    "learnedAt": {
      "class": [
        [
          "sorcerer/wizard",
          7
        ],
        [
          "cleric/oracle",
          7
        ],
        [
          "summoner",
          5
        ],
        [
          "psychic",
          6
        ],
        [
          "unchained Summoner",
          6
        ]
      ],
      "domain": [],
      "subDomain": [
        [
          "Thievery",
          7
        ]
      ],
      "elementalSchool": [],
      "bloodline": [
        [
          "Ectoplasm",
          6
        ]
      ]
    },
    "level": 7,
    "clOffset": 0,
    "slOffset": 0,
    "school": "trs",
    "subschool": "",
    "types": "",
    "nonlethal": false,
    "conditionals": [],
    "components": {
      "value": "",
      "verbal": true,
      "somatic": true,
      "material": false,
      "focus": false,
      "divineFocus": 0
    },
    "castTime": "",
    "materials": {
      "value": "",
      "focus": "",
      "gpValue": 0
    },
    "spellbook": "primary",
    "preparation": {
      "preparedAmount": 0,
      "maxAmount": 0,
      "autoDeductCharges": true,
      "spontaneousPrepared": true,
      "mode": "prepared"
    },
    "atWill": false,
    "sr": false,
    "shortDescription": "<p>You become ethereal, along with your equipment. For the duration of the spell, you are in the Ethereal Plane, which overlaps the Material Plane. When the spell expires, you return to material existence. An ethereal creature is invisible, insubstantial, and capable of moving in any direction, even up or down, albeit at half normal speed. As an insubstantial creature, you can move through solid objects, including living creatures. An ethereal creature can see and hear on the Material Plane, but everything looks gray and ephemeral. Sight and hearing onto the Material Plane are limited to 60 feet. Force effects and abjurations affect an ethereal creature normally. Their effects extend onto the Ethereal Plane from the Material Plane, but not vice versa. An ethereal creature can't attack material creatures, and spells you cast while ethereal affect only other ethereal things. Certain material creatures or objects have attacks or effects that work on the Ethereal Plane. Treat other ethereal creatures and ethereal objects as if they were material. If you end the spell and become material while inside a material object (such as a solid wall), you are shunted off to the nearest open space and take 1d6 points of damage per 5 feet that you so travel.</p>",
    "spellDuration": "1 round/level (D)",
    "spellEffect": "",
    "spellArea": "",
    "showInQuickbar": false,
    "spellPoints": {
      "cost": "1 + @sl"
    },
    "domain": false,
    "slotCost": 1
  },
  "flags": {},
  "img": "systems/pf1/icons/misc/magic-swirl.png",
  "effects": []
}