{
  "_id": "3v1k7qnzd13s5dj3",
  "name": "Expeditious Excavation",
  "permission": {
    "default": 0
  },
  "type": "spell",
  "data": {
    "description": {
      "value": "<div class=\"spell-description\">\n  <p>\n    <strong>School</strong>&nbsp;transmutation&nbsp;[earth];\n    <strong>Level</strong>&nbsp;druid 1, hunter 1, sorcerer/wizard 1;\n    \n    \n    \n    \n  </p>\n  <p>\n    <strong>Casting Time</strong>&nbsp;1 standard action<br>\n    <strong>Components</strong>&nbsp;V, S, M (tiny shovel)<br>\n  </p>\n  <p>\n    <strong>Range</strong>&nbsp;close (25 ft. + 5 ft./2 levels)<br>\n    <strong>Area</strong>&nbsp;dirt in a 5-ft. cube<br>\n    \n    \n    <strong>Duration</strong>&nbsp;instantaneous<br>\n    <strong>Saving Throw</strong>&nbsp;see text;&nbsp;<strong>Spell Resistance</strong>&nbsp;no<br>\n  </p>\n  <h2>Description</h2>\n  <p>You can excavate and move earth, dust, and sand up to the size of a 5-foot cube. If you are buried, you may open a 5-foot cube around yourself, but the spell cannot be used for tunneling.</p><p>Besides its mundane applications, you can open a 5-foot-deep pit at a creature's feet. A Medium or smaller creature falls prone in the pit unless it succeeds on a Reflex save. With a successful save, it can choose to land harmlessly on its feet in the pit or hop to an adjacent square; this movement does not provoke attacks of opportunity. A creature can escape a 5-foot-deep pit with a DC 5 Climb check. Larger creatures may ignore pits smaller than their size.</p><p>The earth excavated by this spell is ordinarily distributed harmlessly across the spell's range, but you may choose to throw up a burst of grit and debris when you dig a pit. This cloud of debris provides concealment to any creatures in the square affected and all adjacent squares for 1 round. <i>Expeditious excavation</i> has no effect on solid rock or earth creatures.</p>\n</div>\n",
      "chat": "",
      "unidentified": ""
    },
    "tags": [],
    "activation": {
      "cost": 1,
      "type": "standard"
    },
    "unchainedAction": {
      "activation": {
        "cost": 2,
        "type": "action"
      }
    },
    "duration": {
      "value": null,
      "units": ""
    },
    "target": {
      "value": ""
    },
    "range": {
      "value": null,
      "units": "close",
      "maxIncrements": 1,
      "minValue": null,
      "minUnits": ""
    },
    "uses": {
      "value": 0,
      "max": 0,
      "per": "",
      "autoDeductCharges": true,
      "autoDeductChargesCost": "1"
    },
    "measureTemplate": {
      "type": "",
      "size": "0",
      "overrideColor": false,
      "customColor": "",
      "overrideTexture": false,
      "customTexture": ""
    },
    "attackName": "",
    "actionType": "spellsave",
    "attackBonus": "",
    "critConfirmBonus": "",
    "damage": {
      "parts": [],
      "critParts": [],
      "nonCritParts": []
    },
    "attackParts": [],
    "formula": "",
    "ability": {
      "attack": "",
      "damage": "",
      "damageMult": 1,
      "critRange": 20,
      "critMult": 2
    },
    "save": {
      "dc": "0",
      "type": "",
      "description": "see text"
    },
    "effectNotes": "",
    "attackNotes": "",
    "soundEffect": "",
    "links": {
      "children": []
    },
    "learnedAt": {
      "class": [
        [
          "sorcerer/wizard",
          1
        ],
        [
          "druid",
          1
        ],
        [
          "hunter",
          1
        ]
      ],
      "domain": [],
      "subDomain": [],
      "elementalSchool": [],
      "bloodline": []
    },
    "level": 1,
    "clOffset": 0,
    "slOffset": 0,
    "school": "trs",
    "subschool": "",
    "types": "earth",
    "nonlethal": false,
    "conditionals": [],
    "components": {
      "value": "",
      "verbal": true,
      "somatic": true,
      "material": true,
      "focus": false,
      "divineFocus": 0
    },
    "castTime": "",
    "materials": {
      "value": "tiny shovel",
      "focus": "",
      "gpValue": 0
    },
    "spellbook": "primary",
    "preparation": {
      "preparedAmount": 0,
      "maxAmount": 0,
      "autoDeductCharges": true,
      "spontaneousPrepared": true,
      "mode": "prepared"
    },
    "atWill": false,
    "sr": false,
    "shortDescription": "<p>You can excavate and move earth, dust, and sand up to the size of a 5-foot cube. If you are buried, you may open a 5-foot cube around yourself, but the spell cannot be used for tunneling.</p><p>Besides its mundane applications, you can open a 5-foot-deep pit at a creature's feet. A Medium or smaller creature falls prone in the pit unless it succeeds on a Reflex save. With a successful save, it can choose to land harmlessly on its feet in the pit or hop to an adjacent square; this movement does not provoke attacks of opportunity. A creature can escape a 5-foot-deep pit with a DC 5 Climb check. Larger creatures may ignore pits smaller than their size.</p><p>The earth excavated by this spell is ordinarily distributed harmlessly across the spell's range, but you may choose to throw up a burst of grit and debris when you dig a pit. This cloud of debris provides concealment to any creatures in the square affected and all adjacent squares for 1 round. <i>Expeditious excavation</i> has no effect on solid rock or earth creatures.</p>",
    "spellDuration": "instantaneous",
    "spellEffect": "",
    "spellArea": "dirt in a 5-ft. cube",
    "showInQuickbar": false,
    "spellPoints": {
      "cost": "1 + @sl"
    },
    "domain": false,
    "slotCost": 1
  },
  "flags": {},
  "img": "systems/pf1/icons/misc/magic-swirl.png",
  "effects": []
}