{
  "_id": "338vg8knwliacgbi",
  "name": "False Resurrection",
  "permission": {
    "default": 0
  },
  "type": "spell",
  "data": {
    "description": {
      "value": "<div class=\"spell-description\">\n  <p>\n    <strong>School</strong>&nbsp;conjuration&nbsp;(calling)&nbsp;[chaotic, evil, ruse];\n    <strong>Level</strong>&nbsp;cleric/oracle 7, shaman 8, witch 8;\n    \n    \n    \n    \n  </p>\n  <p>\n    <strong>Casting Time</strong>&nbsp;1 minute<br>\n    <strong>Components</strong>&nbsp;V, S, M (diamond worth 10,000 gp), DF<br>\n  </p>\n  <p>\n    <strong>Range</strong>&nbsp;touch<br>\n    \n    <strong>Targets</strong>&nbsp;dead creature touched<br>\n    \n    <strong>Duration</strong>&nbsp;1 day/level<br>\n      <strong>Saving Throw</strong>&nbsp;none;&nbsp;\n      <strong>Spell Resistance</strong>&nbsp;yes<br>\n  </p>\n  <h2>Description</h2>\n  <p>This spell functions as <i>resurrection</i> except that instead of recalling the dead soul to life, the spell calls a shadow demon with the advanced simple template (<i>Pathfinder RPG Bestiary</i> 67, 294) to possess the body. If you fail to overcome the subject's spell resistance, the subject's soul can negate the calling and gain the option to return to life (as <i>resurrection</i>) in the restored body. The possession otherwise functions (as possessionOA) except that the subject's soul is not present to resist. When <i>false</i> <i>resurrection</i> ends or the demon is removed from the subject, the demon returns to the Abyss, leaving the body alive but soulless (like that created by clone). If the soul hasn't been returned to life already, it has the option to return in the now-empty body if it still lives (as <i>resurrection</i>). If the body was killed, the demon is sent back to the Abyss but the subject remains dead.  Attempts to identify <i>false</i> <i>resurrection</i> with a skill check incorrectly identify it as <i>resurrection</i> (see the ruse descriptor on page 192). A fooled viewer mistakes <i>false</i> <i>resurrection</i>'s aura as the lingering aura of an instantaneous conjuration effect.</p>\n</div>\n",
      "chat": "",
      "unidentified": ""
    },
    "tags": [],
    "activation": {
      "cost": 1,
      "type": "minute"
    },
    "unchainedAction": {
      "activation": {
        "cost": 1,
        "type": "minute"
      }
    },
    "duration": {
      "value": null,
      "units": ""
    },
    "target": {
      "value": "dead creature touched"
    },
    "range": {
      "value": null,
      "units": "touch",
      "maxIncrements": 1,
      "minValue": null,
      "minUnits": ""
    },
    "uses": {
      "value": 0,
      "max": 0,
      "per": "",
      "autoDeductCharges": true,
      "autoDeductChargesCost": "1"
    },
    "measureTemplate": {
      "type": "",
      "size": "0",
      "overrideColor": false,
      "customColor": "",
      "overrideTexture": false,
      "customTexture": ""
    },
    "attackName": "",
    "actionType": "",
    "attackBonus": "",
    "critConfirmBonus": "",
    "damage": {
      "parts": [],
      "critParts": [],
      "nonCritParts": []
    },
    "attackParts": [],
    "formula": "",
    "ability": {
      "attack": "",
      "damage": "",
      "damageMult": 1,
      "critRange": 20,
      "critMult": 2
    },
    "save": {
      "dc": "0",
      "type": "",
      "description": ""
    },
    "effectNotes": "",
    "attackNotes": "",
    "soundEffect": "",
    "links": {
      "children": []
    },
    "learnedAt": {
      "class": [
        [
          "cleric/oracle",
          7
        ],
        [
          "witch",
          8
        ],
        [
          "shaman",
          8
        ]
      ],
      "domain": [],
      "subDomain": [],
      "elementalSchool": [],
      "bloodline": []
    },
    "level": 7,
    "clOffset": 0,
    "slOffset": 0,
    "school": "con",
    "subschool": "calling",
    "types": "chaotic, evil, ruse",
    "nonlethal": false,
    "conditionals": [],
    "components": {
      "value": "",
      "verbal": true,
      "somatic": true,
      "material": true,
      "focus": false,
      "divineFocus": 1
    },
    "castTime": "",
    "materials": {
      "value": "diamond worth 10,000 gp",
      "focus": "",
      "gpValue": 10000
    },
    "spellbook": "",
    "preparation": {
      "preparedAmount": 0,
      "maxAmount": 0,
      "autoDeductCharges": false,
      "spontaneousPrepared": false,
      "mode": "prepared"
    },
    "atWill": false,
    "sr": true,
    "shortDescription": "<p>This spell functions as <i>resurrection</i> except that instead of recalling the dead soul to life, the spell calls a shadow demon with the advanced simple template (<i>Pathfinder RPG Bestiary</i> 67, 294) to possess the body. If you fail to overcome the subject's spell resistance, the subject's soul can negate the calling and gain the option to return to life (as <i>resurrection</i>) in the restored body. The possession otherwise functions (as possessionOA) except that the subject's soul is not present to resist. When <i>false</i> <i>resurrection</i> ends or the demon is removed from the subject, the demon returns to the Abyss, leaving the body alive but soulless (like that created by clone). If the soul hasn't been returned to life already, it has the option to return in the now-empty body if it still lives (as <i>resurrection</i>). If the body was killed, the demon is sent back to the Abyss but the subject remains dead.  Attempts to identify <i>false</i> <i>resurrection</i> with a skill check incorrectly identify it as <i>resurrection</i> (see the ruse descriptor on page 192). A fooled viewer mistakes <i>false</i> <i>resurrection</i>'s aura as the lingering aura of an instantaneous conjuration effect.</p>",
    "spellDuration": "1 day/level",
    "spellEffect": "",
    "spellArea": "",
    "showInQuickbar": false,
    "spellPoints": {
      "cost": ""
    },
    "domain": false,
    "slotCost": 1
  },
  "flags": {},
  "img": "systems/pf1/icons/misc/magic-swirl.png",
  "effects": []
}