{
  "_id": "mmdypasgl5us00wb",
  "name": "Forbid Action",
  "permission": {
    "default": 0
  },
  "type": "spell",
  "data": {
    "description": {
      "value": "<div class=\"spell-description\">\n  <p>\n    <strong>School</strong>&nbsp;enchantment&nbsp;(compulsion)&nbsp;[language-dependent, mind-affecting];\n    <strong>Level</strong>&nbsp;cleric/oracle 1, inquisitor 1, mesmerist 1, occultist 1, psychic 1;\n    \n    <strong>Subdomain</strong>&nbsp;Legislation 1;\n    \n    \n  </p>\n  <p>\n    <strong>Casting Time</strong>&nbsp;1 standard action<br>\n    <strong>Components</strong>&nbsp;V<br>\n  </p>\n  <p>\n    <strong>Range</strong>&nbsp;close (25 ft. + 5 ft./2 levels)<br>\n    \n    <strong>Targets</strong>&nbsp;one creature<br>\n    \n    <strong>Duration</strong>&nbsp;1 round<br>\n    <strong>Saving Throw</strong>&nbsp;Will negates;&nbsp;<strong>Spell Resistance</strong>&nbsp;yes<br>\n  </p>\n  <h2>Description</h2>\n  <p>You forbid the target a single course of action, which it avoids to the best of its ability. You may demand the target not take actions that fall into one of the following options.</p><p>Attack: The target cannot take any action that involves an attack roll, or uses a spell or ability that targets a foe or an area that includes a foe.</p><p>Cast: Target cannot cast spells or use spell-like abilities.</p><p>Communicate: The target cannot take any actions that allow it to communicate with anyone. This includes such acts as speaking, Bluff checks to pass secret messages, writing, and using telepathy. It does not prevent verbalizations made for purposes other than communication, such as command words or the verbal component of spellcasting.</p><p>Draw: Target cannot ready or prepare any item, weapon, component, or equipment.</p><p>Move: The target can take no act that would cause it to end up in a different location. The target does not resist being moved by others (and thus can be picked up or dragged, or can float along on a raft), but does not consciously attempt to move (including not directing a mount to move).</p><p>The target is free to take any actions not forbidden by the caster. For example, a target affected by this spell's demand to not move is still free to cast spells, make attacks, or shout for help.</p>\n</div>\n",
      "chat": "",
      "unidentified": ""
    },
    "tags": [],
    "activation": {
      "cost": 1,
      "type": "standard"
    },
    "unchainedAction": {
      "activation": {
        "cost": 2,
        "type": "action"
      }
    },
    "duration": {
      "value": null,
      "units": ""
    },
    "target": {
      "value": "one creature"
    },
    "range": {
      "value": null,
      "units": "close",
      "maxIncrements": 1,
      "minValue": null,
      "minUnits": ""
    },
    "uses": {
      "value": 0,
      "max": 0,
      "per": "",
      "autoDeductCharges": true,
      "autoDeductChargesCost": "1"
    },
    "measureTemplate": {
      "type": "",
      "size": "0",
      "overrideColor": false,
      "customColor": "",
      "overrideTexture": false,
      "customTexture": ""
    },
    "attackName": "",
    "actionType": "spellsave",
    "attackBonus": "",
    "critConfirmBonus": "",
    "damage": {
      "parts": [],
      "critParts": [],
      "nonCritParts": []
    },
    "attackParts": [],
    "formula": "",
    "ability": {
      "attack": "",
      "damage": "",
      "damageMult": 1,
      "critRange": 20,
      "critMult": 2
    },
    "save": {
      "dc": "0",
      "type": "will",
      "description": "Will negates"
    },
    "effectNotes": "",
    "attackNotes": "",
    "soundEffect": "",
    "links": {
      "children": []
    },
    "learnedAt": {
      "class": [
        [
          "cleric/oracle",
          1
        ],
        [
          "inquisitor",
          1
        ],
        [
          "psychic",
          1
        ],
        [
          "mesmerist",
          1
        ],
        [
          "occultist",
          1
        ]
      ],
      "domain": [],
      "subDomain": [
        [
          "Legislation",
          1
        ]
      ],
      "elementalSchool": [],
      "bloodline": []
    },
    "level": 1,
    "clOffset": 0,
    "slOffset": 0,
    "school": "enc",
    "subschool": "compulsion",
    "types": "language-dependent, mind-affecting",
    "nonlethal": false,
    "conditionals": [],
    "components": {
      "value": "",
      "verbal": true,
      "somatic": false,
      "material": false,
      "focus": false,
      "divineFocus": 0
    },
    "castTime": "",
    "materials": {
      "value": "",
      "focus": "",
      "gpValue": 0
    },
    "spellbook": "primary",
    "preparation": {
      "preparedAmount": 0,
      "maxAmount": 0,
      "autoDeductCharges": true,
      "spontaneousPrepared": true,
      "mode": "prepared"
    },
    "atWill": false,
    "sr": true,
    "shortDescription": "<p>You forbid the target a single course of action, which it avoids to the best of its ability. You may demand the target not take actions that fall into one of the following options.</p><p>Attack: The target cannot take any action that involves an attack roll, or uses a spell or ability that targets a foe or an area that includes a foe.</p><p>Cast: Target cannot cast spells or use spell-like abilities.</p><p>Communicate: The target cannot take any actions that allow it to communicate with anyone. This includes such acts as speaking, Bluff checks to pass secret messages, writing, and using telepathy. It does not prevent verbalizations made for purposes other than communication, such as command words or the verbal component of spellcasting.</p><p>Draw: Target cannot ready or prepare any item, weapon, component, or equipment.</p><p>Move: The target can take no act that would cause it to end up in a different location. The target does not resist being moved by others (and thus can be picked up or dragged, or can float along on a raft), but does not consciously attempt to move (including not directing a mount to move).</p><p>The target is free to take any actions not forbidden by the caster. For example, a target affected by this spell's demand to not move is still free to cast spells, make attacks, or shout for help.</p>",
    "spellDuration": "1 round",
    "spellEffect": "",
    "spellArea": "",
    "showInQuickbar": false,
    "spellPoints": {
      "cost": "1 + @sl"
    },
    "domain": false,
    "slotCost": 1
  },
  "flags": {},
  "img": "systems/pf1/icons/misc/magic-swirl.png",
  "effects": []
}