{
  "_id": "ik9u3eel5vfwrtb5",
  "name": "Grease",
  "permission": {
    "default": 0
  },
  "type": "spell",
  "data": {
    "description": {
      "value": "<div class=\"spell-description\">\n  <p>\n    <strong>School</strong>&nbsp;conjuration&nbsp;(creation);\n    <strong>Level</strong>&nbsp;bard 1, magus 1, mesmerist 1, sorcerer/wizard 1, summoner 1, unchained Summoner 1;\n    \n    \n    \n    \n  </p>\n  <p>\n    <strong>Casting Time</strong>&nbsp;1 standard action<br>\n    <strong>Components</strong>&nbsp;V, S, M (butter)<br>\n  </p>\n  <p>\n    <strong>Range</strong>&nbsp;close (25 ft. + 5 ft./2 levels)<br>\n    \n    <strong>Targets</strong>&nbsp;one object or 10-ft. square<br>\n    \n    <strong>Duration</strong>&nbsp;1 min./level (D)<br>\n    <strong>Saving Throw</strong>&nbsp;see text;&nbsp;<strong>Spell Resistance</strong>&nbsp;no<br>\n  </p>\n  <h2>Description</h2>\n  <p>A <i>grease</i> spell covers a solid surface with a layer of slippery <i>grease</i>. Any creature in the area when the spell is cast must make a successful Reflex save or fall. A creature can walk within or through the area of <i>grease</i> at half normal speed with a DC 10 Acrobatics check. Failure means it can't move that round (and must then make a Reflex save or fall), while failure by 5 or more means it falls (see the Acrobatics skill for details). Creatures that do not move on their turn do not need to make this check and are not considered flat-footed.</p><p>The spell can also be used to create a greasy coating on an item.</p><p>Material objects not in use are always affected by this spell, while an object wielded or employed by a creature requires its bearer to make a Reflex saving throw to avoid the effect. If the initial saving throw fails, the creature immediately drops the item. A saving throw must be made in each round that the creature attempts to pick up or use the <i>grease</i>d item. A creature wearing <i>grease</i>d armor or clothing gains a +10 circumstance bonus on Escape Artist checks and combat maneuver checks made to escape a grapple, and to their CMD to avoid being grappled.</p>\n</div>\n",
      "chat": "",
      "unidentified": ""
    },
    "tags": [],
    "activation": {
      "cost": 1,
      "type": "standard"
    },
    "unchainedAction": {
      "activation": {
        "cost": 2,
        "type": "action"
      }
    },
    "duration": {
      "value": null,
      "units": ""
    },
    "target": {
      "value": "one object or 10-ft. square"
    },
    "range": {
      "value": null,
      "units": "close",
      "maxIncrements": 1,
      "minValue": null,
      "minUnits": ""
    },
    "uses": {
      "value": 0,
      "max": 0,
      "per": "",
      "autoDeductCharges": true,
      "autoDeductChargesCost": "1"
    },
    "measureTemplate": {
      "type": "",
      "size": "0",
      "overrideColor": false,
      "customColor": "",
      "overrideTexture": false,
      "customTexture": ""
    },
    "attackName": "",
    "actionType": "spellsave",
    "attackBonus": "",
    "critConfirmBonus": "",
    "damage": {
      "parts": [],
      "critParts": [],
      "nonCritParts": []
    },
    "attackParts": [],
    "formula": "",
    "ability": {
      "attack": "",
      "damage": "",
      "damageMult": 1,
      "critRange": 20,
      "critMult": 2
    },
    "save": {
      "dc": "0",
      "type": "",
      "description": "see text"
    },
    "effectNotes": "",
    "attackNotes": "",
    "soundEffect": "",
    "links": {
      "children": []
    },
    "learnedAt": {
      "class": [
        [
          "sorcerer/wizard",
          1
        ],
        [
          "bard",
          1
        ],
        [
          "summoner",
          1
        ],
        [
          "magus",
          1
        ],
        [
          "mesmerist",
          1
        ],
        [
          "unchained Summoner",
          1
        ]
      ],
      "domain": [],
      "subDomain": [],
      "elementalSchool": [],
      "bloodline": []
    },
    "level": 1,
    "clOffset": 0,
    "slOffset": 0,
    "school": "con",
    "subschool": "creation",
    "types": "",
    "nonlethal": false,
    "conditionals": [],
    "components": {
      "value": "",
      "verbal": true,
      "somatic": true,
      "material": true,
      "focus": false,
      "divineFocus": 0
    },
    "castTime": "",
    "materials": {
      "value": "butter",
      "focus": "",
      "gpValue": 0
    },
    "spellbook": "primary",
    "preparation": {
      "preparedAmount": 0,
      "maxAmount": 0,
      "autoDeductCharges": true,
      "spontaneousPrepared": true,
      "mode": "prepared"
    },
    "atWill": false,
    "sr": false,
    "shortDescription": "<p>A <i>grease</i> spell covers a solid surface with a layer of slippery <i>grease</i>. Any creature in the area when the spell is cast must make a successful Reflex save or fall. A creature can walk within or through the area of <i>grease</i> at half normal speed with a DC 10 Acrobatics check. Failure means it can't move that round (and must then make a Reflex save or fall), while failure by 5 or more means it falls (see the Acrobatics skill for details). Creatures that do not move on their turn do not need to make this check and are not considered flat-footed.</p><p>The spell can also be used to create a greasy coating on an item.</p><p>Material objects not in use are always affected by this spell, while an object wielded or employed by a creature requires its bearer to make a Reflex saving throw to avoid the effect. If the initial saving throw fails, the creature immediately drops the item. A saving throw must be made in each round that the creature attempts to pick up or use the <i>grease</i>d item. A creature wearing <i>grease</i>d armor or clothing gains a +10 circumstance bonus on Escape Artist checks and combat maneuver checks made to escape a grapple, and to their CMD to avoid being grappled.</p>",
    "spellDuration": "1 min./level (D)",
    "spellEffect": "",
    "spellArea": "",
    "showInQuickbar": false,
    "spellPoints": {
      "cost": "1 + @sl"
    },
    "domain": false,
    "slotCost": 1
  },
  "flags": {},
  "img": "systems/pf1/icons/misc/magic-swirl.png",
  "effects": []
}