{
  "_id": "0mj3orvf07ufiatp",
  "name": "Ice Armor",
  "permission": {
    "default": 0
  },
  "type": "spell",
  "data": {
    "description": {
      "value": "<div class=\"spell-description\">\n  <p>\n    <strong>School</strong>&nbsp;transmutation&nbsp;[cold, water];\n    <strong>Level</strong>&nbsp;cleric/oracle 1, druid 1, hunter 1;\n    \n    \n    \n    \n  </p>\n  <p>\n    <strong>Casting Time</strong>&nbsp;1 minute<br>\n    <strong>Components</strong>&nbsp;V, S, F (5 gallons of water)<br>\n  </p>\n  <p>\n    \n    \n    \n    <strong>Effect</strong>&nbsp;a suit of armor made of ice<br>\n    <strong>Duration</strong>&nbsp;1 hour/level or until destroyed<br>\n    <strong>Saving Throw</strong>&nbsp;none;&nbsp;<strong>Spell Resistance</strong>&nbsp;no<br>\n  </p>\n  <h2>Description</h2>\n  <p>You create a suit of armor made of ice. While cold to the touch, it does not harm the wearer, especially if worn over normal clothing (though it can hasten the effects of exposure in cold environments). It offers the same protection as a breastplate, except it has hardness 0 and 30 hit points. If the intended wearer is immersed in water when you cast this spell, you may form the armor around the wearer (who may be you); otherwise the wearer must don the armor normally. Attacks against the wearer that create heat or fire degrade the armor, reducing its armor bonus by 1 for every 5 points of fire damage the wearer takes; when the armor's bonus to AC reaches 0, the armor is destroyed and the spell ends. Because the ice is slightly buoyant, the wearer gains a +2 circumstance bonus on Swim checks, except when swimming downward. Druids can wear <i>ice armor</i> without penalty.</p>\n</div>\n",
      "chat": "",
      "unidentified": ""
    },
    "tags": [],
    "activation": {
      "cost": 1,
      "type": "minute"
    },
    "unchainedAction": {
      "activation": {
        "cost": 1,
        "type": "minute"
      }
    },
    "duration": {
      "value": null,
      "units": ""
    },
    "target": {
      "value": ""
    },
    "range": {
      "value": 0,
      "units": "ft",
      "maxIncrements": 1,
      "minValue": null,
      "minUnits": ""
    },
    "uses": {
      "value": 0,
      "max": 0,
      "per": "",
      "autoDeductCharges": true,
      "autoDeductChargesCost": "1"
    },
    "measureTemplate": {
      "type": "",
      "size": "0",
      "overrideColor": false,
      "customColor": "",
      "overrideTexture": false,
      "customTexture": ""
    },
    "attackName": "",
    "actionType": "other",
    "attackBonus": "",
    "critConfirmBonus": "",
    "damage": {
      "parts": [],
      "critParts": [],
      "nonCritParts": []
    },
    "attackParts": [],
    "formula": "",
    "ability": {
      "attack": "",
      "damage": "",
      "damageMult": 1,
      "critRange": 20,
      "critMult": 2
    },
    "save": {
      "dc": "0",
      "type": "",
      "description": ""
    },
    "effectNotes": "",
    "attackNotes": "",
    "soundEffect": "",
    "links": {
      "children": []
    },
    "learnedAt": {
      "class": [
        [
          "cleric/oracle",
          1
        ],
        [
          "druid",
          1
        ],
        [
          "hunter",
          1
        ]
      ],
      "domain": [],
      "subDomain": [],
      "elementalSchool": [],
      "bloodline": []
    },
    "level": 1,
    "clOffset": 0,
    "slOffset": 0,
    "school": "trs",
    "subschool": "",
    "types": "cold, water",
    "nonlethal": false,
    "conditionals": [],
    "components": {
      "value": "",
      "verbal": true,
      "somatic": true,
      "material": false,
      "focus": true,
      "divineFocus": 0
    },
    "castTime": "",
    "materials": {
      "value": "",
      "focus": "5 gallons of water",
      "gpValue": 0
    },
    "spellbook": "primary",
    "preparation": {
      "preparedAmount": 0,
      "maxAmount": 0,
      "autoDeductCharges": true,
      "spontaneousPrepared": true,
      "mode": "prepared"
    },
    "atWill": false,
    "sr": false,
    "shortDescription": "<p>You create a suit of armor made of ice. While cold to the touch, it does not harm the wearer, especially if worn over normal clothing (though it can hasten the effects of exposure in cold environments). It offers the same protection as a breastplate, except it has hardness 0 and 30 hit points. If the intended wearer is immersed in water when you cast this spell, you may form the armor around the wearer (who may be you); otherwise the wearer must don the armor normally. Attacks against the wearer that create heat or fire degrade the armor, reducing its armor bonus by 1 for every 5 points of fire damage the wearer takes; when the armor's bonus to AC reaches 0, the armor is destroyed and the spell ends. Because the ice is slightly buoyant, the wearer gains a +2 circumstance bonus on Swim checks, except when swimming downward. Druids can wear <i>ice armor</i> without penalty.</p>",
    "spellDuration": "1 hour/level or until destroyed",
    "spellEffect": "a suit of armor made of ice",
    "spellArea": "",
    "showInQuickbar": false,
    "spellPoints": {
      "cost": "1 + @sl"
    },
    "domain": false,
    "slotCost": 1
  },
  "flags": {},
  "img": "systems/pf1/icons/misc/magic-swirl.png",
  "effects": []
}