{
  "_id": "qy6sn5a4wrsa36yb",
  "name": "Majestic Image",
  "permission": {
    "default": 0
  },
  "type": "spell",
  "data": {
    "description": {
      "value": "<div class=\"spell-description\">\n  <p>\n    <strong>School</strong>&nbsp;transmutation;\n    <strong>Level</strong>&nbsp;bard 4, cleric/oracle 4, medium 4, mesmerist 4, occultist 4, sorcerer/wizard 4, spiritualist 4;\n    \n    \n    \n    \n  </p>\n  <p>\n    <strong>Casting Time</strong>&nbsp;1 standard action<br>\n    <strong>Components</strong>&nbsp;V, S, M (a drop of paint and a ball of clay)<br>\n  </p>\n  <p>\n    <strong>Range</strong>&nbsp;200 feet<br>\n    \n    \n    <strong>Effect</strong>&nbsp;transfer consciousness to an object bearing your likeness<br>\n    <strong>Duration</strong>&nbsp;concentration<br>\n    <strong>Saving Throw</strong>&nbsp;Will negates (see text);&nbsp;<strong>Spell Resistance</strong>&nbsp;yes<br>\n  </p>\n  <h2>Description</h2>\n  <p>You cast your consciousness into a single object within range that bears your likeness, as if choosing a specific image with the spell <i>enter</i> imageAPG. In addition to observing your surroundings, speaking, and manipulating the image you inhabit, however, you can converse with nearby creatures and use your normal social skills.  You gain a +5 bonus on Bluff checks to tell lies and Diplomacy checks to make a request. You gain a +2 bonus on Intimidate checks and use the object's size to determine whether you gain a bonus or penalty on Intimidate checks for size.</p>\n</div>\n",
      "chat": "",
      "unidentified": ""
    },
    "tags": [],
    "activation": {
      "cost": 1,
      "type": "standard"
    },
    "unchainedAction": {
      "activation": {
        "cost": 2,
        "type": "action"
      }
    },
    "duration": {
      "value": null,
      "units": ""
    },
    "target": {
      "value": ""
    },
    "range": {
      "value": 200,
      "units": "ft",
      "maxIncrements": 1,
      "minValue": null,
      "minUnits": ""
    },
    "uses": {
      "value": 0,
      "max": 0,
      "per": "",
      "autoDeductCharges": true,
      "autoDeductChargesCost": "1"
    },
    "measureTemplate": {
      "type": "",
      "size": "0",
      "overrideColor": false,
      "customColor": "",
      "overrideTexture": false,
      "customTexture": ""
    },
    "attackName": "",
    "actionType": "spellsave",
    "attackBonus": "",
    "critConfirmBonus": "",
    "damage": {
      "parts": [],
      "critParts": [],
      "nonCritParts": []
    },
    "attackParts": [],
    "formula": "",
    "ability": {
      "attack": "",
      "damage": "",
      "damageMult": 1,
      "critRange": 20,
      "critMult": 2
    },
    "save": {
      "dc": "0",
      "type": "will",
      "description": "Will negates (see text)"
    },
    "effectNotes": "",
    "attackNotes": "",
    "soundEffect": "",
    "links": {
      "children": []
    },
    "learnedAt": {
      "class": [
        [
          "sorcerer/wizard",
          4
        ],
        [
          "cleric/oracle",
          4
        ],
        [
          "bard",
          4
        ],
        [
          "medium",
          4
        ],
        [
          "mesmerist",
          4
        ],
        [
          "occultist",
          4
        ],
        [
          "spiritualist",
          4
        ]
      ],
      "domain": [],
      "subDomain": [],
      "elementalSchool": [],
      "bloodline": []
    },
    "level": 4,
    "clOffset": 0,
    "slOffset": 0,
    "school": "trs",
    "subschool": "",
    "types": "",
    "nonlethal": false,
    "conditionals": [],
    "components": {
      "value": "",
      "verbal": true,
      "somatic": true,
      "material": true,
      "focus": false,
      "divineFocus": 0
    },
    "castTime": "",
    "materials": {
      "value": "a drop of paint and a ball of clay",
      "focus": "",
      "gpValue": 0
    },
    "spellbook": "primary",
    "preparation": {
      "preparedAmount": 0,
      "maxAmount": 0,
      "autoDeductCharges": true,
      "spontaneousPrepared": true,
      "mode": "prepared"
    },
    "atWill": false,
    "sr": true,
    "shortDescription": "<p>You cast your consciousness into a single object within range that bears your likeness, as if choosing a specific image with the spell <i>enter</i> imageAPG. In addition to observing your surroundings, speaking, and manipulating the image you inhabit, however, you can converse with nearby creatures and use your normal social skills.  You gain a +5 bonus on Bluff checks to tell lies and Diplomacy checks to make a request. You gain a +2 bonus on Intimidate checks and use the object's size to determine whether you gain a bonus or penalty on Intimidate checks for size.</p>",
    "spellDuration": "concentration",
    "spellEffect": "transfer consciousness to an object bearing your likeness",
    "spellArea": "",
    "showInQuickbar": false,
    "spellPoints": {
      "cost": "1 + @sl"
    },
    "domain": false,
    "slotCost": 1
  },
  "flags": {},
  "img": "systems/pf1/icons/misc/magic-swirl.png",
  "effects": []
}