{
  "_id": "vfpjl0m8xcciwb6l",
  "name": "Mark of the Reptile God",
  "permission": {
    "default": 0
  },
  "type": "spell",
  "data": {
    "description": {
      "value": "<div class=\"spell-description\">\n  <p>\n    <strong>School</strong>&nbsp;transmutation&nbsp;[curse];\n    <strong>Level</strong>&nbsp;antipaladin 4, cleric/oracle 4, inquisitor 4;\n    \n    \n    \n    \n  </p>\n  <p>\n    <strong>Casting Time</strong>&nbsp;1 standard action<br>\n    <strong>Components</strong>&nbsp;V, S, DF<br>\n  </p>\n  <p>\n    <strong>Range</strong>&nbsp;close (25 ft. + 5 ft./2 levels)<br>\n    \n    <strong>Targets</strong>&nbsp;one creature<br>\n    \n    <strong>Duration</strong>&nbsp;permanent<br>\n    <strong>Saving Throw</strong>&nbsp;Fortitude negates;&nbsp;<strong>Spell Resistance</strong>&nbsp;yes<br>\n  </p>\n  <h2>Description</h2>\n  <p>If you succeed at a ranged touch attack, you burn your handprint onto the flesh of a creature, dealing 1d6 points of acid damage. The mark can be placed on any exposed portion of the creature, typically the head or forearm. The flesh around the handprint becomes rough and scaly, like the hide of a lizard. It also glows with a green radiance (shedding light as a torch) when brought within 60 feet of you. While the handprint glows, the target takes a -2 penalty to AC against your attacks and on saving throws to resist any spell you cast or spell-like ability you use.  Additionally, each day the target remains cursed, more and more of its flesh becomes covered in reptilian scales. The target must succeed at a Fortitude save each day or take 1d4 points of Charisma damage, 1 point of which is Charisma drain instead. A creature reduced to 0 Charisma by this effect is immediately transformed into a small, harmless cave lizard, as the <i>baleful polymorph</i> spell.  As with the effects of <i>bestow curse</i>, the curse inflicted by this spell cannot be dispelled, but it can be removed with a <i>break enchantment</i>, <i>limited <i>wish</i></i>, <i>miracle</i>, <i>remove curse</i>, or <i>wish</i> spell.</p>\n</div>\n",
      "chat": "",
      "unidentified": ""
    },
    "tags": [],
    "activation": {
      "cost": 1,
      "type": "standard"
    },
    "unchainedAction": {
      "activation": {
        "cost": 2,
        "type": "action"
      }
    },
    "duration": {
      "value": null,
      "units": ""
    },
    "target": {
      "value": "one creature"
    },
    "range": {
      "value": null,
      "units": "close",
      "maxIncrements": 1,
      "minValue": null,
      "minUnits": ""
    },
    "uses": {
      "value": 0,
      "max": 0,
      "per": "",
      "autoDeductCharges": true,
      "autoDeductChargesCost": "1"
    },
    "measureTemplate": {
      "type": "",
      "size": "0",
      "overrideColor": false,
      "customColor": "",
      "overrideTexture": false,
      "customTexture": ""
    },
    "attackName": "",
    "actionType": "spellsave",
    "attackBonus": "",
    "critConfirmBonus": "",
    "damage": {
      "parts": [],
      "critParts": [],
      "nonCritParts": []
    },
    "attackParts": [],
    "formula": "",
    "ability": {
      "attack": "",
      "damage": "",
      "damageMult": 1,
      "critRange": 20,
      "critMult": 2
    },
    "save": {
      "dc": "0",
      "type": "fort",
      "description": "Fortitude negates"
    },
    "effectNotes": "",
    "attackNotes": "",
    "soundEffect": "",
    "links": {
      "children": []
    },
    "learnedAt": {
      "class": [
        [
          "cleric/oracle",
          4
        ],
        [
          "inquisitor",
          4
        ],
        [
          "antipaladin",
          4
        ]
      ],
      "domain": [],
      "subDomain": [],
      "elementalSchool": [],
      "bloodline": []
    },
    "level": 4,
    "clOffset": 0,
    "slOffset": 0,
    "school": "trs",
    "subschool": "",
    "types": "curse",
    "nonlethal": false,
    "conditionals": [],
    "components": {
      "value": "",
      "verbal": true,
      "somatic": true,
      "material": false,
      "focus": false,
      "divineFocus": 1
    },
    "castTime": "",
    "materials": {
      "value": "",
      "focus": "",
      "gpValue": 0
    },
    "spellbook": "primary",
    "preparation": {
      "preparedAmount": 0,
      "maxAmount": 0,
      "autoDeductCharges": true,
      "spontaneousPrepared": true,
      "mode": "prepared"
    },
    "atWill": false,
    "sr": true,
    "shortDescription": "<p>If you succeed at a ranged touch attack, you burn your handprint onto the flesh of a creature, dealing 1d6 points of acid damage. The mark can be placed on any exposed portion of the creature, typically the head or forearm. The flesh around the handprint becomes rough and scaly, like the hide of a lizard. It also glows with a green radiance (shedding light as a torch) when brought within 60 feet of you. While the handprint glows, the target takes a -2 penalty to AC against your attacks and on saving throws to resist any spell you cast or spell-like ability you use.  Additionally, each day the target remains cursed, more and more of its flesh becomes covered in reptilian scales. The target must succeed at a Fortitude save each day or take 1d4 points of Charisma damage, 1 point of which is Charisma drain instead. A creature reduced to 0 Charisma by this effect is immediately transformed into a small, harmless cave lizard, as the <i>baleful polymorph</i> spell.  As with the effects of <i>bestow curse</i>, the curse inflicted by this spell cannot be dispelled, but it can be removed with a <i>break enchantment</i>, <i>limited <i>wish</i></i>, <i>miracle</i>, <i>remove curse</i>, or <i>wish</i> spell.</p>",
    "spellDuration": "permanent",
    "spellEffect": "",
    "spellArea": "",
    "showInQuickbar": false,
    "spellPoints": {
      "cost": "1 + @sl"
    },
    "domain": false,
    "slotCost": 1
  },
  "flags": {},
  "img": "systems/pf1/icons/misc/magic-swirl.png",
  "effects": []
}