{
  "_id": "eksmimuh89epkpy1",
  "name": "Oasis",
  "permission": {
    "default": 0
  },
  "type": "spell",
  "data": {
    "description": {
      "value": "<div class=\"spell-description\">\n  <p>\n    <strong>School</strong>&nbsp;transmutation;\n    <strong>Level</strong>&nbsp;cleric/oracle 6, druid 5, hunter 5, sorcerer/wizard 6;\n    \n    \n    \n    \n  </p>\n  <p>\n    <strong>Casting Time</strong>&nbsp;30 minutes<br>\n    <strong>Components</strong>&nbsp;V, S, M/DF (1 gallon of water)<br>\n  </p>\n  <p>\n    <strong>Range</strong>&nbsp;close (25 ft. + 5 ft./2 levels)<br>\n    \n    \n    <strong>Effect</strong>&nbsp;water source similar to a natural spring<br>\n    <strong>Duration</strong>&nbsp;instantaneous<br>\n    <strong>Saving Throw</strong>&nbsp;none;&nbsp;<strong>Spell Resistance</strong>&nbsp;no<br>\n  </p>\n  <h2>Description</h2>\n  <p>This spell functions in any natural terrain on the Material Plane. It redirects the flow of water in the ground toward the surface at the designated point, creating a permanent water source similar to a natural spring. The spring discharges 5 gallons of pure drinking water per caster level each hour. If the shape of the terrain is suitable, a pond forms around the spring. If there is already a natural spring within 1 mile, its water output is reduced by an amount equal to the water produced by this spell's spring. A spring that has its water output reduced to 0 gallons per hour dries up and ceases to be a spring.  This spell functions differently depending on the terrain in which it's cast. In a desert, you must succeed at a DC 25 caster level check to actually create the spring, and its output is 1 gallon of drinking water per caster level each day. Furthermore, in dry areas, erosion may cause the flow of water to be blocked if the affected area is left untended before a sufficient amount of vegetation has grown around it to keep the soil in place. In an arctic environment, low temperatures may cause the water to freeze. In a tropical environment, parasites may contaminate the water if the spring is created in a place where the water stands in a stagnant pool.</p>\n</div>\n",
      "chat": "",
      "unidentified": ""
    },
    "tags": [],
    "activation": {
      "cost": 30,
      "type": "minute"
    },
    "unchainedAction": {
      "activation": {
        "cost": 30,
        "type": "minute"
      }
    },
    "duration": {
      "value": null,
      "units": ""
    },
    "target": {
      "value": ""
    },
    "range": {
      "value": null,
      "units": "close",
      "maxIncrements": 1,
      "minValue": null,
      "minUnits": ""
    },
    "uses": {
      "value": 0,
      "max": 0,
      "per": "",
      "autoDeductCharges": true,
      "autoDeductChargesCost": "1"
    },
    "measureTemplate": {
      "type": "",
      "size": "0",
      "overrideColor": false,
      "customColor": "",
      "overrideTexture": false,
      "customTexture": ""
    },
    "attackName": "",
    "actionType": "other",
    "attackBonus": "",
    "critConfirmBonus": "",
    "damage": {
      "parts": [],
      "critParts": [],
      "nonCritParts": []
    },
    "attackParts": [],
    "formula": "",
    "ability": {
      "attack": "",
      "damage": "",
      "damageMult": 1,
      "critRange": 20,
      "critMult": 2
    },
    "save": {
      "dc": "0",
      "type": "",
      "description": ""
    },
    "effectNotes": "",
    "attackNotes": "",
    "soundEffect": "",
    "links": {
      "children": []
    },
    "learnedAt": {
      "class": [
        [
          "sorcerer/wizard",
          6
        ],
        [
          "cleric/oracle",
          6
        ],
        [
          "druid",
          5
        ],
        [
          "hunter",
          5
        ]
      ],
      "domain": [],
      "subDomain": [],
      "elementalSchool": [],
      "bloodline": []
    },
    "level": 6,
    "clOffset": 0,
    "slOffset": 0,
    "school": "trs",
    "subschool": "",
    "types": "",
    "nonlethal": false,
    "conditionals": [],
    "components": {
      "value": "",
      "verbal": true,
      "somatic": true,
      "material": true,
      "focus": false,
      "divineFocus": 2
    },
    "castTime": "",
    "materials": {
      "value": "1 gallon of water",
      "focus": "",
      "gpValue": 0
    },
    "spellbook": "primary",
    "preparation": {
      "preparedAmount": 0,
      "maxAmount": 0,
      "autoDeductCharges": true,
      "spontaneousPrepared": true,
      "mode": "prepared"
    },
    "atWill": false,
    "sr": false,
    "shortDescription": "<p>This spell functions in any natural terrain on the Material Plane. It redirects the flow of water in the ground toward the surface at the designated point, creating a permanent water source similar to a natural spring. The spring discharges 5 gallons of pure drinking water per caster level each hour. If the shape of the terrain is suitable, a pond forms around the spring. If there is already a natural spring within 1 mile, its water output is reduced by an amount equal to the water produced by this spell's spring. A spring that has its water output reduced to 0 gallons per hour dries up and ceases to be a spring.  This spell functions differently depending on the terrain in which it's cast. In a desert, you must succeed at a DC 25 caster level check to actually create the spring, and its output is 1 gallon of drinking water per caster level each day. Furthermore, in dry areas, erosion may cause the flow of water to be blocked if the affected area is left untended before a sufficient amount of vegetation has grown around it to keep the soil in place. In an arctic environment, low temperatures may cause the water to freeze. In a tropical environment, parasites may contaminate the water if the spring is created in a place where the water stands in a stagnant pool.</p>",
    "spellDuration": "instantaneous",
    "spellEffect": "water source similar to a natural spring",
    "spellArea": "",
    "showInQuickbar": false,
    "spellPoints": {
      "cost": "1 + @sl"
    },
    "domain": false,
    "slotCost": 1
  },
  "flags": {},
  "img": "systems/pf1/icons/misc/magic-swirl.png",
  "effects": []
}