{
  "_id": "lxxliyxfw9uvbxmt",
  "name": "Prismatic Sphere",
  "permission": {
    "default": 0
  },
  "type": "spell",
  "data": {
    "description": {
      "value": "<div class=\"spell-description\">\n  <p>\n    <strong>School</strong>&nbsp;abjuration;\n    <strong>Level</strong>&nbsp;sorcerer/wizard 9;\n    <strong>Domain</strong>&nbsp;Artifice 9, Protection 9, Sun 9;\n    \n    \n    \n  </p>\n  <p>\n    <strong>Casting Time</strong>&nbsp;1 standard action<br>\n    <strong>Components</strong>&nbsp;V<br>\n  </p>\n  <p>\n    <strong>Range</strong>&nbsp;10 feet<br>\n    \n    \n    <strong>Effect</strong>&nbsp;10-ft.-radius sphere centered on you<br>\n    <strong>Duration</strong>&nbsp;10 min./level (D)<br>\n    <strong>Saving Throw</strong>&nbsp;see text;&nbsp;<strong>Spell Resistance</strong>&nbsp;no<br>\n  </p>\n  <h2>Description</h2>\n  <p>This spell functions like <i>prismatic wall</i>, except you conjure up an immobile, opaque globe of shimmering, multicolored light that surrounds you and protects you from all forms of attack. The sphere flashes in all colors of the visible spectrum.</p><p>The sphere's <i>blindness</i> effect on creatures with less than 8 HD lasts 2d4 x 10 minutes.</p><p>You can pass into and out of the <i>prismatic sphere</i> and remain near it without harm. When you're inside it, however, the sphere blocks any attempt to project something through the sphere (including spells). Other creatures that attempt to attack you or pass through suffer the effects of each color, one at a time.</p><p>Typically, only the upper hemisphere of the globe exists, since you are at the center of the sphere, so the lower half is usually occluded by the floor surface you are standing on.</p><p>The colors of the sphere have the same effects as the colors of a <i>prismatic wall</i>.</p><p><i>Prismatic sphere</i> can be made permanent with a <i>permanency</i> spell.</p>\n</div>\n",
      "chat": "",
      "unidentified": ""
    },
    "tags": [],
    "activation": {
      "cost": 1,
      "type": "standard"
    },
    "unchainedAction": {
      "activation": {
        "cost": 2,
        "type": "action"
      }
    },
    "duration": {
      "value": null,
      "units": ""
    },
    "target": {
      "value": ""
    },
    "range": {
      "value": 10,
      "units": "ft",
      "maxIncrements": 1,
      "minValue": null,
      "minUnits": ""
    },
    "uses": {
      "value": 0,
      "max": 0,
      "per": "",
      "autoDeductCharges": true,
      "autoDeductChargesCost": "1"
    },
    "measureTemplate": {
      "type": "",
      "size": "0",
      "overrideColor": false,
      "customColor": "",
      "overrideTexture": false,
      "customTexture": ""
    },
    "attackName": "",
    "actionType": "spellsave",
    "attackBonus": "",
    "critConfirmBonus": "",
    "damage": {
      "parts": [],
      "critParts": [],
      "nonCritParts": []
    },
    "attackParts": [],
    "formula": "",
    "ability": {
      "attack": "",
      "damage": "",
      "damageMult": 1,
      "critRange": 20,
      "critMult": 2
    },
    "save": {
      "dc": "0",
      "type": "",
      "description": "see text"
    },
    "effectNotes": "",
    "attackNotes": "",
    "soundEffect": "",
    "links": {
      "children": []
    },
    "learnedAt": {
      "class": [
        [
          "sorcerer/wizard",
          9
        ]
      ],
      "domain": [
        [
          "Artifice",
          9
        ],
        [
          "Protection",
          9
        ],
        [
          "Sun",
          9
        ]
      ],
      "subDomain": [],
      "elementalSchool": [],
      "bloodline": []
    },
    "level": 9,
    "clOffset": 0,
    "slOffset": 0,
    "school": "abj",
    "subschool": "",
    "types": "",
    "nonlethal": false,
    "conditionals": [],
    "components": {
      "value": "",
      "verbal": true,
      "somatic": false,
      "material": false,
      "focus": false,
      "divineFocus": 0
    },
    "castTime": "",
    "materials": {
      "value": "",
      "focus": "",
      "gpValue": 0
    },
    "spellbook": "primary",
    "preparation": {
      "preparedAmount": 0,
      "maxAmount": 0,
      "autoDeductCharges": true,
      "spontaneousPrepared": true,
      "mode": "prepared"
    },
    "atWill": false,
    "sr": false,
    "shortDescription": "<p>This spell functions like <i>prismatic wall</i>, except you conjure up an immobile, opaque globe of shimmering, multicolored light that surrounds you and protects you from all forms of attack. The sphere flashes in all colors of the visible spectrum.</p><p>The sphere's <i>blindness</i> effect on creatures with less than 8 HD lasts 2d4 x 10 minutes.</p><p>You can pass into and out of the <i>prismatic sphere</i> and remain near it without harm. When you're inside it, however, the sphere blocks any attempt to project something through the sphere (including spells). Other creatures that attempt to attack you or pass through suffer the effects of each color, one at a time.</p><p>Typically, only the upper hemisphere of the globe exists, since you are at the center of the sphere, so the lower half is usually occluded by the floor surface you are standing on.</p><p>The colors of the sphere have the same effects as the colors of a <i>prismatic wall</i>.</p><p><i>Prismatic sphere</i> can be made permanent with a <i>permanency</i> spell.</p>",
    "spellDuration": "10 min./level (D)",
    "spellEffect": "10-ft.-radius sphere centered on you",
    "spellArea": "",
    "showInQuickbar": false,
    "spellPoints": {
      "cost": "1 + @sl"
    },
    "domain": false,
    "slotCost": 1
  },
  "flags": {},
  "img": "systems/pf1/icons/misc/magic-swirl.png",
  "effects": []
}