{
  "_id": "9u4mn2uxm862cpbb",
  "name": "Shadow Projection",
  "permission": {
    "default": 0
  },
  "type": "spell",
  "data": {
    "description": {
      "value": "<div class=\"spell-description\">\n  <p>\n    <strong>School</strong>&nbsp;necromancy&nbsp;[evil];\n    <strong>Level</strong>&nbsp;sorcerer/wizard 4;\n    \n    \n    \n    \n  </p>\n  <p>\n    <strong>Casting Time</strong>&nbsp;1 minute<br>\n    <strong>Components</strong>&nbsp;S<br>\n  </p>\n  <p>\n    <strong>Range</strong>&nbsp;personal<br>\n    \n    <strong>Targets</strong>&nbsp;you<br>\n    \n    <strong>Duration</strong>&nbsp;1 hour/level (D)<br>\n    \n  </p>\n  <h2>Description</h2>\n  <p>With this spell, you infuse your life force and psyche into your shadow, giving it independent life and movement as if it were an undead shadow (see <i>Pathfinder RPG Bestiary</i> 245). Your physical body lies comatose while you are projecting your shadow, and your body has no shadow or reflection while the spell is in effect.</p><p>While projecting your shadow, you gain a shadow's darkvision, defensive abilities, fly speed, racial stealth modifier, and strength damage attack. You do not gain the creature's <i>create spawn</i> ability, nor its skill ranks or Hit Dice.</p><p>Your shadow has Hit Dice and hit points equal to your own.</p><p>Your <i>shadow projection</i> has the undead type and may be turned or affected as undead.</p><p>If your <i>shadow projection</i> is slain, you return to your physical body and are immediately reduced to -1 hit points.</p><p>Your condition becomes dying, and you must begin making Constitution checks to stabilize.</p>\n</div>\n",
      "chat": "",
      "unidentified": ""
    },
    "tags": [],
    "activation": {
      "cost": 1,
      "type": "minute"
    },
    "unchainedAction": {
      "activation": {
        "cost": 1,
        "type": "minute"
      }
    },
    "duration": {
      "value": null,
      "units": ""
    },
    "target": {
      "value": "you"
    },
    "range": {
      "value": null,
      "units": "personal",
      "maxIncrements": 1,
      "minValue": null,
      "minUnits": ""
    },
    "uses": {
      "value": 0,
      "max": 0,
      "per": "",
      "autoDeductCharges": true,
      "autoDeductChargesCost": "1"
    },
    "measureTemplate": {
      "type": "",
      "size": "0",
      "overrideColor": false,
      "customColor": "",
      "overrideTexture": false,
      "customTexture": ""
    },
    "attackName": "",
    "actionType": "",
    "attackBonus": "",
    "critConfirmBonus": "",
    "damage": {
      "parts": [],
      "critParts": [],
      "nonCritParts": []
    },
    "attackParts": [],
    "formula": "",
    "ability": {
      "attack": "",
      "damage": "",
      "damageMult": 1,
      "critRange": 20,
      "critMult": 2
    },
    "save": {
      "dc": "0",
      "type": "",
      "description": ""
    },
    "effectNotes": "",
    "attackNotes": "",
    "soundEffect": "",
    "links": {
      "children": []
    },
    "learnedAt": {
      "class": [
        [
          "sorcerer/wizard",
          4
        ]
      ],
      "domain": [],
      "subDomain": [],
      "elementalSchool": [],
      "bloodline": []
    },
    "level": 4,
    "clOffset": 0,
    "slOffset": 0,
    "school": "nec",
    "subschool": "",
    "types": "evil",
    "nonlethal": false,
    "conditionals": [],
    "components": {
      "value": "",
      "verbal": false,
      "somatic": true,
      "material": false,
      "focus": false,
      "divineFocus": 0
    },
    "castTime": "",
    "materials": {
      "value": "",
      "focus": "",
      "gpValue": 0
    },
    "spellbook": "primary",
    "preparation": {
      "preparedAmount": 0,
      "maxAmount": 0,
      "autoDeductCharges": true,
      "spontaneousPrepared": true,
      "mode": "prepared"
    },
    "atWill": false,
    "sr": false,
    "shortDescription": "<p>With this spell, you infuse your life force and psyche into your shadow, giving it independent life and movement as if it were an undead shadow (see <i>Pathfinder RPG Bestiary</i> 245). Your physical body lies comatose while you are projecting your shadow, and your body has no shadow or reflection while the spell is in effect.</p><p>While projecting your shadow, you gain a shadow's darkvision, defensive abilities, fly speed, racial stealth modifier, and strength damage attack. You do not gain the creature's <i>create spawn</i> ability, nor its skill ranks or Hit Dice.</p><p>Your shadow has Hit Dice and hit points equal to your own.</p><p>Your <i>shadow projection</i> has the undead type and may be turned or affected as undead.</p><p>If your <i>shadow projection</i> is slain, you return to your physical body and are immediately reduced to -1 hit points.</p><p>Your condition becomes dying, and you must begin making Constitution checks to stabilize.</p>",
    "spellDuration": "1 hour/level (D)",
    "spellEffect": "",
    "spellArea": "",
    "showInQuickbar": false,
    "spellPoints": {
      "cost": "1 + @sl"
    },
    "domain": false,
    "slotCost": 1
  },
  "flags": {},
  "img": "systems/pf1/icons/misc/magic-swirl.png",
  "effects": []
}