{
  "_id": "hfyycpn0wdimx1n9",
  "name": "Spike Stones",
  "permission": {
    "default": 0
  },
  "type": "spell",
  "data": {
    "description": {
      "value": "<div class=\"spell-description\">\n  <p>\n    <strong>School</strong>&nbsp;transmutation&nbsp;[earth];\n    <strong>Level</strong>&nbsp;druid 4, hunter 4, shaman 4;\n    <strong>Domain</strong>&nbsp;Earth 4;\n    \n    \n    \n  </p>\n  <p>\n    <strong>Casting Time</strong>&nbsp;1 standard action<br>\n    <strong>Components</strong>&nbsp;V, S, DF<br>\n  </p>\n  <p>\n    <strong>Range</strong>&nbsp;medium (100 ft. + 10 ft./level)<br>\n    <strong>Area</strong>&nbsp;one 20-ft. square/level<br>\n    \n    \n    <strong>Duration</strong>&nbsp;1 hour/level (D)<br>\n    <strong>Saving Throw</strong>&nbsp;Reflex partial;&nbsp;<strong>Spell Resistance</strong>&nbsp;yes<br>\n  </p>\n  <h2>Description</h2>\n  <p>Rocky ground, stone floors, and similar surfaces shape themselves into long, sharp points that blend into the background.</p><p><i>Spike stones</i> impede progress through an area and deal damage.</p><p>Any creature moving on foot into or through the spell's area moves at half speed. In addition, each creature moving through the area takes 1d8 points of piercing damage for each 5 feet of movement through the spiked area.</p><p>Any creature that takes damage from this spell must also succeed on a Reflex save to avoid injuries to its feet and legs. A failed save causes the creature's speed to be reduced to half normal for 24 hours or until the injured creature receives a <i>cure</i> spell (which also restores lost hit points). Another character can remove the penalty by taking 10 minutes to dress the injuries and succeeding on a Heal check against the spell's save DC.</p><p>Magic traps such as <i>spike stones</i> are hard to detect. A character with trapfinding can use the Perception skill to find <i>spike stones</i>.</p><p>The DC is 25 + spell level, or DC 29 for <i>spike stones</i>. <i>Spike stones</i> is a magic trap that can't be disabled with the Disable Device skill.</p>\n</div>\n",
      "chat": "",
      "unidentified": ""
    },
    "tags": [],
    "activation": {
      "cost": 1,
      "type": "standard"
    },
    "unchainedAction": {
      "activation": {
        "cost": 2,
        "type": "action"
      }
    },
    "duration": {
      "value": null,
      "units": ""
    },
    "target": {
      "value": ""
    },
    "range": {
      "value": null,
      "units": "medium",
      "maxIncrements": 1,
      "minValue": null,
      "minUnits": ""
    },
    "uses": {
      "value": 0,
      "max": 0,
      "per": "",
      "autoDeductCharges": true,
      "autoDeductChargesCost": "1"
    },
    "measureTemplate": {
      "type": "",
      "size": "0",
      "overrideColor": false,
      "customColor": "",
      "overrideTexture": false,
      "customTexture": ""
    },
    "attackName": "",
    "actionType": "spellsave",
    "attackBonus": "",
    "critConfirmBonus": "",
    "damage": {
      "parts": [],
      "critParts": [],
      "nonCritParts": []
    },
    "attackParts": [],
    "formula": "",
    "ability": {
      "attack": "",
      "damage": "",
      "damageMult": 1,
      "critRange": 20,
      "critMult": 2
    },
    "save": {
      "dc": "0",
      "type": "ref",
      "description": "Reflex partial"
    },
    "effectNotes": "",
    "attackNotes": "",
    "soundEffect": "",
    "links": {
      "children": []
    },
    "learnedAt": {
      "class": [
        [
          "druid",
          4
        ],
        [
          "shaman",
          4
        ],
        [
          "hunter",
          4
        ]
      ],
      "domain": [
        [
          "Earth",
          4
        ]
      ],
      "subDomain": [],
      "elementalSchool": [],
      "bloodline": []
    },
    "level": 4,
    "clOffset": 0,
    "slOffset": 0,
    "school": "trs",
    "subschool": "",
    "types": "earth",
    "nonlethal": false,
    "conditionals": [],
    "components": {
      "value": "",
      "verbal": true,
      "somatic": true,
      "material": false,
      "focus": false,
      "divineFocus": 1
    },
    "castTime": "",
    "materials": {
      "value": "",
      "focus": "",
      "gpValue": 0
    },
    "spellbook": "primary",
    "preparation": {
      "preparedAmount": 0,
      "maxAmount": 0,
      "autoDeductCharges": true,
      "spontaneousPrepared": true,
      "mode": "prepared"
    },
    "atWill": false,
    "sr": true,
    "shortDescription": "<p>Rocky ground, stone floors, and similar surfaces shape themselves into long, sharp points that blend into the background.</p><p><i>Spike stones</i> impede progress through an area and deal damage.</p><p>Any creature moving on foot into or through the spell's area moves at half speed. In addition, each creature moving through the area takes 1d8 points of piercing damage for each 5 feet of movement through the spiked area.</p><p>Any creature that takes damage from this spell must also succeed on a Reflex save to avoid injuries to its feet and legs. A failed save causes the creature's speed to be reduced to half normal for 24 hours or until the injured creature receives a <i>cure</i> spell (which also restores lost hit points). Another character can remove the penalty by taking 10 minutes to dress the injuries and succeeding on a Heal check against the spell's save DC.</p><p>Magic traps such as <i>spike stones</i> are hard to detect. A character with trapfinding can use the Perception skill to find <i>spike stones</i>.</p><p>The DC is 25 + spell level, or DC 29 for <i>spike stones</i>. <i>Spike stones</i> is a magic trap that can't be disabled with the Disable Device skill.</p>",
    "spellDuration": "1 hour/level (D)",
    "spellEffect": "",
    "spellArea": "one 20-ft. square/level",
    "showInQuickbar": false,
    "spellPoints": {
      "cost": "1 + @sl"
    },
    "domain": false,
    "slotCost": 1
  },
  "flags": {},
  "img": "systems/pf1/icons/misc/magic-swirl.png",
  "effects": []
}