{
  "_id": "v5e3euxt1aqxtx4f",
  "name": "Stone Throwing",
  "permission": {
    "default": 0
  },
  "type": "spell",
  "data": {
    "description": {
      "value": "<div class=\"spell-description\">\n  <p>\n    <strong>School</strong>&nbsp;transmutation;\n    <strong>Level</strong>&nbsp;bloodrager 1, cleric/oracle 2, druid 2, hunter 1, magus 2, ranger 1, sorcerer/wizard 2;\n    \n    \n    \n    \n  </p>\n  <p>\n    <strong>Casting Time</strong>&nbsp;1 standard action<br>\n    <strong>Components</strong>&nbsp;V, S, M (powdered stone)<br>\n  </p>\n  <p>\n    \n    \n    <strong>Targets</strong>&nbsp;creature touched<br>\n    \n    <strong>Duration</strong>&nbsp;1 minute/level<br>\n    <strong>Saving Throw</strong>&nbsp;Fortitude negates (harmless);&nbsp;<strong>Spell Resistance</strong>&nbsp;yes<br>\n  </p>\n  <h2>Description</h2>\n  <p>The subject gains the rock throwing and rock catching abilities (<i>Pathfinder RPG Bestiary</i> 303). It can use these abilities with any solid, mostly inflexible object with a hardness of at least 5.  The subject can hurl rocks up to two categories smaller than its own size. The range increment for this attack is 20 feet, and rocks can be hurled a maximum of 5 range increments. Damage is based on the size of the subject-1d8 points of damage for a Large creature, 1d6 for a Medium creature, or 1d4 for a Small creature-plus 1-1/2 times the thrower's Strength bonus.  For every size category smaller than Large the subject is, it receives a cumulative -5 penalty on Reflex saves to catch rocks (or similar projectiles) thrown at it.</p>\n</div>\n",
      "chat": "",
      "unidentified": ""
    },
    "tags": [],
    "activation": {
      "cost": 1,
      "type": "standard"
    },
    "unchainedAction": {
      "activation": {
        "cost": 2,
        "type": "action"
      }
    },
    "duration": {
      "value": null,
      "units": ""
    },
    "target": {
      "value": "creature touched"
    },
    "range": {
      "value": null,
      "units": "",
      "maxIncrements": 1,
      "minValue": null,
      "minUnits": ""
    },
    "uses": {
      "value": 0,
      "max": 0,
      "per": "",
      "autoDeductCharges": true,
      "autoDeductChargesCost": "1"
    },
    "measureTemplate": {
      "type": "",
      "size": "0",
      "overrideColor": false,
      "customColor": "",
      "overrideTexture": false,
      "customTexture": ""
    },
    "attackName": "",
    "actionType": "spellsave",
    "attackBonus": "",
    "critConfirmBonus": "",
    "damage": {
      "parts": [],
      "critParts": [],
      "nonCritParts": []
    },
    "attackParts": [],
    "formula": "",
    "ability": {
      "attack": "",
      "damage": "",
      "damageMult": 1,
      "critRange": 20,
      "critMult": 2
    },
    "save": {
      "dc": "0",
      "type": "fort",
      "description": "Fortitude negates (harmless)"
    },
    "effectNotes": "",
    "attackNotes": "",
    "soundEffect": "",
    "links": {
      "children": []
    },
    "learnedAt": {
      "class": [
        [
          "sorcerer/wizard",
          2
        ],
        [
          "cleric/oracle",
          2
        ],
        [
          "druid",
          2
        ],
        [
          "ranger",
          1
        ],
        [
          "magus",
          2
        ],
        [
          "bloodrager",
          1
        ],
        [
          "hunter",
          1
        ]
      ],
      "domain": [],
      "subDomain": [],
      "elementalSchool": [],
      "bloodline": []
    },
    "level": 2,
    "clOffset": 0,
    "slOffset": 0,
    "school": "trs",
    "subschool": "",
    "types": "",
    "nonlethal": false,
    "conditionals": [],
    "components": {
      "value": "",
      "verbal": true,
      "somatic": true,
      "material": true,
      "focus": false,
      "divineFocus": 0
    },
    "castTime": "",
    "materials": {
      "value": "powdered stone",
      "focus": "",
      "gpValue": 0
    },
    "spellbook": "primary",
    "preparation": {
      "preparedAmount": 0,
      "maxAmount": 0,
      "autoDeductCharges": true,
      "spontaneousPrepared": true,
      "mode": "prepared"
    },
    "atWill": false,
    "sr": true,
    "shortDescription": "<p>The subject gains the rock throwing and rock catching abilities (<i>Pathfinder RPG Bestiary</i> 303). It can use these abilities with any solid, mostly inflexible object with a hardness of at least 5.  The subject can hurl rocks up to two categories smaller than its own size. The range increment for this attack is 20 feet, and rocks can be hurled a maximum of 5 range increments. Damage is based on the size of the subject-1d8 points of damage for a Large creature, 1d6 for a Medium creature, or 1d4 for a Small creature-plus 1-1/2 times the thrower's Strength bonus.  For every size category smaller than Large the subject is, it receives a cumulative -5 penalty on Reflex saves to catch rocks (or similar projectiles) thrown at it.</p>",
    "spellDuration": "1 minute/level",
    "spellEffect": "",
    "spellArea": "",
    "showInQuickbar": false,
    "spellPoints": {
      "cost": "1 + @sl"
    },
    "domain": false,
    "slotCost": 1
  },
  "flags": {},
  "img": "systems/pf1/icons/misc/magic-swirl.png",
  "effects": []
}