{
  "_id": "ven9pio87fjjpyuv",
  "name": "Sweat Poison",
  "permission": {
    "default": 0
  },
  "type": "spell",
  "data": {
    "description": {
      "value": "<div class=\"spell-description\">\n  <p>\n    <strong>School</strong>&nbsp;necromancy&nbsp;[poison];\n    <strong>Level</strong>&nbsp;alchemist 2, druid 3, hunter 2, inquisitor 3, ranger 2;\n    \n    \n    \n    \n  </p>\n  <p>\n    <strong>Casting Time</strong>&nbsp;1 standard action<br>\n    <strong>Components</strong>&nbsp;V, S<br>\n  </p>\n  <p>\n    <strong>Range</strong>&nbsp;personal<br>\n    \n    <strong>Targets</strong>&nbsp;you<br>\n    \n    <strong>Duration</strong>&nbsp;1 minute/level (D)<br>\n    \n  </p>\n  <h2>Description</h2>\n  <p>Glands along your neck, back, or wrists swell and exude a viscous injury poison (<i>save</i> Fort DC 14; <i>frequency</i> 1/round for 4 rounds; <i>effect</i> 1d2 Str; <i>cure</i> 1 <i>save</i>). You are not immune to this poison, and unless you have the poison use class feature or a similar ability, you are at risk of poisoning yourself. You can apply this poison to a weapon as a move action, and each dose you apply reduces the remaining duration of this spell by 1 minute. If doing so would reduce the remaining duration to 0 minutes or less, the spell ends, and any applied poisons retain their potency only until the end of your turn.  When you apply the poison, you can choose to reduce the spell's remaining duration by 2 or more additional minutes (maximum = your caster level) in order to enhance that dose of poison. For every 2 minutes of duration expended, the poison's <i>save</i> DC increases by 1, the number of rounds it lasts increases by 1/2 (round down), and the number of <i>save</i>s required to <i>cure</i> it increases by 1/4 (round down). If you have the toxic skin alternate racial trait (<i>Advanced Race Guide</i> 190), you can expend one daily use as a free action to enhance this spell's poison's damage to 1d3 Strength and its starting <i>save</i> DC to 15.</p>\n</div>\n",
      "chat": "",
      "unidentified": ""
    },
    "tags": [],
    "activation": {
      "cost": 1,
      "type": "standard"
    },
    "unchainedAction": {
      "activation": {
        "cost": 2,
        "type": "action"
      }
    },
    "duration": {
      "value": null,
      "units": ""
    },
    "target": {
      "value": "you"
    },
    "range": {
      "value": null,
      "units": "personal",
      "maxIncrements": 1,
      "minValue": null,
      "minUnits": ""
    },
    "uses": {
      "value": 0,
      "max": 0,
      "per": "",
      "autoDeductCharges": true,
      "autoDeductChargesCost": "1"
    },
    "measureTemplate": {
      "type": "",
      "size": "0",
      "overrideColor": false,
      "customColor": "",
      "overrideTexture": false,
      "customTexture": ""
    },
    "attackName": "",
    "actionType": "",
    "attackBonus": "",
    "critConfirmBonus": "",
    "damage": {
      "parts": [],
      "critParts": [],
      "nonCritParts": []
    },
    "attackParts": [],
    "formula": "",
    "ability": {
      "attack": "",
      "damage": "",
      "damageMult": 1,
      "critRange": 20,
      "critMult": 2
    },
    "save": {
      "dc": "0",
      "type": "",
      "description": ""
    },
    "effectNotes": "",
    "attackNotes": "",
    "soundEffect": "",
    "links": {
      "children": []
    },
    "learnedAt": {
      "class": [
        [
          "druid",
          3
        ],
        [
          "ranger",
          2
        ],
        [
          "alchemist",
          2
        ],
        [
          "inquisitor",
          3
        ],
        [
          "hunter",
          2
        ]
      ],
      "domain": [],
      "subDomain": [],
      "elementalSchool": [],
      "bloodline": []
    },
    "level": 3,
    "clOffset": 0,
    "slOffset": 0,
    "school": "nec",
    "subschool": "",
    "types": "poison",
    "nonlethal": false,
    "conditionals": [],
    "components": {
      "value": "",
      "verbal": true,
      "somatic": true,
      "material": false,
      "focus": false,
      "divineFocus": 0
    },
    "castTime": "",
    "materials": {
      "value": "",
      "focus": "",
      "gpValue": 0
    },
    "spellbook": "primary",
    "preparation": {
      "preparedAmount": 0,
      "maxAmount": 0,
      "autoDeductCharges": true,
      "spontaneousPrepared": true,
      "mode": "prepared"
    },
    "atWill": false,
    "sr": false,
    "shortDescription": "<p>Glands along your neck, back, or wrists swell and exude a viscous injury poison (<i>save</i> Fort DC 14; <i>frequency</i> 1/round for 4 rounds; <i>effect</i> 1d2 Str; <i>cure</i> 1 <i>save</i>). You are not immune to this poison, and unless you have the poison use class feature or a similar ability, you are at risk of poisoning yourself. You can apply this poison to a weapon as a move action, and each dose you apply reduces the remaining duration of this spell by 1 minute. If doing so would reduce the remaining duration to 0 minutes or less, the spell ends, and any applied poisons retain their potency only until the end of your turn.  When you apply the poison, you can choose to reduce the spell's remaining duration by 2 or more additional minutes (maximum = your caster level) in order to enhance that dose of poison. For every 2 minutes of duration expended, the poison's <i>save</i> DC increases by 1, the number of rounds it lasts increases by 1/2 (round down), and the number of <i>save</i>s required to <i>cure</i> it increases by 1/4 (round down). If you have the toxic skin alternate racial trait (<i>Advanced Race Guide</i> 190), you can expend one daily use as a free action to enhance this spell's poison's damage to 1d3 Strength and its starting <i>save</i> DC to 15.</p>",
    "spellDuration": "1 minute/level (D)",
    "spellEffect": "",
    "spellArea": "",
    "showInQuickbar": false,
    "spellPoints": {
      "cost": "1 + @sl"
    },
    "domain": false,
    "slotCost": 1
  },
  "flags": {},
  "img": "systems/pf1/icons/misc/magic-swirl.png",
  "effects": []
}