{
  "_id": "mt3gozaeg6qqy180",
  "name": "Warp Wood",
  "permission": {
    "default": 0
  },
  "type": "spell",
  "data": {
    "description": {
      "value": "<div class=\"spell-description\">\n  <p>\n    <strong>School</strong>&nbsp;transmutation;\n    <strong>Level</strong>&nbsp;druid 2, hunter 2, occultist 2, shaman 2;\n    \n    \n    \n    \n  </p>\n  <p>\n    <strong>Casting Time</strong>&nbsp;1 standard action<br>\n    <strong>Components</strong>&nbsp;V, S<br>\n  </p>\n  <p>\n    <strong>Range</strong>&nbsp;close (25 ft. + 5 ft./2 levels)<br>\n    \n    <strong>Targets</strong>&nbsp;1 Small wooden object/level, all within a 20-ft. radius<br>\n    \n    <strong>Duration</strong>&nbsp;instantaneous<br>\n    <strong>Saving Throw</strong>&nbsp;Will negates (object);&nbsp;<strong>Spell Resistance</strong>&nbsp;yes<br>\n  </p>\n  <h2>Description</h2>\n  <p>You cause wood to bend and warp, permanently destroying its straightness, form, and strength. A warped door springs open (or becomes stuck, requiring a Strength check to open, at your option). A boat or ship springs a leak. Warped ranged weapons are useless. A warped melee weapon causes a -4 penalty on attack rolls.</p><p>You may warp one Small or smaller object or its equivalent per caster level. A Medium object counts as two Small objects, a Large object as four, a Huge object as eight, a Gargantuan object as 16, and a Colossal object as 32.</p><p>Alternatively, you can un<i>warp wood</i> (effectively warping it back to normal) with this spell. <i>Make whole</i>, on the other hand, does no good in repairing a warped item.</p><p>You can combine multiple consecutive <i>warp wood</i> spells to warp (or unwarp) an object that is too large for you to warp with a single spell. Until the object is completely warped, it suffers no ill effects.</p>\n</div>\n",
      "chat": "",
      "unidentified": ""
    },
    "tags": [],
    "activation": {
      "cost": 1,
      "type": "standard"
    },
    "unchainedAction": {
      "activation": {
        "cost": 2,
        "type": "action"
      }
    },
    "duration": {
      "value": null,
      "units": ""
    },
    "target": {
      "value": "1 Small wooden object/level, all within a 20-ft. radius"
    },
    "range": {
      "value": null,
      "units": "close",
      "maxIncrements": 1,
      "minValue": null,
      "minUnits": ""
    },
    "uses": {
      "value": 0,
      "max": 0,
      "per": "",
      "autoDeductCharges": true,
      "autoDeductChargesCost": "1"
    },
    "measureTemplate": {
      "type": "",
      "size": "0",
      "overrideColor": false,
      "customColor": "",
      "overrideTexture": false,
      "customTexture": ""
    },
    "attackName": "",
    "actionType": "spellsave",
    "attackBonus": "",
    "critConfirmBonus": "",
    "damage": {
      "parts": [],
      "critParts": [],
      "nonCritParts": []
    },
    "attackParts": [],
    "formula": "",
    "ability": {
      "attack": "",
      "damage": "",
      "damageMult": 1,
      "critRange": 20,
      "critMult": 2
    },
    "save": {
      "dc": "0",
      "type": "will",
      "description": "Will negates (object)"
    },
    "effectNotes": "",
    "attackNotes": "",
    "soundEffect": "",
    "links": {
      "children": []
    },
    "learnedAt": {
      "class": [
        [
          "druid",
          2
        ],
        [
          "shaman",
          2
        ],
        [
          "occultist",
          2
        ],
        [
          "hunter",
          2
        ]
      ],
      "domain": [],
      "subDomain": [],
      "elementalSchool": [],
      "bloodline": []
    },
    "level": 2,
    "clOffset": 0,
    "slOffset": 0,
    "school": "trs",
    "subschool": "",
    "types": "",
    "nonlethal": false,
    "conditionals": [],
    "components": {
      "value": "",
      "verbal": true,
      "somatic": true,
      "material": false,
      "focus": false,
      "divineFocus": 0
    },
    "castTime": "",
    "materials": {
      "value": "",
      "focus": "",
      "gpValue": 0
    },
    "spellbook": "primary",
    "preparation": {
      "preparedAmount": 0,
      "maxAmount": 0,
      "autoDeductCharges": true,
      "spontaneousPrepared": true,
      "mode": "prepared"
    },
    "atWill": false,
    "sr": true,
    "shortDescription": "<p>You cause wood to bend and warp, permanently destroying its straightness, form, and strength. A warped door springs open (or becomes stuck, requiring a Strength check to open, at your option). A boat or ship springs a leak. Warped ranged weapons are useless. A warped melee weapon causes a -4 penalty on attack rolls.</p><p>You may warp one Small or smaller object or its equivalent per caster level. A Medium object counts as two Small objects, a Large object as four, a Huge object as eight, a Gargantuan object as 16, and a Colossal object as 32.</p><p>Alternatively, you can un<i>warp wood</i> (effectively warping it back to normal) with this spell. <i>Make whole</i>, on the other hand, does no good in repairing a warped item.</p><p>You can combine multiple consecutive <i>warp wood</i> spells to warp (or unwarp) an object that is too large for you to warp with a single spell. Until the object is completely warped, it suffers no ill effects.</p>",
    "spellDuration": "instantaneous",
    "spellEffect": "",
    "spellArea": "",
    "showInQuickbar": false,
    "spellPoints": {
      "cost": "1 + @sl"
    },
    "domain": false,
    "slotCost": 1
  },
  "flags": {},
  "img": "systems/pf1/icons/misc/magic-swirl.png",
  "effects": []
}