{
  "_id": "XY0q4wLgrdcBmZHU",
  "name": "Suli",
  "permission": {
    "default": 0
  },
  "type": "npc",
  "data": {
    "abilities": {
      "str": {
        "total": 15,
        "mod": 2,
        "value": 13,
        "carryBonus": 0,
        "carryMultiplier": 1,
        "checkMod": 0,
        "damage": 0,
        "drain": 0,
        "penalty": 0,
        "userPenalty": 0,
        "base": 10,
        "baseMod": 0
      },
      "dex": {
        "total": 12,
        "mod": 1,
        "value": 12,
        "checkMod": 0,
        "damage": 0,
        "drain": 0,
        "penalty": 0,
        "userPenalty": 0,
        "base": 10,
        "baseMod": 0
      },
      "con": {
        "total": 11,
        "mod": 0,
        "value": 11,
        "checkMod": 0,
        "damage": 0,
        "drain": 0,
        "penalty": 0,
        "userPenalty": 0,
        "base": 10,
        "baseMod": 0
      },
      "int": {
        "total": 10,
        "mod": 0,
        "value": 12,
        "checkMod": 0,
        "damage": 0,
        "drain": 0,
        "penalty": 0,
        "userPenalty": 0,
        "base": 10,
        "baseMod": 0
      },
      "wis": {
        "total": 9,
        "mod": -1,
        "value": 9,
        "checkMod": 0,
        "damage": 0,
        "drain": 0,
        "penalty": 0,
        "userPenalty": 0,
        "base": 10,
        "baseMod": 0
      },
      "cha": {
        "total": 10,
        "mod": 0,
        "value": 8,
        "checkMod": 0,
        "damage": 0,
        "drain": 0,
        "penalty": 0,
        "userPenalty": 0,
        "base": 10,
        "baseMod": 0
      }
    },
    "resources": {},
    "attributes": {
      "encumbrance": {
        "level": 0,
        "levels": {
          "light": 66,
          "medium": 133,
          "heavy": 200,
          "carry": 400,
          "drag": 1000
        },
        "carriedWeight": 0
      },
      "hpAbility": "con",
      "cmbAbility": "str",
      "hd": {
        "total": 1,
        "max": {
          "_deprecated": true,
          "value": 0
        }
      },
      "naturalAC": null,
      "ac": {
        "normal": {
          "value": 0,
          "total": 10
        },
        "touch": {
          "value": 0,
          "total": 10
        },
        "flatFooted": {
          "value": 0,
          "total": 10
        }
      },
      "bab": {
        "value": 1,
        "total": 1
      },
      "cmd": {
        "value": "3",
        "total": 10,
        "flatFootedTotal": 10
      },
      "cmb": {
        "value": 14,
        "total": 0
      },
      "sr": {
        "formula": 0,
        "total": 0
      },
      "saveNotes": "",
      "acNotes": "(+6 armor, +1 Dex)",
      "cmdNotes": "",
      "srNotes": "",
      "attack": {
        "general": 0,
        "shared": 0,
        "melee": 0,
        "ranged": 0,
        "meleeAbility": "str",
        "rangedAbility": "dex"
      },
      "damage": {
        "general": 0,
        "weapon": 0,
        "spell": 0
      },
      "maxDexBonus": null,
      "mDex": {
        "armorBonus": 0,
        "shieldBonus": 0
      },
      "acp": {
        "gear": 0,
        "encumbrance": 0,
        "total": 0,
        "armorBonus": 0,
        "shieldBonus": 0,
        "attackPenalty": 0
      },
      "energyDrain": 0,
      "quadruped": false,
      "savingThrows": {
        "fort": {
          "total": 2,
          "ability": "con"
        },
        "ref": {
          "total": 3,
          "ability": "dex"
        },
        "will": {
          "total": -1,
          "ability": "wis"
        }
      },
      "hp": {
        "value": 11,
        "max": 0,
        "temp": null,
        "nonlethal": null,
        "min": -100
      },
      "wounds": {
        "min": 0,
        "value": 22,
        "max": 22
      },
      "vigor": {
        "min": 0,
        "value": 5,
        "temp": 0,
        "max": 5
      },
      "woundThresholds": {
        "penalty": 0,
        "mod": 0,
        "level": 0,
        "override": -1
      },
      "init": {
        "value": 0,
        "bonus": 0,
        "total": 0,
        "ability": ""
      },
      "prof": 2,
      "speed": {
        "land": {
          "base": 20,
          "total": 30
        },
        "climb": {
          "base": 0,
          "total": 0
        },
        "swim": {
          "base": 0,
          "total": 0
        },
        "burrow": {
          "base": 0,
          "total": 0
        },
        "fly": {
          "base": 0,
          "total": 0,
          "maneuverability": "average"
        }
      },
      "conditions": {
        "bleed": false,
        "blind": false,
        "confused": false,
        "dazzled": false,
        "deaf": false,
        "entangled": false,
        "fatigued": false,
        "exhausted": false,
        "grappled": false,
        "helpless": false,
        "incorporeal": false,
        "invisible": false,
        "paralyzed": false,
        "pinned": false,
        "prone": false,
        "fear": false,
        "sickened": false,
        "staggered": false,
        "stunned": false
      },
      "spells": {
        "usedSpellbooks": [],
        "spellbooks": {
          "primary": {
            "name": "Primary",
            "class": "",
            "cl": {
              "base": 0,
              "value": 0,
              "total": 0,
              "formula": ""
            },
            "concentration": 0,
            "concentrationFormula": "",
            "concentrationNotes": "",
            "clNotes": "",
            "ability": "int",
            "autoSpellLevels": true,
            "arcaneSpellFailure": true,
            "baseDCFormula": "10 + @sl + @ablMod",
            "spontaneous": false,
            "spellPoints": {
              "useSystem": false,
              "value": 0,
              "max": 0,
              "maxFormula": "",
              "restoreFormula": ""
            },
            "spellSlotAbilityBonusFormula": "",
            "domainSlotValue": 1,
            "spells": {
              "spell0": {
                "value": 0,
                "max": 0,
                "base": null
              },
              "spell1": {
                "value": 0,
                "max": 0,
                "base": null
              },
              "spell2": {
                "value": 0,
                "max": 0,
                "base": null
              },
              "spell3": {
                "value": 0,
                "max": 0,
                "base": null
              },
              "spell4": {
                "value": 0,
                "max": 0,
                "base": null
              },
              "spell5": {
                "value": 0,
                "max": 0,
                "base": null
              },
              "spell6": {
                "value": 0,
                "max": 0,
                "base": null
              },
              "spell7": {
                "value": 0,
                "max": 0,
                "base": null
              },
              "spell8": {
                "value": 0,
                "max": 0,
                "base": null
              },
              "spell9": {
                "value": 0,
                "max": 0,
                "base": null
              }
            }
          },
          "secondary": {
            "name": "Secondary",
            "class": "",
            "cl": {
              "base": 0,
              "value": 0,
              "total": 0,
              "formula": ""
            },
            "concentration": 0,
            "concentrationFormula": "",
            "concentrationNotes": "",
            "clNotes": "",
            "ability": "int",
            "autoSpellLevels": true,
            "arcaneSpellFailure": true,
            "baseDCFormula": "10 + @sl + @ablMod",
            "spontaneous": false,
            "spellPoints": {
              "useSystem": false,
              "value": 0,
              "max": 0,
              "maxFormula": "",
              "restoreFormula": ""
            },
            "spellSlotAbilityBonusFormula": "",
            "domainSlotValue": 1,
            "spells": {
              "spell0": {
                "value": 0,
                "max": 0,
                "base": null
              },
              "spell1": {
                "value": 0,
                "max": 0,
                "base": null
              },
              "spell2": {
                "value": 0,
                "max": 0,
                "base": null
              },
              "spell3": {
                "value": 0,
                "max": 0,
                "base": null
              },
              "spell4": {
                "value": 0,
                "max": 0,
                "base": null
              },
              "spell5": {
                "value": 0,
                "max": 0,
                "base": null
              },
              "spell6": {
                "value": 0,
                "max": 0,
                "base": null
              },
              "spell7": {
                "value": 0,
                "max": 0,
                "base": null
              },
              "spell8": {
                "value": 0,
                "max": 0,
                "base": null
              },
              "spell9": {
                "value": 0,
                "max": 0,
                "base": null
              }
            }
          },
          "tertiary": {
            "name": "Tertiary",
            "class": "",
            "cl": {
              "base": 0,
              "value": 0,
              "total": 0,
              "formula": ""
            },
            "concentration": 0,
            "concentrationFormula": "",
            "concentrationNotes": "",
            "clNotes": "",
            "ability": "int",
            "autoSpellLevels": true,
            "arcaneSpellFailure": true,
            "baseDCFormula": "10 + @sl + @ablMod",
            "spontaneous": false,
            "spellPoints": {
              "useSystem": false,
              "value": 0,
              "max": 0,
              "maxFormula": "",
              "restoreFormula": ""
            },
            "spellSlotAbilityBonusFormula": "",
            "domainSlotValue": 1,
            "spells": {
              "spell0": {
                "value": 0,
                "max": 0,
                "base": null
              },
              "spell1": {
                "value": 0,
                "max": 0,
                "base": null
              },
              "spell2": {
                "value": 0,
                "max": 0,
                "base": null
              },
              "spell3": {
                "value": 0,
                "max": 0,
                "base": null
              },
              "spell4": {
                "value": 0,
                "max": 0,
                "base": null
              },
              "spell5": {
                "value": 0,
                "max": 0,
                "base": null
              },
              "spell6": {
                "value": 0,
                "max": 0,
                "base": null
              },
              "spell7": {
                "value": 0,
                "max": 0,
                "base": null
              },
              "spell8": {
                "value": 0,
                "max": 0,
                "base": null
              },
              "spell9": {
                "value": 0,
                "max": 0,
                "base": null
              }
            }
          },
          "spelllike": {
            "name": "Spell-likes",
            "class": "_hd",
            "cl": {
              "base": 0,
              "value": 0,
              "total": 1,
              "formula": ""
            },
            "concentration": 0,
            "concentrationFormula": "",
            "concentrationNotes": "",
            "clNotes": "",
            "ability": "cha",
            "autoSpellLevels": true,
            "arcaneSpellFailure": true,
            "baseDCFormula": "10 + @sl + @ablMod",
            "spontaneous": false,
            "spellPoints": {
              "useSystem": false,
              "value": 0,
              "max": 0,
              "maxFormula": "",
              "restoreFormula": ""
            },
            "spellSlotAbilityBonusFormula": "",
            "domainSlotValue": 1,
            "spells": {
              "spell0": {
                "value": 0,
                "max": 0,
                "base": null
              },
              "spell1": {
                "value": 0,
                "max": 0,
                "base": null
              },
              "spell2": {
                "value": 0,
                "max": 0,
                "base": null
              },
              "spell3": {
                "value": 0,
                "max": 0,
                "base": null
              },
              "spell4": {
                "value": 0,
                "max": 0,
                "base": null
              },
              "spell5": {
                "value": 0,
                "max": 0,
                "base": null
              },
              "spell6": {
                "value": 0,
                "max": 0,
                "base": null
              },
              "spell7": {
                "value": 0,
                "max": 0,
                "base": null
              },
              "spell8": {
                "value": 0,
                "max": 0,
                "base": null
              },
              "spell9": {
                "value": 0,
                "max": 0,
                "base": null
              }
            }
          }
        },
        "concentration": {
          "bonus": 0,
          "context": ""
        }
      },
      "spellcasting": {
        "_deprecated": true
      },
      "spelldc": {
        "_deprecated": true
      },
      "spellLevel": 0,
      "cmbNotes": "",
      "mods": {
        "skills": {}
      },
      "creatureType": "humanoid"
    },
    "details": {
      "level": {
        "value": 1,
        "min": 0,
        "max": 40
      },
      "mythicTier": 0,
      "bonusFeatFormula": "",
      "alignment": "n",
      "biography": {
        "value": "",
        "public": ""
      },
      "notes": {
        "value": "",
        "public": ""
      },
      "bonusSkillRankFormula": "",
      "type": "",
      "environment": "",
      "cr": {
        "base": 0.5,
        "total": 0.5
      },
      "xp": {
        "value": "200"
      }
    },
    "skills": {
      "acr": {
        "value": 0,
        "ability": "dex",
        "rt": false,
        "acp": true,
        "rank": 0,
        "mod": 1,
        "background": false,
        "notes": "",
        "cs": false,
        "changeBonus": 0
      },
      "apr": {
        "value": 0,
        "ability": "int",
        "rt": false,
        "acp": false,
        "rank": 0,
        "mod": 0,
        "background": true,
        "notes": "",
        "cs": false,
        "changeBonus": 0
      },
      "art": {
        "value": 0,
        "ability": "int",
        "rt": false,
        "acp": false,
        "rank": 0,
        "mod": 0,
        "background": true,
        "notes": "",
        "subSkills": {},
        "cs": false,
        "changeBonus": 0
      },
      "blf": {
        "value": 0,
        "ability": "cha",
        "rt": false,
        "acp": false,
        "rank": 0,
        "mod": 0,
        "background": false,
        "notes": "",
        "cs": true,
        "changeBonus": 0
      },
      "clm": {
        "value": 0,
        "ability": "str",
        "rt": false,
        "acp": true,
        "rank": 0,
        "mod": 2,
        "background": false,
        "notes": "",
        "cs": true,
        "changeBonus": 0
      },
      "crf": {
        "value": 0,
        "ability": "int",
        "rt": false,
        "acp": false,
        "rank": 0,
        "mod": 0,
        "background": true,
        "notes": "",
        "subSkills": {},
        "cs": true,
        "changeBonus": 0
      },
      "dip": {
        "value": 0,
        "ability": "cha",
        "rt": false,
        "acp": false,
        "rank": 1,
        "mod": 3,
        "background": false,
        "notes": "",
        "cs": false,
        "changeBonus": 0
      },
      "dev": {
        "value": 0,
        "ability": "dex",
        "rt": true,
        "acp": true,
        "rank": 0,
        "mod": 1,
        "background": false,
        "notes": "",
        "cs": false,
        "changeBonus": 0
      },
      "dis": {
        "value": 0,
        "ability": "cha",
        "rt": false,
        "acp": false,
        "rank": 0,
        "mod": 0,
        "background": false,
        "notes": "",
        "cs": false,
        "changeBonus": 0
      },
      "esc": {
        "value": 0,
        "ability": "dex",
        "rt": false,
        "acp": true,
        "rank": 0,
        "mod": 1,
        "background": false,
        "notes": "",
        "cs": false,
        "changeBonus": 0
      },
      "fly": {
        "value": 0,
        "ability": "dex",
        "rt": false,
        "acp": true,
        "rank": 0,
        "mod": 1,
        "background": false,
        "notes": "",
        "cs": false,
        "changeBonus": 0
      },
      "han": {
        "value": 0,
        "ability": "cha",
        "rt": true,
        "acp": false,
        "rank": 0,
        "mod": 0,
        "background": true,
        "notes": "",
        "cs": true,
        "changeBonus": 0
      },
      "hea": {
        "value": 0,
        "ability": "wis",
        "rt": false,
        "acp": false,
        "rank": 0,
        "mod": -1,
        "background": false,
        "notes": "",
        "cs": true,
        "changeBonus": 0
      },
      "int": {
        "value": 0,
        "ability": "cha",
        "rt": false,
        "acp": false,
        "rank": 0,
        "mod": 0,
        "background": false,
        "notes": "",
        "cs": true,
        "changeBonus": 0
      },
      "kar": {
        "value": 0,
        "ability": "int",
        "rt": true,
        "acp": false,
        "rank": 0,
        "mod": 0,
        "background": false,
        "notes": "",
        "cs": false,
        "changeBonus": 0
      },
      "kdu": {
        "value": 0,
        "ability": "int",
        "rt": true,
        "acp": false,
        "rank": 0,
        "mod": 0,
        "background": false,
        "notes": "",
        "cs": true,
        "changeBonus": 0
      },
      "ken": {
        "value": 0,
        "ability": "int",
        "rt": true,
        "acp": false,
        "rank": 0,
        "mod": 0,
        "background": true,
        "notes": "",
        "cs": false,
        "changeBonus": 0
      },
      "kge": {
        "value": 0,
        "ability": "int",
        "rt": true,
        "acp": false,
        "rank": 1,
        "mod": 4,
        "background": true,
        "notes": "",
        "cs": true,
        "changeBonus": 0
      },
      "khi": {
        "value": 0,
        "ability": "int",
        "rt": true,
        "acp": false,
        "rank": 0,
        "mod": 0,
        "background": true,
        "notes": "",
        "cs": false,
        "changeBonus": 0
      },
      "klo": {
        "value": 0,
        "ability": "int",
        "rt": true,
        "acp": false,
        "rank": 0,
        "mod": 0,
        "background": false,
        "notes": "",
        "cs": false,
        "changeBonus": 0
      },
      "kna": {
        "value": 0,
        "ability": "int",
        "rt": true,
        "acp": false,
        "rank": 1,
        "mod": 4,
        "background": false,
        "notes": "",
        "cs": true,
        "changeBonus": 0
      },
      "kno": {
        "value": 0,
        "ability": "int",
        "rt": true,
        "acp": false,
        "rank": 0,
        "mod": 0,
        "background": true,
        "notes": "",
        "cs": false,
        "changeBonus": 0
      },
      "kpl": {
        "value": 0,
        "ability": "int",
        "rt": true,
        "acp": false,
        "rank": 0,
        "mod": 0,
        "background": false,
        "notes": "",
        "cs": true,
        "changeBonus": 0
      },
      "kre": {
        "value": 0,
        "ability": "int",
        "rt": true,
        "acp": false,
        "rank": 0,
        "mod": 0,
        "background": false,
        "notes": "",
        "cs": false,
        "changeBonus": 0
      },
      "lin": {
        "value": 0,
        "ability": "int",
        "rt": true,
        "acp": false,
        "rank": 0,
        "mod": 0,
        "background": true,
        "notes": "",
        "cs": false,
        "changeBonus": 0
      },
      "lor": {
        "value": 0,
        "ability": "int",
        "rt": true,
        "acp": false,
        "rank": 0,
        "mod": 0,
        "background": true,
        "notes": "",
        "subSkills": {},
        "cs": false,
        "changeBonus": 0
      },
      "per": {
        "value": 0,
        "ability": "wis",
        "rt": false,
        "acp": false,
        "rank": 0,
        "mod": -1,
        "background": false,
        "notes": "",
        "cs": true,
        "changeBonus": 0
      },
      "prf": {
        "value": 0,
        "ability": "cha",
        "rt": false,
        "acp": false,
        "rank": 0,
        "mod": 0,
        "background": true,
        "notes": "",
        "subSkills": {},
        "cs": false,
        "changeBonus": 0
      },
      "pro": {
        "value": 0,
        "ability": "wis",
        "rt": true,
        "acp": false,
        "rank": 0,
        "mod": -1,
        "background": true,
        "notes": "",
        "subSkills": {},
        "cs": true,
        "changeBonus": 0
      },
      "rid": {
        "value": 0,
        "ability": "dex",
        "rt": false,
        "acp": true,
        "rank": 0,
        "mod": 1,
        "background": false,
        "notes": "",
        "cs": true,
        "changeBonus": 0
      },
      "sen": {
        "value": 0,
        "ability": "wis",
        "rt": false,
        "acp": false,
        "rank": -2,
        "mod": -1,
        "background": false,
        "notes": "",
        "cs": true,
        "changeBonus": 0
      },
      "slt": {
        "value": 0,
        "ability": "dex",
        "rt": true,
        "acp": true,
        "rank": 0,
        "mod": 1,
        "background": true,
        "notes": "",
        "cs": false,
        "changeBonus": 0
      },
      "spl": {
        "value": 0,
        "ability": "int",
        "rt": true,
        "acp": false,
        "rank": 0,
        "mod": 0,
        "background": false,
        "notes": "",
        "cs": true,
        "changeBonus": 0
      },
      "ste": {
        "value": 0,
        "ability": "dex",
        "rt": false,
        "acp": true,
        "rank": 0,
        "mod": 1,
        "background": false,
        "notes": "",
        "cs": true,
        "changeBonus": 0
      },
      "sur": {
        "value": 0,
        "ability": "wis",
        "rt": false,
        "acp": false,
        "rank": 1,
        "mod": 3,
        "background": false,
        "notes": "",
        "cs": true,
        "changeBonus": 0
      },
      "swm": {
        "value": 0,
        "ability": "str",
        "rt": false,
        "acp": true,
        "rank": 0,
        "mod": 2,
        "background": false,
        "notes": "",
        "cs": true,
        "changeBonus": 0
      },
      "umd": {
        "value": 0,
        "ability": "cha",
        "rt": true,
        "acp": false,
        "rank": 0,
        "mod": 0,
        "background": false,
        "notes": "",
        "cs": false,
        "changeBonus": 0
      }
    },
    "customSkills": {},
    "traits": {
      "size": "med",
      "senses": "low-light vision; Perception -1 \n",
      "dr": "",
      "eres": "",
      "cres": "",
      "regen": "",
      "fastHealing": "",
      "languages": {
        "value": [],
        "custom": "Common plus one elemental language"
      },
      "di": {
        "value": [],
        "custom": ""
      },
      "dv": {
        "value": [],
        "custom": ""
      },
      "ci": {
        "value": [],
        "custom": ""
      },
      "perception": {
        "_deprecated": true
      },
      "stature": "tall"
    },
    "currency": {
      "pp": 0,
      "gp": 0,
      "sp": 0,
      "cp": 0
    },
    "altCurrency": {
      "pp": 0,
      "gp": 0,
      "sp": 0,
      "cp": 0
    },
    "classes": {
      "ranger": {
        "level": 1,
        "name": "ranger",
        "hd": 10,
        "bab": "high",
        "hp": false,
        "savingThrows": {
          "fort": 2,
          "ref": 2,
          "will": 0
        },
        "fc": {
          "hp": 0,
          "skill": 0,
          "alt": 0
        }
      }
    }
  },
  "sort": 100001,
  "flags": {
    "pf1": {}
  },
  "img": "systems/pf1/icons/races/creature-types/outsider.png",
  "token": {
    "flags": {
      "pf1": {
        "lowLightVision": false
      }
    },
    "name": "Suli",
    "displayName": 0,
    "img": "systems/pf1/icons/races/creature-types/outsider.png",
    "tint": null,
    "width": 1,
    "height": 1,
    "scale": 1,
    "lockRotation": false,
    "rotation": 0,
    "vision": true,
    "dimSight": 0,
    "brightSight": 0,
    "dimLight": 0,
    "brightLight": 0,
    "sightAngle": 360,
    "lightAngle": 360,
    "lightAlpha": 1,
    "lightAnimation": {
      "speed": 5,
      "intensity": 5
    },
    "actorId": "XY0q4wLgrdcBmZHU",
    "actorLink": false,
    "disposition": -1,
    "displayBars": 0,
    "bar1": {
      "attribute": "attributes.hp"
    },
    "bar2": {},
    "randomImg": false
  },
  "items": [
    {
      "_id": "nr1HTAMn6zHtRmig",
      "name": "Ranger",
      "type": "class",
      "data": {
        "description": {
          "value": "<p>For those who relish the thrill of the hunt, there are only predators and prey. Be they scouts, trackers, or bounty hunters, rangers share much in common: unique mastery of specialized weapons, skill at stalking even the most elusive game, and the expertise to defeat a wide range of quarries. Knowledgeable, patient, and skilled hunters, these rangers hound man, beast, and monster alike, gaining insight into the way of the predator, skill in varied environments, and ever more lethal martial prowess. While some track man-eating creatures to protect the frontier, others pursue more cunning game—even fugitives among their own people.</p>\n<p><strong>Role</strong>: Ranger are deft skirmishers, either in melee or at range, capable of skillfully dancing in and out of battle. Their abilities allow them to deal significant harm to specific types of foes, but their skills are valuable against all manner of enemies.</p>\n<p><strong>Alignment</strong>: Any</p>\n<p><strong>Hit Die</strong>: d10</p>\n<p><strong>Starting Wealth</strong>: 5d6 × 10 gp (average 175 gp.) In addition, each character begins play with an outfit worth 10 gp or less.</p>\n<h2><span id=\"Class_Skills\">Class Skills</span></h2>\n<p>The ranger’s class skills are <a href=\"https://www.d20pfsrd.com/skills/climb\">Climb</a>&nbsp;(<a href=\"https://www.d20pfsrd.com/basics-ability-scores/ability-scores#TOC-Strength-Str-\">Str</a>), <a href=\"https://www.d20pfsrd.com/skills/craft\">Craft</a>&nbsp;(<a href=\"https://www.d20pfsrd.com/basics-ability-scores/ability-scores#TOC-Intelligence-Int-\">Int</a>), <a href=\"https://www.d20pfsrd.com/skills/handle-animal\">Handle Animal</a>&nbsp;(<a href=\"https://www.d20pfsrd.com/basics-ability-scores/ability-scores#TOC-Charisma-Cha-\">Cha</a>), <a href=\"https://www.d20pfsrd.com/skills/heal\">Heal</a>&nbsp;(<a href=\"https://www.d20pfsrd.com/basics-ability-scores/ability-scores#TOC-Wisdom-Wis-\">Wis</a>), <a href=\"https://www.d20pfsrd.com/skills/intimidate\">Intimidate</a>&nbsp;(<a href=\"https://www.d20pfsrd.com/basics-ability-scores/ability-scores#TOC-Charisma-Cha-\">Cha</a>), <a href=\"https://www.d20pfsrd.com/skills/knowledge\">Knowledge</a>&nbsp;(dungeoneering) (<a href=\"https://www.d20pfsrd.com/basics-ability-scores/ability-scores#TOC-Intelligence-Int-\">Int</a>), <a href=\"https://www.d20pfsrd.com/skills/knowledge\">Knowledge</a>&nbsp;(geography) (<a href=\"https://www.d20pfsrd.com/basics-ability-scores/ability-scores#TOC-Intelligence-Int-\">Int</a>), <a href=\"https://www.d20pfsrd.com/skills/knowledge\">Knowledge</a>&nbsp;(nature) (<a href=\"https://www.d20pfsrd.com/basics-ability-scores/ability-scores#TOC-Intelligence-Int-\">Int</a>), <a href=\"https://www.d20pfsrd.com/skills/perception\">Perception</a>&nbsp;(<a href=\"https://www.d20pfsrd.com/basics-ability-scores/ability-scores#TOC-Wisdom-Wis-\">Wis</a>), <a href=\"https://www.d20pfsrd.com/skills/profession\">Profession</a>&nbsp;(<a href=\"https://www.d20pfsrd.com/basics-ability-scores/ability-scores#TOC-Wisdom-Wis-\">Wis</a>), <a href=\"https://www.d20pfsrd.com/skills/ride\">Ride</a>&nbsp;(<a href=\"https://www.d20pfsrd.com/basics-ability-scores/ability-scores#TOC-Dexterity-Dex-\">Dex</a>), <a href=\"https://www.d20pfsrd.com/skills/spellcraft\">Spellcraft</a>&nbsp;(<a href=\"https://www.d20pfsrd.com/basics-ability-scores/ability-scores#TOC-Intelligence-Int-\">Int</a>), <a href=\"https://www.d20pfsrd.com/skills/stealth\">Stealth</a>&nbsp;(<a href=\"https://www.d20pfsrd.com/basics-ability-scores/ability-scores#TOC-Dexterity-Dex-\">Dex</a>), <a href=\"https://www.d20pfsrd.com/skills/survival\">Survival</a>&nbsp;(<a href=\"https://www.d20pfsrd.com/basics-ability-scores/ability-scores#TOC-Wisdom-Wis-\">Wis</a>), and <a href=\"https://www.d20pfsrd.com/skills/swim\">Swim</a>&nbsp;(<a href=\"https://www.d20pfsrd.com/basics-ability-scores/ability-scores#TOC-Strength-Str-\">Str</a>).</p>\n<p><strong>Skill Ranks per Level</strong>: 6 +&nbsp;<a href=\"https://www.d20pfsrd.com/basics-ability-scores/ability-scores#TOC-Intelligence-Int-\">Int</a>&nbsp;modifier.</p>",
          "chat": "",
          "unidentified": ""
        },
        "tags": [],
        "changes": [],
        "changeFlags": {
          "loseDexToAC": false,
          "noStr": false,
          "noDex": false,
          "oneInt": false,
          "oneWis": false,
          "oneCha": false,
          "noEncumbrance": false,
          "mediumArmorFullSpeed": false,
          "heavyArmorFullSpeed": false
        },
        "links": "",
        "tag": "ranger",
        "useCustomTag": false,
        "armorProf": {
          "value": [],
          "custom": ""
        },
        "weaponProf": {
          "value": [],
          "custom": ""
        },
        "classType": "base",
        "levels": {
          "value": 0,
          "_deprecated": true
        },
        "level": 1,
        "hd": 10,
        "hp": 5,
        "bab": "high",
        "skillsPerLevel": 6,
        "savingThrows": {
          "fort": {
            "value": "high"
          },
          "ref": {
            "value": "high"
          },
          "will": {
            "value": "low"
          }
        },
        "fc": {
          "hp": {
            "value": 0
          },
          "skill": {
            "value": 0
          },
          "alt": {
            "value": 0
          }
        },
        "classSkills": {
          "acr": false,
          "apr": false,
          "art": false,
          "blf": false,
          "clm": true,
          "crf": true,
          "dip": false,
          "dev": false,
          "dis": false,
          "esc": false,
          "fly": false,
          "han": true,
          "hea": true,
          "int": true,
          "kar": false,
          "kdu": true,
          "ken": false,
          "kge": true,
          "khi": false,
          "klo": false,
          "kna": true,
          "kno": false,
          "kpl": false,
          "kre": false,
          "lin": false,
          "lor": false,
          "per": true,
          "prf": false,
          "pro": true,
          "rid": true,
          "sen": false,
          "slt": false,
          "spl": true,
          "ste": true,
          "sur": true,
          "swm": true,
          "umd": false
        },
        "extraDescription": {
          "value": "<h2>Weapon and Armor Proficiency</h2>\n<p>A ranger is proficient with all&nbsp;<a href=\"https://www.d20pfsrd.com/equipment/weapons#simple-martial-and-exotic-weapons\">simple</a>&nbsp;and&nbsp;<a href=\"https://www.d20pfsrd.com/equipment/weapons#simple-martial-and-exotic-weapons\">martial</a>&nbsp;weapons and with light&nbsp;<a href=\"https://www.d20pfsrd.com/basics-ability-scores/glossary#TOC-Armor-Bonus\">armor</a>, medium&nbsp;<a href=\"https://www.d20pfsrd.com/basics-ability-scores/glossary#TOC-Armor-Bonus\">armor</a>, and shields (except tower shields).</p>\n<h2>Favored Enemy (Ex)</h2>\n<p>At 1st level, a ranger selects a creature type from the ranger&nbsp;<a href=\"https://www.d20pfsrd.com/classes/core-classes/Ranger/#Ranger-Favored-Enemies-Table\">favored enemies</a>&nbsp;table. He gains a +2 bonus on&nbsp;<a href=\"https://www.d20pfsrd.com/skills/bluff\">Bluff</a>,&nbsp;<a href=\"https://www.d20pfsrd.com/skills/knowledge\">Knowledge</a>,&nbsp;<a href=\"https://www.d20pfsrd.com/skills/perception\">Perception</a>,&nbsp;<a href=\"https://www.d20pfsrd.com/skills/sense-motive\">Sense Motive</a>, and&nbsp;<a href=\"https://www.d20pfsrd.com/skills/survival\">Survival</a>&nbsp;checks against creatures of his selected type. Likewise, he gets a +2 bonus on weapon attack and damage rolls against them. A ranger may make&nbsp;<a href=\"https://www.d20pfsrd.com/skills/knowledge\">Knowledge</a>&nbsp;<a href=\"https://www.d20pfsrd.com/skills#TOC-Skill-Checks\">skill checks</a>&nbsp;untrained when attempting to identify these creatures.</p>\n<p>At 5th level and every five levels thereafter (10th, 15th, and 20th level), the ranger may select an additional&nbsp;<a href=\"https://www.d20pfsrd.com/classes/core-classes/Ranger/#TOC-Favored-Enemy-Ex-\">favored enemy</a>. In addition, at each such interval, the bonus against any one&nbsp;<a href=\"https://www.d20pfsrd.com/classes/core-classes/Ranger/#TOC-Favored-Enemy-Ex-\">favored enemy</a>&nbsp;(including the one just selected, if so desired) increases by +2.</p>\n<p>If the ranger chooses&nbsp;<a href=\"https://www.d20pfsrd.com/bestiary/rules-for-monsters/creature-types#TOC-Humanoid\">humanoids</a>&nbsp;or&nbsp;<a href=\"https://www.d20pfsrd.com/bestiary/rules-for-monsters/creature-types#TOC-Outsider\">outsiders</a>&nbsp;as a&nbsp;<a href=\"https://www.d20pfsrd.com/classes/core-classes/Ranger/#TOC-Favored-Enemy-Ex-\">favored enemy</a>, he must also choose an associated subtype, as indicated on the table below. (Note that there are other types of humanoid to choose from—those called out specifically on the table below are merely the most common.) If a specific creature falls into more than one category of&nbsp;<a href=\"https://www.d20pfsrd.com/classes/core-classes/Ranger/#TOC-Favored-Enemy-Ex-\">favored enemy</a>, the ranger’s bonuses do not stack; he simply uses whichever bonus is higher.</p>\n<h2>Track (Ex)</h2>\n<p>A ranger adds half his level (minimum 1) to&nbsp;<a href=\"https://www.d20pfsrd.com/skills/survival\">Survival</a>&nbsp;<a href=\"https://www.d20pfsrd.com/skills#TOC-Skill-Checks\">skill checks</a>&nbsp;made to follow tracks.</p>\n<h2>Wild Empathy (Ex)</h2>\n<p>A ranger can improve the initial attitude of an&nbsp;<a href=\"https://www.d20pfsrd.com/bestiary/rules-for-monsters/creature-types#TOC-Animal\">animal</a>. This ability functions just like a&nbsp;<a href=\"https://www.d20pfsrd.com/skills/diplomacy\">Diplomacy</a>&nbsp;check to improve the attitude of a person (see&nbsp;<a href=\"https://www.d20pfsrd.com/skills\">Using Skills</a>). The ranger rolls 1d20 and adds his ranger level and his&nbsp;<a href=\"https://www.d20pfsrd.com/basics-ability-scores/ability-scores#TOC-Charisma-Cha-\">Charisma</a>&nbsp;bonus to determine the&nbsp;<a href=\"https://www.d20pfsrd.com/classes/core-classes/druid#TOC-Wild-Empathy-Ex-\">wild empathy</a>&nbsp;check result. The typical domestic animal has a starting attitude of indifferent, while wild animals are usually unfriendly.</p>\n<p>To use&nbsp;<a href=\"https://www.d20pfsrd.com/classes/core-classes/druid#TOC-Wild-Empathy-Ex-\">wild empathy</a>, the ranger and the&nbsp;<a href=\"https://www.d20pfsrd.com/bestiary/rules-for-monsters/creature-types#TOC-Animal\">animal</a>&nbsp;must be within 30 feet of one another under normal visibility conditions. Generally, influencing an animal in this way takes 1 minute, but, as with influencing people, it might take more or less time.</p>\n<p>The ranger can also use this ability to influence a&nbsp;<a href=\"https://www.d20pfsrd.com/bestiary/rules-for-monsters/creature-types#TOC-Magical-Beast\">magical beast</a>&nbsp;with an&nbsp;<a href=\"https://www.d20pfsrd.com/basics-ability-scores/ability-scores#TOC-Intelligence-Int-\">Intelligence</a>&nbsp;score of 1 or 2, but he takes a –4 penalty on the check.</p>\n<h2>Combat Style Feat (Ex)</h2>\n<p>At 2nd level, a ranger must select one&nbsp;<a href=\"https://www.d20pfsrd.com/classes/core-classes/ranger/ranger-combat-styles/\">combat style</a>&nbsp;to pursue.</p>\n<p>The ranger’s expertise manifests in the form of bonus feats at 2nd, 6th, 10th, 14th, and 18th level. He can choose feats from his selected combat style, even if he does not have the normal prerequisites.</p>\n<p>The benefits of the ranger’s chosen style feats apply&nbsp;only&nbsp;when he wears light, medium, or no armor. He loses all benefits of his combat style feats when wearing heavy armor. Once a ranger selects a combat style, it cannot be changed.</p>\n<h2>Endurance</h2>\n<p>A ranger gains&nbsp;<a href=\"https://www.d20pfsrd.com/feats/general-feats/endurance\">Endurance</a>&nbsp;as a bonus feat at 3rd level.</p>\n<h2>Favored Terrain (Ex)</h2>\n<p>At 3rd level, a ranger may select a type of terrain from&nbsp;Table: Ranger Favored Terrains. The ranger gains a +2 bonus on&nbsp;<a href=\"https://www.d20pfsrd.com/gamemastering/combat#TOC-Initiative\">initiative</a>&nbsp;checks and&nbsp;<a href=\"https://www.d20pfsrd.com/skills/knowledge\">Knowledge</a>&nbsp;(geography),&nbsp;<a href=\"https://www.d20pfsrd.com/skills/perception\">Perception</a>,&nbsp;<a href=\"https://www.d20pfsrd.com/skills/stealth\">Stealth</a>, and&nbsp;<a href=\"https://www.d20pfsrd.com/skills/survival\">Survival</a>&nbsp;<a href=\"https://www.d20pfsrd.com/skills#TOC-Skill-Checks\">skill checks</a>&nbsp;when he is in this terrain. A ranger traveling through his&nbsp;<a href=\"https://www.d20pfsrd.com/classes/core-classes/Ranger/#TOC-Favored-Terrain-Ex-\">favored terrain</a>&nbsp;normally leaves no trail and cannot be tracked (though he may leave a trail if he so chooses).</p>\n<p>At 8th level and every five levels thereafter, the ranger may select an additional&nbsp;<a href=\"https://www.d20pfsrd.com/classes/core-classes/Ranger/#TOC-Favored-Terrain-Ex-\">favored terrain</a>. In addition, at each such interval, the skill bonus and&nbsp;<a href=\"https://www.d20pfsrd.com/gamemastering/combat#TOC-Initiative\">initiative</a>&nbsp;bonus in any one&nbsp;<a href=\"https://www.d20pfsrd.com/classes/core-classes/Ranger/#TOC-Favored-Terrain-Ex-\">favored terrain</a>&nbsp;(including the one just selected, if so desired), increases by +2.</p>\n<p>If a specific terrain falls into more than one category of&nbsp;<a href=\"https://www.d20pfsrd.com/classes/core-classes/Ranger/#TOC-Favored-Terrain-Ex-\">favored terrain</a>, the ranger’s bonuses do not stack; he simply uses whichever bonus is higher.</p>\n<h2>Hunter's Bond (Ex)</h2>\n<p>At 4th level, a ranger forms a bond with his hunting companions. This bond can take one of two forms. Once the form is chosen, it cannot be changed. The first is a bond to his companions. This bond allows him to spend a&nbsp;<a href=\"https://www.d20pfsrd.com/gamemastering/combat#TOC-Move-Actions\">move action</a>&nbsp;to grant half his&nbsp;<a href=\"https://www.d20pfsrd.com/classes/core-classes/Ranger/#TOC-Favored-Enemy-Ex-\">favored enemy</a>&nbsp;bonus against a single target of the appropriate type to all allies within 30 feet who can see or hear him. This bonus lasts for a number of rounds equal to the ranger’s&nbsp;<a href=\"https://www.d20pfsrd.com/basics-ability-scores/ability-scores#TOC-Wisdom-Wis-\">Wisdom</a>&nbsp;modifier (minimum 1). This bonus does not stack with any&nbsp;<a href=\"https://www.d20pfsrd.com/classes/core-classes/Ranger/#TOC-Favored-Enemy-Ex-\">favored enemy</a>&nbsp;bonuses possessed by his allies; they use whichever bonus is higher.</p>\n<p>The second option is to form a close bond with an&nbsp;<a href=\"https://www.d20pfsrd.com/classes/core-classes/druid/animal-companions\">animal companion</a>. A ranger who selects an&nbsp;<a href=\"https://www.d20pfsrd.com/classes/core-classes/druid/animal-companions\">animal companion</a>&nbsp;can choose from the following list:&nbsp;<a href=\"https://www.d20pfsrd.com/classes/core-classes/druid/animal-companions#TOC-Badger\">badger</a>,&nbsp;<a href=\"https://www.d20pfsrd.com/classes/core-classes/druid/animal-companions#TOC-Bird\">bird</a>,&nbsp;<a href=\"https://www.d20pfsrd.com/classes/core-classes/druid/animal-companions#TOC-camel\">camel</a>,&nbsp;<a href=\"https://www.d20pfsrd.com/classes/core-classes/druid/animal-companions#TOC-Cat-Small\">cat (small)</a>,&nbsp;<a href=\"https://www.d20pfsrd.com/classes/core-classes/druid/animal-companions#TOC-Rat-Dire\">dire rat</a>,&nbsp;<a href=\"https://www.d20pfsrd.com/classes/core-classes/druid/animal-companions#TOC-Dog\">dog</a>,&nbsp;<a href=\"https://www.d20pfsrd.com/classes/core-classes/druid/animal-companions#TOC-Horse\">horse</a>,&nbsp;<a href=\"https://www.d20pfsrd.com/classes/core-classes/druid/animal-companions#TOC-Pony\">pony</a>, snake (<a href=\"https://www.d20pfsrd.com/classes/core-classes/druid/animal-companions#TOC-Snake-Viper\">viper</a>&nbsp;or&nbsp;<a href=\"https://www.d20pfsrd.com/classes/core-classes/druid/animal-companions#TOC-Snake-Constrictor\">constrictor</a>), or&nbsp;<a href=\"https://www.d20pfsrd.com/classes/core-classes/druid/animal-companions#TOC-Wolf\">wolf</a>. If the campaign takes place wholly or partly in an aquatic environment, the ranger may choose a shark instead. This animal is a loyal companion that accompanies the ranger on his adventures as appropriate for its kind. A ranger’s&nbsp;<a href=\"https://www.d20pfsrd.com/classes/core-classes/druid/animal-companions\">animal companion</a>&nbsp;shares his&nbsp;<a href=\"https://www.d20pfsrd.com/classes/core-classes/Ranger/#TOC-Favored-Enemy-Ex-\">favored enemy</a>&nbsp;and&nbsp;<a href=\"https://www.d20pfsrd.com/classes/core-classes/Ranger/#TOC-Favored-Terrain-Ex-\">favored terrain</a>&nbsp;bonuses.</p>\n<p>This ability functions like the&nbsp;<a href=\"https://www.d20pfsrd.com/classes/core-classes/druid\">druid</a>&nbsp;<a href=\"https://www.d20pfsrd.com/classes/core-classes/druid/animal-companions\">animal companion</a>&nbsp;ability (which is part of the Nature Bond class feature), except that the ranger’s effective&nbsp;<a href=\"https://www.d20pfsrd.com/classes/core-classes/druid\">druid</a>&nbsp;level is equal to his ranger level –3.</p>\n<p>A ranger can select a antelope, baboon, bustard, capybara, elk, falcon, kangaroo,&nbsp;<a href=\"https://www.d20pfsrd.com/bestiary/monster-listings/animals/lizard/lizard-common\">lizard</a>&nbsp;(<a href=\"https://www.d20pfsrd.com/bestiary/monster-listings/animals/lizard/lizard-giant-gecko\">giant gecko</a>), marsupial devil, ram, reindeer,&nbsp;<a href=\"https://www.d20pfsrd.com/bestiary/monster-listings/animals/snake\">snake</a>&nbsp;(reef snake or&nbsp;<a href=\"https://www.d20pfsrd.com/bestiary/monster-listings/animals/snake/snake-cobra-spitting\">spitting cobra</a>), stag, trumpeter swan, thylacine, wolfdog, yak, or zebra as an&nbsp;<a href=\"https://www.d20pfsrd.com/classes/core-classes/druid/animal-companions\">animal companion</a>. If the campaign takes place in an aquatic environment, the ranger can choose an armorfish or reef snake. A falconer ranger can select a falcon companion instead of a bird companion.</p>\n<p>If the campaign takes place in an aquatic environment, the ranger can choose a stingray.</p>\n<p>The&nbsp;<a href=\"https://www.d20pfsrd.com/classes/core-classes/druid/animal-companions/animal-companion-archetypes/ambusher-companion-archetype/\">ambusher</a>,&nbsp;<a href=\"https://www.d20pfsrd.com/classes/core-classes/druid/animal-companions/animal-companion-archetypes/bully-companion-archetype/\">bully</a>,&nbsp;<a href=\"https://www.d20pfsrd.com/classes/core-classes/druid/animal-companions/animal-companion-archetypes/daredevil-companion-archetype/\">daredevil</a>,&nbsp;<a href=\"https://www.d20pfsrd.com/classes/core-classes/druid/animal-companions/animal-companion-archetypes/feytouched-companion-archetype/\">feytouched companion</a>,&nbsp;<a href=\"https://www.d20pfsrd.com/classes/core-classes/druid/animal-companions/animal-companion-archetypes/precocious-companion-archetype/\">precocious companion</a>,&nbsp;<a href=\"https://www.d20pfsrd.com/classes/core-classes/druid/animal-companions/animal-companion-archetypes/totem-guide-companion-archetype/\">totem guide</a>,&nbsp;<a href=\"https://www.d20pfsrd.com/classes/core-classes/druid/animal-companions/animal-companion-archetypes/tracker-companion-archetype/\">tracker</a>,&nbsp;<a href=\"https://www.d20pfsrd.com/classes/core-classes/druid/animal-companions/animal-companion-archetypes/verdant-companion-archetype/\">verdant companion</a>, and&nbsp;<a href=\"https://www.d20pfsrd.com/classes/core-classes/druid/animal-companions/animal-companion-archetypes/wrecker-companion-archetype/\">wrecker archetypes</a>&nbsp;are all particularly appropriate for a&nbsp;<a href=\"https://www.d20pfsrd.com/classes/core-classes/ranger\">ranger’s</a>&nbsp;<a href=\"https://www.d20pfsrd.com/classes/core-classes/druid/animal-companions\">animal companion</a>.</p>\n<h2>Spells</h2>\n<p>Beginning at 4th level, a ranger gains the ability to cast a small number of divine spells, which are drawn from the&nbsp;<a href=\"https://www.d20pfsrd.com/magic/spell-lists-and-domains/spell-lists-ranger\">ranger spell list</a>. A ranger must choose and prepare his spells in advance.</p>\n<p>To prepare or cast a spell, a ranger must have a&nbsp;<a href=\"https://www.d20pfsrd.com/basics-ability-scores/ability-scores#TOC-Wisdom-Wis-\">Wisdom</a>&nbsp;score equal to at least 10 + the spell level. The&nbsp;<a href=\"https://www.d20pfsrd.com/basics-ability-scores/glossary#TOC-Difficulty-Class-DC-\">Difficulty Class</a>&nbsp;for a&nbsp;<a href=\"https://www.d20pfsrd.com/gamemastering/combat#TOC-Saving-Throws\">saving throw</a>&nbsp;against a ranger’s spell is 10 + the spell level + the ranger’s&nbsp;<a href=\"https://www.d20pfsrd.com/basics-ability-scores/ability-scores#TOC-Wisdom-Wis-\">Wisdom</a>&nbsp;modifier.</p>\n<p>Like other spellcasters, a ranger can cast only a certain number of spells of each spell level per day. His base daily spell allotment is given on&nbsp;Table: Ranger. In addition, he receives bonus spells per day if he has a high&nbsp;<a href=\"https://www.d20pfsrd.com/basics-ability-scores/ability-scores#TOC-Wisdom-Wis-\">Wisdom</a>&nbsp;score (see&nbsp;<a href=\"https://www.d20pfsrd.com/basics-ability-scores/ability-scores#TOC-Abilities-and-Spellcasters\">Table: Ability Modifiers and Bonus Spells</a>). When&nbsp;Table: Ranger&nbsp;indicates that the ranger gets 0 spells per day of a given spell level, he gains only the bonus spells he would be entitled to based on his&nbsp;<a href=\"https://www.d20pfsrd.com/basics-ability-scores/ability-scores#TOC-Wisdom-Wis-\">Wisdom</a>&nbsp;score for that spell level.</p>\n<p>A ranger must spend 1 hour per day in quiet meditation to regain his daily allotment of spells. A ranger may prepare and cast any spell on the&nbsp;<a href=\"https://www.d20pfsrd.com/magic/spell-lists-and-domains/spell-lists-ranger\">ranger spell list</a>, provided that he can cast spells of that level, but he must choose which spells to prepare during his daily meditation.</p>\n<p>Through 3rd level, a ranger has no&nbsp;<a href=\"https://www.d20pfsrd.com/magic#TOC-Caster-Level\">caster level</a>. At 4th level and higher, his&nbsp;<a href=\"https://www.d20pfsrd.com/magic#TOC-Caster-Level\">caster level</a>&nbsp;is equal to his ranger level – 3.</p>\n<h2>Woodland Stride (Ex)</h2>\n<p>Starting at 7th level, a ranger may move through any sort of undergrowth (such as natural thorns, briars, overgrown areas, and similar terrain) at his normal speed and without taking damage or suffering any other impairment.</p>\n<p>Thorns, briars, and overgrown areas that are enchanted or magically manipulated to impede motion, however, still affect him.</p>\n<h2>Swift Tracker (Ex)</h2>\n<p>Beginning at 8th level, a ranger can move at his normal speed while using&nbsp;<a href=\"https://www.d20pfsrd.com/skills/survival\">Survival</a>&nbsp;to follow tracks without taking the normal –5 penalty. He takes only a –10 penalty (instead of the normal –20) when moving at up to twice normal speed while tracking.</p>\n<h2>Evasion (Ex)</h2>\n<p>When he reaches 9th level, a ranger can avoid even magical and unusual attacks with great agility. If he makes a successful&nbsp;<a href=\"https://www.d20pfsrd.com/gamemastering/combat#TOC-Reflex\">Reflex</a>&nbsp;<a href=\"https://www.d20pfsrd.com/gamemastering/combat#TOC-Saving-Throws\">saving throw</a>&nbsp;against an attack that normally deals half damage on a successful save, he instead takes no damage. Evasion can be used only if the ranger is wearing light&nbsp;<a href=\"https://www.d20pfsrd.com/basics-ability-scores/glossary#TOC-Armor-Bonus\">armor</a>, medium&nbsp;<a href=\"https://www.d20pfsrd.com/basics-ability-scores/glossary#TOC-Armor-Bonus\">armor</a>, or no armor. A&nbsp;<a href=\"https://www.d20pfsrd.com/gamemastering/conditions#TOC-Helpless\">helpless</a>&nbsp;ranger does not gain the benefit of&nbsp;<a href=\"https://www.d20pfsrd.com/classes/core-classes/rogue#TOC-Evasion-Ex-\">evasion</a>.</p>\n<h2>Quarry (Ex)</h2>\n<p>At 11th level, a ranger can, as a&nbsp;<a href=\"https://www.d20pfsrd.com/gamemastering/combat#TOC-Standard-Actions\">standard action</a>, denote one target within his line of sight as his quarry. Whenever he is following the tracks of his quarry, a ranger can take 10 on his&nbsp;<a href=\"https://www.d20pfsrd.com/skills/survival\">Survival</a>&nbsp;<a href=\"https://www.d20pfsrd.com/skills#TOC-Skill-Checks\">skill checks</a>&nbsp;while moving at normal speed, without penalty. In addition, he receives a +2&nbsp;<a href=\"https://www.d20pfsrd.com/basics-ability-scores/glossary#TOC-Insight-Bonus\">insight bonus</a>&nbsp;on&nbsp;<a href=\"https://www.d20pfsrd.com/gamemastering/combat#TOC-Attack-Roll\">attack rolls</a>&nbsp;made against his quarry, and all critical threats are automatically confirmed. A ranger can have no more than one quarry at a time and the creature’s type must correspond to one of his&nbsp;<a href=\"https://www.d20pfsrd.com/classes/core-classes/Ranger/#TOC-Favored-Enemy-Ex-\">favored enemy</a>&nbsp;types. He can dismiss this effect at any time as a&nbsp;<a href=\"https://www.d20pfsrd.com/gamemastering/combat#TOC-Free-Actions\">free action</a>, but he cannot select a new quarry for 24 hours. If the ranger sees proof that his quarry is&nbsp;<a href=\"https://www.d20pfsrd.com/gamemastering/conditions#TOC-Dead\">dead</a>, he can select a new quarry after waiting 1 hour.</p>\n<h2>Camouflage (Ex)</h2>\n<p>A ranger of 12th level or higher can use the&nbsp;<a href=\"https://www.d20pfsrd.com/skills/stealth\">Stealth</a>&nbsp;skill to hide in any of his favored terrains, even if the terrain doesn’t grant&nbsp;<a href=\"https://www.d20pfsrd.com/gamemastering/combat#TOC-Cover\">cover</a>&nbsp;or&nbsp;<a href=\"https://www.d20pfsrd.com/gamemastering/combat#TOC-Concealment\">concealment</a>.</p>\n<h2>Improved Evasion (Ex)</h2>\n<p>At 16th level, a ranger’s&nbsp;<a href=\"https://www.d20pfsrd.com/classes/core-classes/rogue#TOC-Evasion-Ex-\">evasion</a>&nbsp;improves. This ability works like&nbsp;<a href=\"https://www.d20pfsrd.com/classes/core-classes/rogue#TOC-Evasion-Ex-\">evasion</a>, except that while the ranger still takes no damage on a successful&nbsp;<a href=\"https://www.d20pfsrd.com/gamemastering/combat#TOC-Reflex\">Reflex</a>&nbsp;<a href=\"https://www.d20pfsrd.com/gamemastering/combat#TOC-Saving-Throws\">saving throw</a>&nbsp;against attacks, he henceforth takes only half damage on a failed save. A&nbsp;<a href=\"https://www.d20pfsrd.com/gamemastering/conditions#TOC-Helpless\">helpless</a>&nbsp;ranger does not gain the benefit of&nbsp;<a href=\"https://www.d20pfsrd.com/classes/core-classes/rogue/rogue-talents/paizo-rogue-advanced-talents/improved-evasion-ex\">improved evasion</a>.</p>\n<h2>Hide in Plain Sight (Ex)</h2>\n<p>While in any of his favored terrains, a ranger of 17th level or higher can use the&nbsp;<a href=\"https://www.d20pfsrd.com/skills/stealth\">Stealth</a>&nbsp;skill even while being observed.</p>\n<h2>Improved Quarry (Ex)</h2>\n<p>At 19th level, the ranger’s ability to hunt his quarry improves. He can now select a quarry as a&nbsp;<a href=\"https://www.d20pfsrd.com/gamemastering/combat#TOC-Free-Actions\">free action</a>, and can now take 20 while using&nbsp;<a href=\"https://www.d20pfsrd.com/skills/survival\">Survival</a>&nbsp;to track his quarry, while moving at normal speed without penalty. His&nbsp;<a href=\"https://www.d20pfsrd.com/basics-ability-scores/glossary#TOC-Insight-Bonus\">insight bonus</a>&nbsp;to attack his quarry increases to +4. If his quarry is killed or dismissed, he can select a new one after 10 minutes have passed.</p>\n<h2>Master Hunter (Ex)</h2>\n<p>A ranger of 20th level becomes a master hunter. He can always move at full speed while using&nbsp;<a href=\"https://www.d20pfsrd.com/skills/survival\">Survival</a>&nbsp;to follow tracks without penalty. He can, as a&nbsp;<a href=\"https://www.d20pfsrd.com/gamemastering/combat#TOC-Standard-Actions\">standard action</a>, make a single attack against a&nbsp;<a href=\"https://www.d20pfsrd.com/classes/core-classes/Ranger/#TOC-Favored-Enemy-Ex-\">favored enemy</a>&nbsp;at his full&nbsp;<a href=\"https://www.d20pfsrd.com/gamemastering/combat#TOC-Attack-Bonus\">attack bonus</a>. If the attack hits, the target takes damage normally and must make a&nbsp;<a href=\"https://www.d20pfsrd.com/gamemastering/combat#TOC-Fortitude\">Fortitude</a>&nbsp;save or die. The DC of this save is equal to 10 + 1/2 the ranger’s level + the ranger’s&nbsp;<a href=\"https://www.d20pfsrd.com/basics-ability-scores/ability-scores#TOC-Wisdom-Wis-\">Wisdom</a>&nbsp;modifier. A ranger can choose instead to deal an amount of&nbsp;<a href=\"https://www.d20pfsrd.com/gamemastering/combat#TOC-Nonlethal-Damage\">nonlethal damage</a>&nbsp;equal to the creature’s current&nbsp;<a href=\"https://www.d20pfsrd.com/gamemastering/combat#TOC-Hit-Points\">hit points</a>. A successful save negates this damage. A ranger can use this ability once per day against each&nbsp;<a href=\"https://www.d20pfsrd.com/classes/core-classes/Ranger/#TOC-Favored-Enemy-Ex-\">favored enemy</a>&nbsp;type he possesses, but not against the same creature more than once in a 24-hour period.</p>",
          "chat": "",
          "unidentified": ""
        },
        "damage": {
          "parts": []
        },
        "preparation": {
          "maxAmount": 0
        },
        "weaponData": {
          "critRange": 20,
          "critMult": 2
        },
        "range": {
          "maxIncrements": 1
        }
      },
      "sort": 143750,
      "flags": {},
      "img": "systems/pf1/icons/items/weapons/longbow.PNG",
      "effects": []
    },
    {
      "_id": "Gtz5E4r6tg6spifD",
      "name": "Suli",
      "type": "race",
      "data": {
        "description": {
          "value": "<h2>Starting Age</h2>\n<table style=\"border-spacing: 0px; background-color: #ffffff; margin: 10px; table-layout: fixed; border-color: #888888; min-width: 200px; color: #333333; font-family: Varela, sans-serif; height: 58px;\" border=\"1\" cellpadding=\"5\">\n<thead style=\"box-sizing: border-box; background-color: #cfe2f3;\">\n<tr style=\"box-sizing: border-box;\">\n<th class=\"text\" style=\"box-sizing: border-box; padding: 2px; text-align: left; border: 1px solid #888888; height: 21px; width: 130px;\">Adulthood</th>\n<th class=\"text\" style=\"box-sizing: border-box; padding: 2px; text-align: left; border: 1px solid #888888; height: 21px; width: 130px;\">Intuitive<span style=\"box-sizing: border-box; position: relative; font-size: 10px; line-height: 0; vertical-align: baseline; top: -0.5em;\">1</span></th>\n<th class=\"text\" style=\"box-sizing: border-box; padding: 2px; text-align: left; border: 1px solid #888888; height: 21px; width: 130px;\">Self-Taught<span style=\"box-sizing: border-box; position: relative; font-size: 10px; line-height: 0; vertical-align: baseline; top: -0.5em;\">2</span></th>\n<th class=\"text\" style=\"box-sizing: border-box; padding: 2px; text-align: left; border: 1px solid #888888; height: 21px; width: 131px;\">Trained<span style=\"box-sizing: border-box; position: relative; font-size: 10px; line-height: 0; vertical-align: baseline; top: -0.5em;\">3</span></th>\n</tr>\n</thead>\n<tbody style=\"box-sizing: border-box;\">\n<tr style=\"box-sizing: border-box;\">\n<td class=\"text\" style=\"box-sizing: border-box; padding: 2px; vertical-align: top; border: 1px solid #888888; height: 37px; width: 130px;\">15 years</td>\n<td class=\"text\" style=\"box-sizing: border-box; padding: 2px; vertical-align: top; border: 1px solid #888888; height: 37px; width: 130px;\">+1d4 years<br style=\"box-sizing: border-box;\">(16 – 19 years)</td>\n<td class=\"text\" style=\"box-sizing: border-box; padding: 2px; vertical-align: top; border: 1px solid #888888; height: 37px; width: 130px;\">+1d6 years<br style=\"box-sizing: border-box;\">(16 – 21 years)</td>\n<td class=\"text\" style=\"box-sizing: border-box; padding: 2px; vertical-align: top; border: 1px solid #888888; height: 37px; width: 131px;\">+2d6 years<br style=\"box-sizing: border-box;\">(17 – 27 years)</td>\n</tr>\n</tbody>\n</table>\n<p><sup style=\"box-sizing: border-box; user-select: text; color: #191813;\">1</sup><span style=\"color: #191813; font-size: 13px;\">&nbsp;This category includes barbarians, oracles, rogues, and sorcerers.</span><br style=\"box-sizing: border-box; user-select: text; color: #191813; font-size: 13px;\"><sup style=\"box-sizing: border-box; user-select: text; color: #191813;\">2</sup><span style=\"color: #191813; font-size: 13px;\">&nbsp;This category includes bards, cavaliers, fighters, gunslingers, paladins, rangers, summoners, and witches.</span><br style=\"box-sizing: border-box; user-select: text; color: #191813; font-size: 13px;\"><sup style=\"box-sizing: border-box; user-select: text; color: #191813;\">3</sup><span style=\"color: #191813; font-size: 13px;\"> This category includes alchemists, clerics, druids, inquisitors, magi, monks, and wizards.</span></p>\n<h2>Height and Weight</h2>\n<table style=\"border-spacing: 0px; background-color: #ffffff; margin: 10px; table-layout: fixed; border-color: #888888; min-width: 200px; color: #333333; font-family: Varela, sans-serif;\" border=\"1\" cellpadding=\"5\">\n<thead style=\"box-sizing: border-box; background-color: #cfe2f3;\">\n<tr style=\"box-sizing: border-box;\">\n<th class=\"text\" style=\"box-sizing: border-box; padding: 2px; text-align: left; border: 1px solid #888888;\">Gender</th>\n<th class=\"text\" style=\"box-sizing: border-box; padding: 2px; text-align: left; border: 1px solid #888888;\">Base Height</th>\n<th class=\"text\" style=\"box-sizing: border-box; padding: 2px; text-align: left; border: 1px solid #888888;\">Height Modifier</th>\n<th class=\"text\" style=\"box-sizing: border-box; padding: 2px; text-align: left; border: 1px solid #888888;\">Base Weight</th>\n<th class=\"text\" style=\"box-sizing: border-box; padding: 2px; text-align: left; border: 1px solid #888888;\">Weight Modifier</th>\n</tr>\n</thead>\n<tbody style=\"box-sizing: border-box;\">\n<tr style=\"box-sizing: border-box;\">\n<td class=\"text\" style=\"box-sizing: border-box; padding: 2px; vertical-align: top; border: 1px solid #888888;\">Male</td>\n<td class=\"text\" style=\"box-sizing: border-box; padding: 2px; vertical-align: top; border: 1px solid #888888;\">4 ft. 10 in.</td>\n<td class=\"text\" style=\"box-sizing: border-box; padding: 2px; vertical-align: top; border: 1px solid #888888;\">+2d10 in.<br style=\"box-sizing: border-box;\">(5 ft. – 6 ft. 8 in.)</td>\n<td class=\"text\" style=\"box-sizing: border-box; padding: 2px; vertical-align: top; border: 1px solid #888888;\">120 lbs.</td>\n<td class=\"text\" style=\"box-sizing: border-box; padding: 2px; vertical-align: top; border: 1px solid #888888;\">+(2d10×5 lbs.)<br style=\"box-sizing: border-box;\">(130 – 220 lbs.)</td>\n</tr>\n<tr style=\"box-sizing: border-box; background-color: #f3f3f3;\">\n<td class=\"text\" style=\"box-sizing: border-box; padding: 2px; vertical-align: top; border: 1px solid #888888;\">Female</td>\n<td class=\"text\" style=\"box-sizing: border-box; padding: 2px; vertical-align: top; border: 1px solid #888888;\">4 ft. 5 in.</td>\n<td class=\"text\" style=\"box-sizing: border-box; padding: 2px; vertical-align: top; border: 1px solid #888888;\">+2d10 in.<br style=\"box-sizing: border-box;\">(4 ft. 7 in. – 6 ft. 1 in.)</td>\n<td class=\"text\" style=\"box-sizing: border-box; padding: 2px; vertical-align: top; border: 1px solid #888888;\">85 lbs.</td>\n<td class=\"text\" style=\"box-sizing: border-box; padding: 2px; vertical-align: top; border: 1px solid #888888;\">+(2d10×5 lbs.)<br style=\"box-sizing: border-box;\">(95 – 185 lbs.)</td>\n</tr>\n</tbody>\n</table>\n<h2>Standard Racial Traits</h2>\n<ul>\n<li style=\"box-sizing: border-box;\"><span style=\"box-sizing: border-box; font-weight: bold;\">Abilit<span style=\"box-sizing: border-box;\">y Score Racial Traits</span></span>: Sulis are brawny and charming, but slow-witted. They gain +2&nbsp;<a href=\"https://www.d20pfsrd.com/classes/core-classes/cleric/domains/paizo-domains/strength-domain\">Strength</a>, +2&nbsp;<a href=\"https://www.d20pfsrd.com/basics-ability-scores/ability-scores#TOC-Charisma-Cha-\">Charisma</a>, and –2&nbsp;<a href=\"https://www.d20pfsrd.com/basics-ability-scores/ability-scores#TOC-Intelligence-Int-\">Intelligence</a>.</li>\n<li style=\"box-sizing: border-box;\"><span style=\"box-sizing: border-box; font-weight: bold;\">Type</span>: Sulis are&nbsp;<a href=\"https://www.d20pfsrd.com/bestiary/rules-for-monsters/creature-types#TOC-Outsider\">outsiders</a>&nbsp;with the&nbsp;<a href=\"https://www.d20pfsrd.com/bestiary/rules-for-monsters/creature-types#TOC-Native\">native</a>&nbsp;subtype.</li>\n<li style=\"box-sizing: border-box;\"><span style=\"box-sizing: border-box; font-weight: bold;\">Size</span>: Sulis are Medium creatures and thus have no bonuses or penalties due to their size.</li>\n<li style=\"box-sizing: border-box;\"><span style=\"box-sizing: border-box; font-weight: bold;\">Base Speed</span>: Sulis have a base speed of 30 feet.</li>\n<li style=\"box-sizing: border-box;\"><span style=\"box-sizing: border-box; font-weight: bold;\">Languages</span>: Sulis begin play speaking Common and one elemental language (Aquan, Auran, Ignan, or Terran). Sulis with high&nbsp;<a href=\"https://www.d20pfsrd.com/basics-ability-scores/ability-scores#TOC-Intelligence-Int-\">Intelligence</a>&nbsp;scores can choose from the following: Aquan, Auran, Draconic, Ignan, and Terran. See the&nbsp;<a href=\"https://www.d20pfsrd.com/skills/linguistics\">Linguistics skill page</a>&nbsp;for more information about these languages.</li>\n</ul>\n<h3>Skill Racial Traits</h3>\n<ul>\n<li><strong>Negotiator:</strong> Sulis are keen negotiators, and gain a +2&nbsp;<a href=\"https://www.d20pfsrd.com/basics-ability-scores/glossary#TOC-Racial-Bonus\">racial bonus</a>&nbsp;on&nbsp;<a href=\"https://www.d20pfsrd.com/skills/diplomacy\">Diplomacy</a>&nbsp;and&nbsp;<a href=\"https://www.d20pfsrd.com/skills/sense-motive\">Sense Motive</a>&nbsp;checks.</li>\n</ul>\n<h3>Magical Racial Traits</h3>\n<ul>\n<li><strong>Elemental Assault (Su)</strong>&nbsp;Once per day as a&nbsp;<a href=\"https://www.d20pfsrd.com/gamemastering/combat#TOC-Swift-Actions\">swift action</a>, a suli can shroud her arms in acid, cold, electricity, or fire. This lasts for one round per level, and can be dismissed as a&nbsp;<a href=\"https://www.d20pfsrd.com/gamemastering/combat#TOC-Free-Actions\">free action</a>. Unarmed strikes with her arms or hands (or attacks with weapons held in those hands) deal +1d6 points of damage of the appropriate energy type.</li>\n</ul>\n<h3>Defense Racial Traits</h3>\n<ul>\n<li><strong>Energy Resistance 5:</strong> Sulis have&nbsp;<a href=\"https://www.d20pfsrd.com/gamemastering/special-abilities#TOC-Energy-Resistance\">resistance</a>&nbsp;to acid 5, cold 5, electricity 5, and fire 5.</li>\n</ul>\n<h3>Senses Racial Traits</h3>\n<ul>\n<li><strong>Low-Light Vision:</strong> Sulis can see twice as far as&nbsp;<a href=\"https://www.d20pfsrd.com/races/core-races/human\">humans</a>&nbsp;in dim light.</li>\n</ul>",
          "chat": "",
          "unidentified": ""
        },
        "tags": [],
        "changes": [
          {
            "_id": "0q8cp09x",
            "formula": "2",
            "operator": "+",
            "target": "ability",
            "subTarget": "str",
            "modifier": "racial",
            "priority": 0,
            "value": 0
          },
          {
            "_id": "7qsdrzk2",
            "formula": "-2",
            "operator": "+",
            "target": "ability",
            "subTarget": "int",
            "modifier": "racial",
            "priority": 0,
            "value": 0
          },
          {
            "_id": "t3os172i",
            "formula": "2",
            "operator": "+",
            "target": "ability",
            "subTarget": "cha",
            "modifier": "racial",
            "priority": 0,
            "value": 0
          },
          {
            "_id": "hjn8zya8",
            "formula": "2",
            "operator": "+",
            "target": "skill",
            "subTarget": "skill.dip",
            "modifier": "racial",
            "priority": 0,
            "value": 0
          },
          {
            "_id": "1mutkrel",
            "formula": "2",
            "operator": "+",
            "target": "skill",
            "subTarget": "skill.sen",
            "modifier": "racial",
            "priority": 0,
            "value": 0
          }
        ],
        "changeFlags": {
          "loseDexToAC": false,
          "noStr": false,
          "noDex": false,
          "oneInt": false,
          "oneWis": false,
          "oneCha": false,
          "noEncumbrance": false,
          "mediumArmorFullSpeed": false,
          "heavyArmorFullSpeed": false
        },
        "contextNotes": [],
        "links": {
          "children": []
        },
        "armorProf": {
          "value": [],
          "custom": ""
        },
        "weaponProf": {
          "value": [],
          "custom": ""
        },
        "creatureType": "outsider",
        "subTypes": [
          [
            "Outsider"
          ]
        ],
        "damage": {
          "parts": []
        },
        "range": {
          "maxIncrements": 1
        }
      },
      "sort": 1100000,
      "flags": {},
      "img": "systems/pf1/icons/races/creature-types/elemental.png",
      "effects": []
    },
    {
      "_id": "mHTjeWUw9lkpyYHf",
      "name": "Outsider",
      "type": "class",
      "data": {
        "description": {
          "value": "<p>An outsider is at least partially composed of the essence (but not necessarily the material) of some plane other than the Material Plane. Some creatures start out as some other type and become outsiders when they attain a higher (or lower) state of spiritual existence.</p>\n<h2><span id=\"Features\">Features</span></h2>\n<p>An outsider has the following features.</p>\n<ul>\n<li>d10 Hit Dice.</li>\n<li>Base attack bonus equal to total Hit Dice (fast progression).</li>\n<li>Two good saving throws, usually&nbsp;<a href=\"https://www.d20pfsrd.com/gamemastering/combat#TOC-Reflex\" rel=\"nofollow\">Reflex</a>&nbsp;and Will.</li>\n<li>Skill points equal to 6 + Int modifier (minimum 1) per Hit Die. The following are class skills for outsiders: <a href=\"https://www.d20pfsrd.com/skills/bluff\" rel=\"nofollow\">Bluff</a>, <a href=\"https://www.d20pfsrd.com/skills/craft\" rel=\"nofollow\">Craft</a>, <a href=\"https://www.d20pfsrd.com/skills/knowledge\" rel=\"nofollow\">Knowledge</a>&nbsp;(planes), <a href=\"https://www.d20pfsrd.com/skills/perception\" rel=\"nofollow\">Perception</a>, <a href=\"https://www.d20pfsrd.com/skills/sense-motive\" rel=\"nofollow\">Sense Motive</a>, and <a href=\"https://www.d20pfsrd.com/skills/stealth\" rel=\"nofollow\">Stealth</a>. Due to their varied nature, outsiders also receive 4 additional class skills determined by the creature’s theme.</li>\n</ul>\n<h2><span id=\"Traits\">Traits</span></h2>\n<p>An outsider possesses the following traits (unless otherwise noted in a creature’s entry).</p>\n<ul>\n<li>Darkvision 60 feet.</li>\n<li>Unlike most living creatures, an outsider does not have a dual nature—its soul and body form one unit. When an outsider is slain, no soul is set loose. Spells that restore souls to their bodies, such as&nbsp;<a href=\"https://www.d20pfsrd.com/magic/all-spells/r/raise-dead\" rel=\"nofollow\">raise dead</a>,&nbsp;<a href=\"https://www.d20pfsrd.com/magic/all-spells/r/reincarnate\" rel=\"nofollow\">reincarnate</a>,&nbsp;and&nbsp;<a href=\"https://www.d20pfsrd.com/magic/all-spells/r/resurrection\" rel=\"nofollow\">resurrection</a>,&nbsp;don’t work on an outsider. It takes a different magical effect, such as&nbsp;<a href=\"https://www.d20pfsrd.com/magic/all-spells/l/limited-wish\" rel=\"nofollow\">limited wish</a>,&nbsp;<a href=\"https://www.d20pfsrd.com/magic/all-spells/w/wish\" rel=\"nofollow\">wish</a>,&nbsp;<a href=\"https://www.d20pfsrd.com/magic/all-spells/m/miracle\" rel=\"nofollow\">miracle</a>,&nbsp;or&nbsp;<a href=\"https://www.d20pfsrd.com/magic/all-spells/t/true-resurrection\" rel=\"nofollow\">true resurrection</a>&nbsp;to restore it to life. An outsider with the native subtype can be raised, reincarnated, or resurrected just as other living creatures can be.</li>\n<li>Proficient with all simple and martial weapons and any weapons mentioned in its entry.</li>\n<li>Proficient with whatever type of armor (light, medium, or heavy) it is described as wearing, as well as all lighter types. Outsiders not indicated as wearing armor are not proficient with armor. Outsiders are proficient with shields if they are proficient with any form of armor.</li>\n<li>Outsiders breathe, but do not need to eat or sleep (although they can do so if they wish). Native outsiders breathe, eat, and sleep.</li>\n</ul>",
          "chat": "",
          "unidentified": ""
        },
        "tags": [],
        "changes": [],
        "changeFlags": {
          "loseDexToAC": false,
          "noStr": false,
          "noDex": false,
          "oneInt": false,
          "oneWis": false,
          "oneCha": false,
          "noEncumbrance": false,
          "mediumArmorFullSpeed": false,
          "heavyArmorFullSpeed": false
        },
        "links": {
          "children": []
        },
        "tag": "outsider",
        "useCustomTag": false,
        "armorProf": {
          "value": [],
          "custom": ""
        },
        "weaponProf": {
          "value": [],
          "custom": ""
        },
        "classType": "racial",
        "levels": 1,
        "level": 0,
        "hd": 10,
        "hp": 0,
        "bab": "high",
        "skillsPerLevel": 6,
        "savingThrows": {
          "fort": {
            "value": "low"
          },
          "ref": {
            "value": "high"
          },
          "will": {
            "value": "high"
          }
        },
        "fc": {
          "hp": {
            "value": 0
          },
          "skill": {
            "value": 0
          },
          "alt": {
            "value": 0
          }
        },
        "classSkills": {
          "acr": false,
          "apr": false,
          "art": false,
          "blf": true,
          "clm": false,
          "crf": true,
          "dip": false,
          "dev": false,
          "dis": false,
          "esc": false,
          "fly": false,
          "han": false,
          "hea": false,
          "int": false,
          "kar": false,
          "kdu": false,
          "ken": false,
          "kge": false,
          "khi": false,
          "klo": false,
          "kna": false,
          "kno": false,
          "kpl": true,
          "kre": false,
          "lin": false,
          "lor": false,
          "per": true,
          "prf": false,
          "pro": false,
          "rid": false,
          "sen": true,
          "slt": false,
          "spl": false,
          "ste": true,
          "sur": false,
          "swm": false,
          "umd": false
        },
        "damage": {
          "parts": []
        },
        "range": {
          "maxIncrements": 1
        }
      },
      "sort": 100000,
      "flags": {},
      "img": "systems/pf1/icons/skills/yellow_40.jpg",
      "effects": []
    },
    {
      "_id": "hhRAJ0s6vY4Wo67p",
      "name": "scimitar",
      "type": "attack",
      "data": {
        "description": {
          "value": "",
          "chat": "",
          "unidentified": ""
        },
        "tags": [],
        "activation": {
          "cost": 1,
          "type": "standard"
        },
        "unchainedAction": {
          "activation": {
            "cost": 2,
            "type": "action"
          }
        },
        "duration": {
          "value": null,
          "units": "inst"
        },
        "target": {
          "value": ""
        },
        "range": {
          "value": null,
          "units": "",
          "maxIncrements": 1,
          "minValue": null,
          "minUnits": "",
          "long": null
        },
        "uses": {
          "value": 0,
          "max": 0,
          "per": "",
          "autoDeductCharges": false,
          "autoDeductChargesCost": "1"
        },
        "measureTemplate": {
          "type": "",
          "size": "0",
          "overrideColor": false,
          "customColor": "",
          "overrideTexture": false,
          "customTexture": ""
        },
        "attackName": "",
        "actionType": "mwak",
        "attackBonus": "1",
        "critConfirmBonus": "",
        "damage": {
          "parts": [
            [
              "sizeRoll(1, 6, @size, 4) + 1",
              "S"
            ]
          ],
          "critParts": [],
          "nonCritParts": []
        },
        "attackParts": [],
        "formula": "",
        "ability": {
          "attack": "str",
          "damage": "str",
          "damageMult": 1,
          "critRange": "18",
          "critMult": 2
        },
        "save": {
          "dc": "",
          "type": "",
          "description": ""
        },
        "effectNotes": "",
        "attackNotes": "Reach: 5 ft.\nscimitar +4 (1d6+3/18-20)",
        "soundEffect": "",
        "links": {
          "children": [],
          "charges": []
        },
        "tag": "",
        "useCustomTag": false,
        "attackType": "weapon",
        "masterwork": false,
        "nonlethal": false,
        "enh": null,
        "proficient": true,
        "primaryAttack": true,
        "showInQuickbar": true,
        "broken": false,
        "held": "normal",
        "conditionals": [],
        "attack": {
          "parts": []
        }
      },
      "sort": 100000,
      "flags": {},
      "img": "icons/svg/mystery-man.svg",
      "effects": []
    },
    {
      "_id": "loYH7oTgu5IABEdV",
      "name": "shortbow",
      "type": "attack",
      "data": {
        "description": {
          "value": "",
          "chat": "",
          "unidentified": ""
        },
        "tags": [],
        "activation": {
          "cost": 1,
          "type": "standard"
        },
        "unchainedAction": {
          "activation": {
            "cost": 2,
            "type": "action"
          }
        },
        "duration": {
          "value": null,
          "units": "inst"
        },
        "target": {
          "value": ""
        },
        "range": {
          "value": null,
          "units": "",
          "maxIncrements": 1,
          "minValue": null,
          "minUnits": "",
          "long": null
        },
        "uses": {
          "value": 0,
          "max": 0,
          "per": "",
          "autoDeductCharges": false,
          "autoDeductChargesCost": "1"
        },
        "measureTemplate": {
          "type": "",
          "size": "0",
          "overrideColor": false,
          "customColor": "",
          "overrideTexture": false,
          "customTexture": ""
        },
        "attackName": "",
        "actionType": "rwak",
        "attackBonus": "0",
        "critConfirmBonus": "",
        "damage": {
          "parts": [
            [
              "sizeRoll(1, 6, @size, 4) + -2",
              "P"
            ]
          ],
          "critParts": [],
          "nonCritParts": []
        },
        "attackParts": [],
        "formula": "",
        "ability": {
          "attack": "dex",
          "damage": "str",
          "damageMult": 1,
          "critRange": 20,
          "critMult": "3"
        },
        "save": {
          "dc": "",
          "type": "",
          "description": ""
        },
        "effectNotes": "",
        "attackNotes": "shortbow +2 (1d6/x3)",
        "soundEffect": "",
        "links": {
          "children": [],
          "charges": []
        },
        "tag": "",
        "useCustomTag": false,
        "attackType": "weapon",
        "masterwork": false,
        "nonlethal": false,
        "enh": null,
        "proficient": true,
        "primaryAttack": true,
        "showInQuickbar": true,
        "broken": false,
        "held": "normal",
        "conditionals": [],
        "attack": {
          "parts": []
        }
      },
      "sort": 100000,
      "flags": {},
      "img": "icons/svg/mystery-man.svg",
      "effects": []
    },
    {
      "_id": "suXoEt2psVAVY7gQ",
      "name": "Special Attack: Favored Enemy",
      "type": "attack",
      "data": {
        "description": {
          "value": "",
          "chat": "",
          "unidentified": ""
        },
        "tags": [],
        "activation": {
          "cost": 1,
          "type": "standard"
        },
        "unchainedAction": {
          "activation": {
            "cost": 2,
            "type": "action"
          }
        },
        "duration": {
          "value": null,
          "units": "inst"
        },
        "target": {
          "value": ""
        },
        "range": {
          "value": null,
          "units": "",
          "maxIncrements": 1,
          "minValue": null,
          "minUnits": "",
          "long": null
        },
        "uses": {
          "value": 0,
          "max": 0,
          "per": "",
          "autoDeductCharges": false,
          "autoDeductChargesCost": "1"
        },
        "measureTemplate": {
          "type": "",
          "size": "0",
          "overrideColor": false,
          "customColor": "",
          "overrideTexture": false,
          "customTexture": ""
        },
        "attackName": "",
        "actionType": "other",
        "attackBonus": "-3",
        "critConfirmBonus": "",
        "damage": {
          "parts": [
            [
              0,
              ""
            ]
          ],
          "critParts": [],
          "nonCritParts": []
        },
        "attackParts": [],
        "formula": "",
        "ability": {
          "attack": "str",
          "damage": "str",
          "damageMult": 1,
          "critRange": 20,
          "critMult": 2
        },
        "save": {
          "dc": "",
          "type": "",
          "description": ""
        },
        "effectNotes": "",
        "attackNotes": "",
        "soundEffect": "",
        "links": {
          "children": [],
          "charges": []
        },
        "tag": "",
        "useCustomTag": false,
        "attackType": "weapon",
        "masterwork": false,
        "nonlethal": false,
        "enh": null,
        "proficient": true,
        "primaryAttack": true,
        "showInQuickbar": true,
        "broken": false,
        "held": "normal",
        "conditionals": [],
        "attack": {
          "parts": []
        }
      },
      "sort": 100000,
      "flags": {},
      "img": "icons/svg/mystery-man.svg",
      "effects": []
    },
    {
      "_id": "3HZs19iM6sPaLqN5",
      "name": "Weapon Focus (scimitar) ",
      "type": "feat",
      "data": {
        "description": {
          "value": "",
          "chat": "",
          "unidentified": ""
        },
        "tags": [],
        "activation": {
          "cost": 1,
          "type": ""
        },
        "unchainedAction": {
          "activation": {
            "cost": 1,
            "type": ""
          }
        },
        "duration": {
          "value": null,
          "units": ""
        },
        "target": {
          "value": ""
        },
        "range": {
          "value": null,
          "units": "",
          "maxIncrements": 1,
          "minValue": null,
          "minUnits": "",
          "long": null
        },
        "uses": {
          "value": 0,
          "max": 0,
          "per": null,
          "autoDeductCharges": true,
          "autoDeductChargesCost": "1"
        },
        "measureTemplate": {
          "type": "",
          "size": "0",
          "overrideColor": false,
          "customColor": "",
          "overrideTexture": false,
          "customTexture": ""
        },
        "attackName": "",
        "actionType": null,
        "attackBonus": "",
        "critConfirmBonus": "",
        "damage": {
          "parts": [],
          "critParts": [],
          "nonCritParts": []
        },
        "attackParts": [],
        "formula": "",
        "ability": {
          "attack": null,
          "damage": null,
          "damageMult": 1,
          "critRange": 20,
          "critMult": 2
        },
        "save": {
          "dc": 0,
          "type": "",
          "description": ""
        },
        "effectNotes": "",
        "attackNotes": "",
        "soundEffect": "",
        "changes": [],
        "changeFlags": {
          "loseDexToAC": false,
          "noStr": false,
          "noDex": false,
          "oneInt": false,
          "oneWis": false,
          "oneCha": false,
          "noEncumbrance": false,
          "mediumArmorFullSpeed": false,
          "heavyArmorFullSpeed": false
        },
        "contextNotes": [],
        "links": {
          "children": [],
          "charges": []
        },
        "tag": "",
        "useCustomTag": false,
        "armorProf": {
          "value": [],
          "custom": ""
        },
        "weaponProf": {
          "value": [],
          "custom": ""
        },
        "featType": "feat",
        "associations": {
          "classes": []
        },
        "showInQuickbar": false,
        "nonlethal": false,
        "abilityType": "none",
        "crOffset": "",
        "attack": {
          "parts": []
        }
      },
      "sort": 100000,
      "flags": {},
      "img": "icons/svg/mystery-man.svg",
      "effects": []
    },
    {
      "_id": "OLXpyezUyJeaWhsn",
      "name": "SQ: Track +1",
      "type": "feat",
      "data": {
        "description": {
          "value": "",
          "chat": "",
          "unidentified": ""
        },
        "tags": [],
        "activation": {
          "cost": 1,
          "type": ""
        },
        "unchainedAction": {
          "activation": {
            "cost": 1,
            "type": ""
          }
        },
        "duration": {
          "value": null,
          "units": ""
        },
        "target": {
          "value": ""
        },
        "range": {
          "value": null,
          "units": "",
          "maxIncrements": 1,
          "minValue": null,
          "minUnits": "",
          "long": null
        },
        "uses": {
          "value": 0,
          "max": 0,
          "per": null,
          "autoDeductCharges": true,
          "autoDeductChargesCost": "1"
        },
        "measureTemplate": {
          "type": "",
          "size": "0",
          "overrideColor": false,
          "customColor": "",
          "overrideTexture": false,
          "customTexture": ""
        },
        "attackName": "",
        "actionType": "",
        "attackBonus": "",
        "critConfirmBonus": "",
        "damage": {
          "parts": [],
          "critParts": [],
          "nonCritParts": []
        },
        "attackParts": [],
        "formula": "",
        "ability": {
          "attack": "",
          "damage": "",
          "damageMult": 1,
          "critRange": 20,
          "critMult": 2
        },
        "save": {
          "dc": "",
          "type": "",
          "description": ""
        },
        "effectNotes": "",
        "attackNotes": "",
        "soundEffect": "",
        "changes": [],
        "changeFlags": {
          "loseDexToAC": false,
          "noStr": false,
          "noDex": false,
          "oneInt": false,
          "oneWis": false,
          "oneCha": false,
          "noEncumbrance": false,
          "mediumArmorFullSpeed": false,
          "heavyArmorFullSpeed": false
        },
        "contextNotes": [],
        "links": {
          "children": [],
          "charges": []
        },
        "tag": "",
        "useCustomTag": false,
        "armorProf": {
          "value": [],
          "custom": ""
        },
        "weaponProf": {
          "value": [],
          "custom": ""
        },
        "featType": "classFeat",
        "associations": {
          "classes": []
        },
        "showInQuickbar": false,
        "nonlethal": false,
        "abilityType": "",
        "crOffset": "0",
        "attack": {
          "parts": []
        }
      },
      "sort": 1000000,
      "flags": {},
      "img": "icons/svg/mystery-man.svg",
      "effects": []
    },
    {
      "_id": "IRpE1DDkvlPB05I0",
      "name": "SQ: Wild Empathy +1",
      "type": "feat",
      "data": {
        "description": {
          "value": "",
          "chat": "",
          "unidentified": ""
        },
        "tags": [],
        "activation": {
          "cost": 1,
          "type": ""
        },
        "unchainedAction": {
          "activation": {
            "cost": 1,
            "type": ""
          }
        },
        "duration": {
          "value": null,
          "units": ""
        },
        "target": {
          "value": ""
        },
        "range": {
          "value": null,
          "units": "",
          "maxIncrements": 1,
          "minValue": null,
          "minUnits": "",
          "long": null
        },
        "uses": {
          "value": 0,
          "max": 0,
          "per": null,
          "autoDeductCharges": true,
          "autoDeductChargesCost": "1"
        },
        "measureTemplate": {
          "type": "",
          "size": "0",
          "overrideColor": false,
          "customColor": "",
          "overrideTexture": false,
          "customTexture": ""
        },
        "attackName": "",
        "actionType": "",
        "attackBonus": "",
        "critConfirmBonus": "",
        "damage": {
          "parts": [],
          "critParts": [],
          "nonCritParts": []
        },
        "attackParts": [],
        "formula": "",
        "ability": {
          "attack": "",
          "damage": "",
          "damageMult": 1,
          "critRange": 20,
          "critMult": 2
        },
        "save": {
          "dc": "",
          "type": "",
          "description": ""
        },
        "effectNotes": "",
        "attackNotes": "",
        "soundEffect": "",
        "changes": [],
        "changeFlags": {
          "loseDexToAC": false,
          "noStr": false,
          "noDex": false,
          "oneInt": false,
          "oneWis": false,
          "oneCha": false,
          "noEncumbrance": false,
          "mediumArmorFullSpeed": false,
          "heavyArmorFullSpeed": false
        },
        "contextNotes": [],
        "links": {
          "children": [],
          "charges": []
        },
        "tag": "",
        "useCustomTag": false,
        "armorProf": {
          "value": [],
          "custom": ""
        },
        "weaponProf": {
          "value": [],
          "custom": ""
        },
        "featType": "classFeat",
        "associations": {
          "classes": []
        },
        "showInQuickbar": false,
        "nonlethal": false,
        "abilityType": "",
        "crOffset": "0",
        "attack": {
          "parts": []
        }
      },
      "sort": 1000000,
      "flags": {},
      "img": "icons/svg/mystery-man.svg",
      "effects": []
    },
    {
      "_id": "V5m86yZFMtWsqNuu",
      "name": "sbc | Conversion Changes",
      "type": "buff",
      "data": {
        "description": {
          "value": "<h2>Actor created with Lavaeolous' StatBlock Converter</h2>\n<p>This Buff contains data that could not be represented in other ways. It is advised to re-check the stats in this when adding new features, such as Feats (e.g. Improved Initiative).</p>",
          "chat": "",
          "unidentified": ""
        },
        "tags": [],
        "changes": [
          {
            "_id": "1xn2ahu4",
            "formula": "6",
            "operator": "+",
            "target": "misc",
            "subTarget": "mhp",
            "modifier": "untyped",
            "priority": 1,
            "value": 0
          },
          {
            "_id": "gvf8rysq",
            "formula": "0",
            "operator": "+",
            "target": "misc",
            "subTarget": "init",
            "modifier": "untyped",
            "priority": 1,
            "value": 0
          },
          {
            "_id": "vvyawxlu",
            "formula": "10",
            "operator": "+",
            "target": "speed",
            "subTarget": "landSpeed",
            "modifier": "untyped",
            "priority": 1,
            "value": 0
          },
          {
            "_id": "kwe6zwlh",
            "formula": "6",
            "operator": "+",
            "target": "ac",
            "subTarget": "aac",
            "modifier": "untyped",
            "priority": 1,
            "value": 0
          },
          {
            "_id": "up9vjmpq",
            "formula": "0",
            "operator": "+",
            "target": "savingThrows",
            "subTarget": "fort",
            "modifier": "untyped",
            "priority": 1,
            "value": 0
          },
          {
            "_id": "a6fathi9",
            "formula": "-2",
            "operator": "+",
            "target": "savingThrows",
            "subTarget": "ref",
            "modifier": "untyped",
            "priority": 1,
            "value": 0
          },
          {
            "_id": "9dwdvoyf",
            "formula": "-2",
            "operator": "+",
            "target": "savingThrows",
            "subTarget": "will",
            "modifier": "untyped",
            "priority": 1,
            "value": 0
          }
        ],
        "changeFlags": {
          "loseDexToAC": false,
          "noStr": false,
          "noDex": false,
          "oneInt": false,
          "oneWis": false,
          "oneCha": false,
          "noEncumbrance": false,
          "mediumArmorFullSpeed": false,
          "heavyArmorFullSpeed": false
        },
        "contextNotes": [],
        "links": {
          "children": []
        },
        "tag": "",
        "useCustomTag": false,
        "buffType": "perm",
        "active": true,
        "level": "",
        "hideFromToken": true,
        "damage": {
          "parts": []
        },
        "range": {
          "maxIncrements": 1
        }
      },
      "sort": 100001,
      "flags": {},
      "img": "systems/pf1/icons/skills/yellow_36.jpg",
      "effects": []
    }
  ],
  "effects": []
}